(export (version D)
  (design
    (source "/home/santi/Trabajo final/ESQUEMATICO/KICAD/relay_k64.sch")
    (date "vie 20 nov 2015 12:53:59 ART")
    (tool "Eeschema 4.0.0-1rc2.201511182116+6189~38~ubuntu14.04.1-stable")
    (sheet (number 1) (name /) (tstamps /)
      (title_block
        (title noname.sch)
        (company)
        (rev)
        (date "19 nov 2015")
        (source relay_k64.sch)
        (comment (number 1) (value ""))
        (comment (number 2) (value ""))
        (comment (number 3) (value ""))
        (comment (number 4) (value "")))))
  (components
    (comp (ref SHIELD1)
      (value ARDUINO_SHIELD)
      (libsource (lib relay_k64-cache) (part ARDUINO_SHIELD))
      (sheetpath (names /) (tstamps /))
      (tstamp 564E231E))
    (comp (ref D3)
      (value DIODE)
      (libsource (lib relay_k64-cache) (part DIODE))
      (sheetpath (names /) (tstamps /))
      (tstamp 564E23C4))
    (comp (ref Q3)
      (value NPN)
      (libsource (lib relay_k64-cache) (part NPN))
      (sheetpath (names /) (tstamps /))
      (tstamp 564E23D3))
    (comp (ref R3)
      (value R)
      (libsource (lib relay_k64-cache) (part R))
      (sheetpath (names /) (tstamps /))
      (tstamp 564E23E2))
    (comp (ref K3)
      (value RELAY_2RT)
      (libsource (lib relay_k64-cache) (part RELAY_2RT))
      (sheetpath (names /) (tstamps /))
      (tstamp 564E2409))
    (comp (ref D4)
      (value DIODE)
      (libsource (lib relay_k64-cache) (part DIODE))
      (sheetpath (names /) (tstamps /))
      (tstamp 564E2577))
    (comp (ref Q4)
      (value NPN)
      (libsource (lib relay_k64-cache) (part NPN))
      (sheetpath (names /) (tstamps /))
      (tstamp 564E257D))
    (comp (ref R4)
      (value R)
      (libsource (lib relay_k64-cache) (part R))
      (sheetpath (names /) (tstamps /))
      (tstamp 564E2583))
    (comp (ref K4)
      (value RELAY_2RT)
      (libsource (lib relay_k64-cache) (part RELAY_2RT))
      (sheetpath (names /) (tstamps /))
      (tstamp 564E2589))
    (comp (ref D2)
      (value DIODE)
      (libsource (lib relay_k64-cache) (part DIODE))
      (sheetpath (names /) (tstamps /))
      (tstamp 564E25BD))
    (comp (ref Q2)
      (value NPN)
      (libsource (lib relay_k64-cache) (part NPN))
      (sheetpath (names /) (tstamps /))
      (tstamp 564E25C3))
    (comp (ref R2)
      (value R)
      (libsource (lib relay_k64-cache) (part R))
      (sheetpath (names /) (tstamps /))
      (tstamp 564E25C9))
    (comp (ref K2)
      (value RELAY_2RT)
      (libsource (lib relay_k64-cache) (part RELAY_2RT))
      (sheetpath (names /) (tstamps /))
      (tstamp 564E25CF))
    (comp (ref D1)
      (value DIODE)
      (libsource (lib relay_k64-cache) (part DIODE))
      (sheetpath (names /) (tstamps /))
      (tstamp 564E25EB))
    (comp (ref Q1)
      (value NPN)
      (libsource (lib relay_k64-cache) (part NPN))
      (sheetpath (names /) (tstamps /))
      (tstamp 564E25F1))
    (comp (ref R1)
      (value R)
      (libsource (lib relay_k64-cache) (part R))
      (sheetpath (names /) (tstamps /))
      (tstamp 564E25F7))
    (comp (ref K1)
      (value RELAY_2RT)
      (libsource (lib relay_k64-cache) (part RELAY_2RT))
      (sheetpath (names /) (tstamps /))
      (tstamp 564E25FD)))
  (libparts
    (libpart (lib relay_k64-cache) (part ARDUINO_SHIELD)
      (fields
        (field (name Reference) SHIELD)
        (field (name Value) ARDUINO_SHIELD))
      (pins
        (pin (num 0) (name 0) (type BiDi))
        (pin (num 1) (name 1) (type BiDi))
        (pin (num 2) (name 2) (type BiDi))
        (pin (num 3) (name 3) (type BiDi))
        (pin (num 4) (name 4) (type BiDi))
        (pin (num 5) (name 5) (type BiDi))
        (pin (num 5V) (name 5V) (type power_in))
        (pin (num 6) (name 6) (type BiDi))
        (pin (num 7) (name 7) (type BiDi))
        (pin (num 8) (name 8) (type BiDi))
        (pin (num 9) (name 9) (type BiDi))
        (pin (num 10) (name 10) (type BiDi))
        (pin (num 11) (name 11) (type BiDi))
        (pin (num 12) (name 12) (type BiDi))
        (pin (num 13) (name 13) (type BiDi))
        (pin (num 3V3) (name 3V3) (type power_in))
        (pin (num AD0) (name AD0) (type BiDi))
        (pin (num AD1) (name AD1) (type BiDi))
        (pin (num AD2) (name AD2) (type BiDi))
        (pin (num AD3) (name AD3) (type BiDi))
        (pin (num AD4) (name AD4) (type BiDi))
        (pin (num AD5) (name AD5) (type BiDi))
        (pin (num AREF) (name AREF) (type power_in))
        (pin (num GND1) (name GND1) (type power_in))
        (pin (num GND2) (name GND2) (type power_in))
        (pin (num GND3) (name GND3) (type power_in))
        (pin (num RST) (name RST) (type input))
        (pin (num V_IN) (name V_IN) (type power_in))))
    (libpart (lib relay_k64-cache) (part DIODE)
      (footprints
        (fp D?)
        (fp S*))
      (fields
        (field (name Reference) D)
        (field (name Value) DIODE))
      (pins
        (pin (num 1) (name A) (type passive))
        (pin (num 2) (name K) (type passive))))
    (libpart (lib relay_k64-cache) (part NPN)
      (fields
        (field (name Reference) Q)
        (field (name Value) NPN))
      (pins
        (pin (num 1) (name E) (type passive))
        (pin (num 2) (name B) (type input))
        (pin (num 3) (name C) (type passive))))
    (libpart (lib relay_k64-cache) (part R)
      (footprints
        (fp R?)
        (fp SM0603)
        (fp SM0805)
        (fp R?-*)
        (fp SM1206))
      (fields
        (field (name Reference) R)
        (field (name Value) R))
      (pins
        (pin (num 1) (name ~) (type passive))
        (pin (num 2) (name ~) (type passive))))
    (libpart (lib relay_k64-cache) (part RELAY_2RT)
      (fields
        (field (name Reference) K)
        (field (name Value) RELAY_2RT))
      (pins
        (pin (num 1) (name T1) (type passive))
        (pin (num 3) (name R1) (type passive))
        (pin (num 5) (name C1) (type passive))
        (pin (num 8) (name 8) (type input))
        (pin (num 9) (name 9) (type input))
        (pin (num 12) (name C2) (type passive))
        (pin (num 14) (name R2) (type passive))
        (pin (num 16) (name T2) (type passive)))))
  (libraries
    (library (logical relay_k64-cache)
      (uri "/home/santi/Trabajo final/ESQUEMATICO/KICAD/relay_k64-cache.lib")))
  (nets
    (net (code 1) (name "Net-(D2-Pad1)")
      (node (ref Q2) (pin 3))
      (node (ref K2) (pin 9))
      (node (ref D2) (pin 1)))
    (net (code 2) (name GND)
      (node (ref Q2) (pin 1))
      (node (ref Q3) (pin 1))
      (node (ref Q4) (pin 1))
      (node (ref Q1) (pin 1)))
    (net (code 3) (name "Net-(Q2-Pad2)")
      (node (ref R2) (pin 2))
      (node (ref Q2) (pin 2)))
    (net (code 4) (name "Net-(R1-Pad1)")
      (node (ref SHIELD1) (pin 4))
      (node (ref R1) (pin 1)))
    (net (code 5) (name "Net-(Q1-Pad2)")
      (node (ref R1) (pin 2))
      (node (ref Q1) (pin 2)))
    (net (code 6) (name "Net-(K1-Pad1)")
      (node (ref K1) (pin 1)))
    (net (code 7) (name "Net-(K1-Pad3)")
      (node (ref K1) (pin 3)))
    (net (code 8) (name "Net-(K1-Pad5)")
      (node (ref K1) (pin 5)))
    (net (code 9) (name "Net-(D1-Pad1)")
      (node (ref K1) (pin 9))
      (node (ref Q1) (pin 3))
      (node (ref D1) (pin 1)))
    (net (code 10) (name "Net-(K1-Pad12)")
      (node (ref K1) (pin 12)))
    (net (code 11) (name "Net-(K1-Pad14)")
      (node (ref K1) (pin 14)))
    (net (code 12) (name "Net-(K1-Pad16)")
      (node (ref K1) (pin 16)))
    (net (code 13) (name "Net-(R2-Pad1)")
      (node (ref SHIELD1) (pin 7))
      (node (ref R2) (pin 1)))
    (net (code 14) (name "Net-(K2-Pad1)")
      (node (ref K2) (pin 1)))
    (net (code 15) (name "Net-(K2-Pad3)")
      (node (ref K2) (pin 3)))
    (net (code 16) (name "Net-(K2-Pad5)")
      (node (ref K2) (pin 5)))
    (net (code 17) (name "Net-(K2-Pad12)")
      (node (ref K2) (pin 12)))
    (net (code 18) (name "Net-(K2-Pad14)")
      (node (ref K2) (pin 14)))
    (net (code 19) (name "Net-(K2-Pad16)")
      (node (ref K2) (pin 16)))
    (net (code 20) (name VCC)
      (node (ref K4) (pin 8))
      (node (ref D4) (pin 2))
      (node (ref D3) (pin 2))
      (node (ref K3) (pin 8))
      (node (ref K2) (pin 8))
      (node (ref D2) (pin 2))
      (node (ref K1) (pin 8))
      (node (ref D1) (pin 2)))
    (net (code 21) (name "Net-(K3-Pad14)")
      (node (ref K3) (pin 14)))
    (net (code 22) (name "Net-(K3-Pad16)")
      (node (ref K3) (pin 16)))
    (net (code 23) (name "Net-(K3-Pad12)")
      (node (ref K3) (pin 12)))
    (net (code 24) (name "Net-(K3-Pad3)")
      (node (ref K3) (pin 3)))
    (net (code 25) (name "Net-(R4-Pad1)")
      (node (ref R4) (pin 1))
      (node (ref SHIELD1) (pin 5)))
    (net (code 26) (name "Net-(K4-Pad14)")
      (node (ref K4) (pin 14)))
    (net (code 27) (name "Net-(K4-Pad16)")
      (node (ref K4) (pin 16)))
    (net (code 28) (name "Net-(K4-Pad12)")
      (node (ref K4) (pin 12)))
    (net (code 29) (name "Net-(K4-Pad3)")
      (node (ref K4) (pin 3)))
    (net (code 30) (name "Net-(K4-Pad5)")
      (node (ref K4) (pin 5)))
    (net (code 31) (name "Net-(K3-Pad5)")
      (node (ref K3) (pin 5)))
    (net (code 32) (name "Net-(R3-Pad1)")
      (node (ref R3) (pin 1))
      (node (ref SHIELD1) (pin 6)))
    (net (code 33) (name "Net-(SHIELD1-PadGND1)")
      (node (ref SHIELD1) (pin GND1)))
    (net (code 34) (name "Net-(SHIELD1-PadGND2)")
      (node (ref SHIELD1) (pin GND2)))
    (net (code 35) (name "Net-(SHIELD1-PadGND3)")
      (node (ref SHIELD1) (pin GND3)))
    (net (code 36) (name "Net-(SHIELD1-PadAREF)")
      (node (ref SHIELD1) (pin AREF)))
    (net (code 37) (name "Net-(SHIELD1-PadV_IN)")
      (node (ref SHIELD1) (pin V_IN)))
    (net (code 38) (name "Net-(SHIELD1-PadRST)")
      (node (ref SHIELD1) (pin RST)))
    (net (code 39) (name "Net-(Q3-Pad2)")
      (node (ref R3) (pin 2))
      (node (ref Q3) (pin 2)))
    (net (code 40) (name "Net-(K3-Pad1)")
      (node (ref K3) (pin 1)))
    (net (code 41) (name "Net-(D3-Pad1)")
      (node (ref D3) (pin 1))
      (node (ref Q3) (pin 3))
      (node (ref K3) (pin 9)))
    (net (code 42) (name "Net-(SHIELD1-Pad11)")
      (node (ref SHIELD1) (pin 11)))
    (net (code 43) (name "Net-(SHIELD1-Pad1)")
      (node (ref SHIELD1) (pin 1)))
    (net (code 44) (name "Net-(SHIELD1-Pad2)")
      (node (ref SHIELD1) (pin 2)))
    (net (code 45) (name "Net-(SHIELD1-Pad3)")
      (node (ref SHIELD1) (pin 3)))
    (net (code 46) (name "Net-(SHIELD1-Pad8)")
      (node (ref SHIELD1) (pin 8)))
    (net (code 47) (name "Net-(SHIELD1-Pad9)")
      (node (ref SHIELD1) (pin 9)))
    (net (code 48) (name "Net-(SHIELD1-Pad10)")
      (node (ref SHIELD1) (pin 10)))
    (net (code 49) (name "Net-(SHIELD1-Pad12)")
      (node (ref SHIELD1) (pin 12)))
    (net (code 50) (name "Net-(SHIELD1-Pad13)")
      (node (ref SHIELD1) (pin 13)))
    (net (code 51) (name "Net-(SHIELD1-Pad5V)")
      (node (ref SHIELD1) (pin 5V)))
    (net (code 52) (name "Net-(SHIELD1-PadAD0)")
      (node (ref SHIELD1) (pin AD0)))
    (net (code 53) (name "Net-(SHIELD1-PadAD1)")
      (node (ref SHIELD1) (pin AD1)))
    (net (code 54) (name "Net-(SHIELD1-PadAD2)")
      (node (ref SHIELD1) (pin AD2)))
    (net (code 55) (name "Net-(SHIELD1-PadAD3)")
      (node (ref SHIELD1) (pin AD3)))
    (net (code 56) (name "Net-(SHIELD1-Pad3V3)")
      (node (ref SHIELD1) (pin 3V3)))
    (net (code 57) (name "Net-(SHIELD1-PadAD4)")
      (node (ref SHIELD1) (pin AD4)))
    (net (code 58) (name "Net-(SHIELD1-PadAD5)")
      (node (ref SHIELD1) (pin AD5)))
    (net (code 59) (name "Net-(D4-Pad1)")
      (node (ref D4) (pin 1))
      (node (ref Q4) (pin 3))
      (node (ref K4) (pin 9)))
    (net (code 60) (name "Net-(Q4-Pad2)")
      (node (ref Q4) (pin 2))
      (node (ref R4) (pin 2)))
    (net (code 61) (name "Net-(SHIELD1-Pad0)")
      (node (ref SHIELD1) (pin 0)))
    (net (code 62) (name "Net-(K4-Pad1)")
      (node (ref K4) (pin 1)))))