(kicad_pcb (version 4) (host pcbnew 4.0.1-3.201512221402+6198~38~ubuntu14.04.1-stable)

  (general
    (links 0)
    (no_connects 0)
    (area 177.089999 68.504999 259.790001 121.995001)
    (thickness 1.6)
    (drawings 6)
    (tracks 256)
    (zones 0)
    (modules 39)
    (nets 6)
  )

  (page A3)
  (layers
    (0 F.Cu mixed)
    (31 B.Cu mixed)
    (32 B.Adhes user hide)
    (33 F.Adhes user hide)
    (34 B.Paste user hide)
    (35 F.Paste user hide)
    (36 B.SilkS user)
    (37 F.SilkS user)
    (38 B.Mask user)
    (39 F.Mask user hide)
    (44 Edge.Cuts user)
  )

  (setup
    (last_trace_width 1.254)
    (user_trace_width 0.5)
    (trace_clearance 0.054)
    (zone_clearance 0.508)
    (zone_45_only no)
    (trace_min 0.454)
    (segment_width 0.2)
    (edge_width 0.15)
    (via_size 0.889)
    (via_drill 0.635)
    (via_min_size 0.889)
    (via_min_drill 0.508)
    (user_via 1.2 1)
    (uvia_size 0.508)
    (uvia_drill 0.127)
    (uvias_allowed yes)
    (uvia_min_size 0.508)
    (uvia_min_drill 0.127)
    (pcb_text_width 0.3)
    (pcb_text_size 1 1)
    (mod_edge_width 0.15)
    (mod_text_size 1 1)
    (mod_text_width 0.15)
    (pad_size 1.3 1.50114)
    (pad_drill 1)
    (pad_to_mask_clearance 0)
    (aux_axis_origin 0 0)
    (visible_elements FFFFF73F)
    (pcbplotparams
      (layerselection 0x010f0_80000001)
      (usegerberextensions false)
      (excludeedgelayer true)
      (linewidth 0.150000)
      (plotframeref false)
      (viasonmask false)
      (mode 1)
      (useauxorigin false)
      (hpglpennumber 1)
      (hpglpenspeed 20)
      (hpglpendiameter 15)
      (hpglpenoverlay 2)
      (psnegative false)
      (psa4output false)
      (plotreference true)
      (plotvalue true)
      (plotinvisibletext false)
      (padsonsilk false)
      (subtractmaskfromsilk false)
      (outputformat 1)
      (mirror false)
      (drillshape 0)
      (scaleselection 1)
      (outputdirectory ../negro_kicad/))
  )

  (net 0 "")
  (net 1 N-0000039)
  (net 2 VCC)
  (net 3 "Net-(D3-Pad1)")
  (net 4 "Net-(R3-Pad1)")
  (net 5 "Net-(Q3-Pad2)")

  (net_class Default "This is the default net class."
    (clearance 0.054)
    (trace_width 1.254)
    (via_dia 0.889)
    (via_drill 0.635)
    (uvia_dia 0.508)
    (uvia_drill 0.127)
    (add_net N-0000039)
    (add_net "Net-(D3-Pad1)")
    (add_net "Net-(Q3-Pad2)")
    (add_net "Net-(R3-Pad1)")
    (add_net VCC)
  )

  (net_class mas_fino ""
    (clearance 0.054)
    (trace_width 1)
    (via_dia 0.889)
    (via_drill 0.635)
    (uvia_dia 0.508)
    (uvia_drill 0.127)
  )

  (net_class negro ""
    (clearance 0.054)
    (trace_width 0.5)
    (via_dia 0.889)
    (via_drill 0.635)
    (uvia_dia 0.508)
    (uvia_drill 0.127)
  )

  (module k64_SHIELD (layer F.Cu) (tedit 564F9FF6) (tstamp 564E6F27)
    (at 177.165 121.92)
    (fp_text reference SHIELD** (at 5.08 -57.15) (layer F.SilkS)
      (effects (font (thickness 0.3048)))
    )
    (fp_text value ARDUINO_SHIELD (at 10.16 -54.61) (layer F.SilkS) hide
      (effects (font (thickness 0.3048)))
    )
    (fp_line (start 82.55 -2.54) (end 80.01 0) (layer F.SilkS) (width 0.381))
    (fp_line (start 82.55 -40.64) (end 82.55 -52.07) (layer F.SilkS) (width 0.381))
    (fp_line (start 82.55 -52.07) (end 81.28 -53.34) (layer F.SilkS) (width 0.381))
    (fp_line (start 81.28 -53.34) (end 0 -53.34) (layer F.SilkS) (width 0.381))
    (fp_line (start 80.01 0) (end -0.01 0) (layer F.SilkS) (width 0.381))
    (fp_line (start 0 0) (end 0 -53.34) (layer F.SilkS) (width 0.381))
    (fp_line (start 82.55 -40.64) (end 82.55 -5.08) (layer F.SilkS) (width 0.381))
    (fp_line (start 82.55 -5.08) (end 82.55 -2.54) (layer F.SilkS) (width 0.381))
    (pad AD5 thru_hole oval (at 62.23 -2.54 90) (size 2.54 1.524) (drill 1) (layers *.Cu *.Mask F.SilkS))
    (pad AD4 thru_hole oval (at 59.69 -2.54 90) (size 2.54 1.524) (drill 1) (layers *.Cu *.Mask F.SilkS))
    (pad AD3 thru_hole oval (at 57.15 -2.54 90) (size 2.54 1.524) (drill 1) (layers *.Cu *.Mask F.SilkS))
    (pad AD0 thru_hole oval (at 49.53 -2.54 90) (size 2.54 1.524) (drill 1) (layers *.Cu *.Mask F.SilkS))
    (pad AD1 thru_hole oval (at 52.07 -2.54 90) (size 2.54 1.524) (drill 1) (layers *.Cu *.Mask F.SilkS))
    (pad AD2 thru_hole oval (at 54.61 -2.54 90) (size 2.54 1.524) (drill 1) (layers *.Cu *.Mask F.SilkS))
    (pad V_IN thru_hole oval (at 44.45 -2.54 90) (size 2.54 1.524) (drill 1) (layers *.Cu *.Mask F.SilkS))
    (pad GND2 thru_hole oval (at 41.91 -2.54 90) (size 2.54 1.524) (drill 1) (layers *.Cu *.Mask F.SilkS))
    (pad GND1 thru_hole oval (at 39.37 -2.54 90) (size 2.54 1.524) (drill 1) (layers *.Cu *.Mask F.SilkS))
    (pad 3V3 thru_hole oval (at 34.29 -2.54 90) (size 2.54 1.524) (drill 1) (layers *.Cu *.Mask F.SilkS))
    (pad RST thru_hole oval (at 31.75 -2.54 90) (size 2.54 1.524) (drill 1) (layers *.Cu *.Mask F.SilkS))
    (pad 0 thru_hole oval (at 62.23 -50.8 90) (size 2.54 1.524) (drill 1) (layers *.Cu *.Mask F.SilkS))
    (pad 1 thru_hole oval (at 59.69 -50.8 90) (size 2.54 1.524) (drill 1) (layers *.Cu *.Mask F.SilkS))
    (pad 2 thru_hole oval (at 57.15 -50.8 90) (size 2.54 1.524) (drill 1) (layers *.Cu *.Mask F.SilkS))
    (pad 3 thru_hole oval (at 54.61 -50.8 90) (size 2.54 1.524) (drill 1) (layers *.Cu *.Mask F.SilkS))
    (pad 4 thru_hole oval (at 52.07 -50.8 90) (size 2.54 1.524) (drill 1) (layers *.Cu *.Mask F.SilkS))
    (pad 5 thru_hole oval (at 49.53 -50.8 90) (size 2.54 1.524) (drill 1) (layers *.Cu *.Mask F.SilkS))
    (pad 6 thru_hole oval (at 46.99 -50.8 90) (size 2.54 1.524) (drill 1) (layers *.Cu *.Mask F.SilkS))
    (pad 7 thru_hole oval (at 44.45 -50.8 90) (size 2.54 1.524) (drill 1) (layers *.Cu *.Mask F.SilkS))
    (pad 8 thru_hole oval (at 40.386 -50.8 90) (size 2.54 1.524) (drill 1) (layers *.Cu *.Mask F.SilkS))
    (pad 9 thru_hole oval (at 37.846 -50.8 90) (size 2.54 1.524) (drill 1) (layers *.Cu *.Mask F.SilkS))
    (pad 10 thru_hole oval (at 35.306 -50.8 90) (size 2.54 1.524) (drill 1) (layers *.Cu *.Mask F.SilkS))
    (pad 11 thru_hole oval (at 32.766 -50.8 90) (size 2.54 1.524) (drill 1) (layers *.Cu *.Mask F.SilkS))
    (pad 12 thru_hole oval (at 30.226 -50.8 90) (size 2.54 1.524) (drill 1) (layers *.Cu *.Mask F.SilkS))
    (pad 13 thru_hole oval (at 27.686 -50.8 90) (size 2.54 1.524) (drill 1) (layers *.Cu *.Mask F.SilkS))
    (pad GND3 thru_hole oval (at 25.146 -50.8 90) (size 2.54 1.524) (drill 1) (layers *.Cu *.Mask F.SilkS))
    (pad AREF thru_hole oval (at 22.606 -50.8 90) (size 2.54 1.524) (drill 1) (layers *.Cu *.Mask F.SilkS))
    (pad 5V thru_hole oval (at 36.83 -2.54 90) (size 2.54 1.524) (drill 1) (layers *.Cu *.Mask F.SilkS))
  )

  (module TO_SOT_Packages_THT:TO-92_Inline_Narrow_Oval (layer F.Cu) (tedit 54F24281) (tstamp 56E628F7)
    (at 207.01 106.299 90)
    (descr "TO-92 leads in-line, narrow, oval pads, drill 0.6mm (see NXP sot054_po.pdf)")
    (tags "to-92 sc-43 sc-43a sot54 PA33 transistor")
    (fp_text reference >NAME (at 0 -4 90) (layer F.SilkS)
      (effects (font (size 1 1) (thickness 0.15)))
    )
    (fp_text value >VALUE (at 0 3 90) (layer F.Fab)
      (effects (font (size 1 1) (thickness 0.15)))
    )
    (fp_line (start -1.4 1.95) (end -1.4 -2.65) (layer F.CrtYd) (width 0.05))
    (fp_line (start -1.4 1.95) (end 3.95 1.95) (layer F.CrtYd) (width 0.05))
    (fp_line (start -0.43 1.7) (end 2.97 1.7) (layer F.SilkS) (width 0.15))
    (fp_arc (start 1.27 0) (end 1.27 -2.4) (angle -135) (layer F.SilkS) (width 0.15))
    (fp_arc (start 1.27 0) (end 1.27 -2.4) (angle 135) (layer F.SilkS) (width 0.15))
    (fp_line (start -1.4 -2.65) (end 3.95 -2.65) (layer F.CrtYd) (width 0.05))
    (fp_line (start 3.95 1.95) (end 3.95 -2.65) (layer F.CrtYd) (width 0.05))
    (pad 2 thru_hole oval (at 1.27 0 270) (size 0.89916 1.50114) (drill 0.6) (layers *.Cu *.Mask F.SilkS))
    (pad 3 thru_hole oval (at 2.54 0 270) (size 0.89916 1.50114) (drill 0.6) (layers *.Cu *.Mask F.SilkS))
    (pad 1 thru_hole oval (at 0 0 270) (size 0.89916 1.50114) (drill 0.6) (layers *.Cu *.Mask F.SilkS))
    (model TO_SOT_Packages_THT.3dshapes/TO-92_Inline_Narrow_Oval.wrl
      (at (xyz 0.05 0 0))
      (scale (xyz 1 1 1))
      (rotate (xyz 0 0 -90))
    )
  )

  (module TO_SOT_Packages_THT:TO-92_Inline_Narrow_Oval (layer F.Cu) (tedit 54F24281) (tstamp 56E6291E)
    (at 240.03 101.473 270)
    (descr "TO-92 leads in-line, narrow, oval pads, drill 0.6mm (see NXP sot054_po.pdf)")
    (tags "to-92 sc-43 sc-43a sot54 PA33 transistor")
    (fp_text reference >NAME (at 0 -4 270) (layer F.SilkS)
      (effects (font (size 1 1) (thickness 0.15)))
    )
    (fp_text value >VALUE (at 0 3 270) (layer F.Fab)
      (effects (font (size 1 1) (thickness 0.15)))
    )
    (fp_line (start -1.4 1.95) (end -1.4 -2.65) (layer F.CrtYd) (width 0.05))
    (fp_line (start -1.4 1.95) (end 3.95 1.95) (layer F.CrtYd) (width 0.05))
    (fp_line (start -0.43 1.7) (end 2.97 1.7) (layer F.SilkS) (width 0.15))
    (fp_arc (start 1.27 0) (end 1.27 -2.4) (angle -135) (layer F.SilkS) (width 0.15))
    (fp_arc (start 1.27 0) (end 1.27 -2.4) (angle 135) (layer F.SilkS) (width 0.15))
    (fp_line (start -1.4 -2.65) (end 3.95 -2.65) (layer F.CrtYd) (width 0.05))
    (fp_line (start 3.95 1.95) (end 3.95 -2.65) (layer F.CrtYd) (width 0.05))
    (pad 2 thru_hole oval (at 1.27 0 90) (size 0.89916 1.50114) (drill 0.6) (layers *.Cu *.Mask F.SilkS))
    (pad 3 thru_hole oval (at 2.54 0 90) (size 0.89916 1.50114) (drill 0.6) (layers *.Cu *.Mask F.SilkS))
    (pad 1 thru_hole oval (at 0 0 90) (size 0.89916 1.50114) (drill 0.6) (layers *.Cu *.Mask F.SilkS))
    (model TO_SOT_Packages_THT.3dshapes/TO-92_Inline_Narrow_Oval.wrl
      (at (xyz 0.05 0 0))
      (scale (xyz 1 1 1))
      (rotate (xyz 0 0 -90))
    )
  )

  (module Diodes_ThroughHole:Diode_DO-35_SOD27_Horizontal_RM10 (layer F.Cu) (tedit 564FA12A) (tstamp 5703FE0E)
    (at 202.692 109.093 90)
    (descr "Diode, DO-35,  SOD27, Horizontal, RM 10mm")
    (tags "Diode, DO-35, SOD27, Horizontal, RM 10mm, 1N4148,")
    (path /564E23C4)
    (fp_text reference D3 (at 5.43052 2.53746 90) (layer F.SilkS)
      (effects (font (size 1 1) (thickness 0.15)))
    )
    (fp_text value DIODE (at 4.41452 -3.55854 90) (layer F.Fab)
      (effects (font (size 1 1) (thickness 0.15)))
    )
    (fp_line (start 7.36652 -0.00254) (end 8.76352 -0.00254) (layer F.SilkS) (width 0.15))
    (fp_line (start 2.92152 -0.00254) (end 1.39752 -0.00254) (layer F.SilkS) (width 0.15))
    (fp_line (start 3.30252 -0.76454) (end 3.30252 0.75946) (layer F.SilkS) (width 0.15))
    (fp_line (start 3.04852 -0.76454) (end 3.04852 0.75946) (layer F.SilkS) (width 0.15))
    (fp_line (start 2.79452 -0.00254) (end 2.79452 0.75946) (layer F.SilkS) (width 0.15))
    (fp_line (start 2.79452 0.75946) (end 7.36652 0.75946) (layer F.SilkS) (width 0.15))
    (fp_line (start 7.36652 0.75946) (end 7.36652 -0.76454) (layer F.SilkS) (width 0.15))
    (fp_line (start 7.36652 -0.76454) (end 2.79452 -0.76454) (layer F.SilkS) (width 0.15))
    (fp_line (start 2.79452 -0.76454) (end 2.79452 -0.00254) (layer F.SilkS) (width 0.15))
    (pad 2 thru_hole rect (at 10.16052 -0.00254 270) (size 1.69926 1.69926) (drill 1) (layers *.Cu *.Mask F.SilkS))
    (pad 1 thru_hole rect (at 0.00052 -0.00254 270) (size 1.69926 1.69926) (drill 1) (layers *.Cu *.Mask F.SilkS)
      (net 3 "Net-(D3-Pad1)"))
    (model Diodes_ThroughHole.3dshapes/Diode_DO-35_SOD27_Horizontal_RM10.wrl
      (at (xyz 0.2 0 0))
      (scale (xyz 0.4 0.4 0.4))
      (rotate (xyz 0 0 180))
    )
  )

  (module Diodes_ThroughHole:Diode_DO-35_SOD27_Horizontal_RM10 (layer F.Cu) (tedit 552FFC30) (tstamp 5703FE4C)
    (at 235.712 89.916 90)
    (descr "Diode, DO-35,  SOD27, Horizontal, RM 10mm")
    (tags "Diode, DO-35, SOD27, Horizontal, RM 10mm, 1N4148,")
    (fp_text reference D3 (at 5.43052 2.53746 90) (layer F.SilkS)
      (effects (font (size 1 1) (thickness 0.15)))
    )
    (fp_text value D*** (at 4.41452 -3.55854 90) (layer F.Fab)
      (effects (font (size 1 1) (thickness 0.15)))
    )
    (fp_line (start 7.36652 -0.00254) (end 8.76352 -0.00254) (layer F.SilkS) (width 0.15))
    (fp_line (start 2.92152 -0.00254) (end 1.39752 -0.00254) (layer F.SilkS) (width 0.15))
    (fp_line (start 3.30252 -0.76454) (end 3.30252 0.75946) (layer F.SilkS) (width 0.15))
    (fp_line (start 3.04852 -0.76454) (end 3.04852 0.75946) (layer F.SilkS) (width 0.15))
    (fp_line (start 2.79452 -0.00254) (end 2.79452 0.75946) (layer F.SilkS) (width 0.15))
    (fp_line (start 2.79452 0.75946) (end 7.36652 0.75946) (layer F.SilkS) (width 0.15))
    (fp_line (start 7.36652 0.75946) (end 7.36652 -0.76454) (layer F.SilkS) (width 0.15))
    (fp_line (start 7.36652 -0.76454) (end 2.79452 -0.76454) (layer F.SilkS) (width 0.15))
    (fp_line (start 2.79452 -0.76454) (end 2.79452 -0.00254) (layer F.SilkS) (width 0.15))
    (pad 2 thru_hole rect (at 10.16052 -0.00254 270) (size 1.69926 1.69926) (drill 1) (layers *.Cu *.Mask F.SilkS))
    (pad 1 thru_hole rect (at 0.00052 -0.00254 270) (size 1.69926 1.69926) (drill 1) (layers *.Cu *.Mask F.SilkS))
    (model Diodes_ThroughHole.3dshapes/Diode_DO-35_SOD27_Horizontal_RM10.wrl
      (at (xyz 0.2 0 0))
      (scale (xyz 0.4 0.4 0.4))
      (rotate (xyz 0 0 180))
    )
  )

  (module Connect:bornier2 (layer F.Cu) (tedit 564FA162) (tstamp 564F3294)
    (at 182.88 117.475)
    (descr "Bornier d'alimentation 2 pins")
    (tags DEV)
    (fp_text reference REF** (at 0 -5.08) (layer F.SilkS)
      (effects (font (size 1 1) (thickness 0.15)))
    )
    (fp_text value bornier2 (at 0 5.08) (layer F.Fab)
      (effects (font (size 1 1) (thickness 0.15)))
    )
    (fp_line (start 5.08 2.54) (end -5.08 2.54) (layer F.SilkS) (width 0.15))
    (fp_line (start 5.08 3.81) (end 5.08 -3.81) (layer F.SilkS) (width 0.15))
    (fp_line (start 5.08 -3.81) (end -5.08 -3.81) (layer F.SilkS) (width 0.15))
    (fp_line (start -5.08 -3.81) (end -5.08 3.81) (layer F.SilkS) (width 0.15))
    (fp_line (start -5.08 3.81) (end 5.08 3.81) (layer F.SilkS) (width 0.15))
    (pad 1 thru_hole rect (at -2.54 0) (size 2.54 2.54) (drill 1) (layers *.Cu *.Mask F.SilkS))
    (pad 2 thru_hole rect (at 2.54 0) (size 2.54 2.54) (drill 1) (layers *.Cu *.Mask F.SilkS))
    (model Connect.3dshapes/bornier2.wrl
      (at (xyz 0 0 0))
      (scale (xyz 1 1 1))
      (rotate (xyz 0 0 0))
    )
  )

  (module Connect:bornier2 (layer F.Cu) (tedit 564FA104) (tstamp 564F3324)
    (at 193.675 117.475)
    (descr "Bornier d'alimentation 2 pins")
    (tags DEV)
    (fp_text reference REF** (at 0 -5.08) (layer F.SilkS)
      (effects (font (size 1 1) (thickness 0.15)))
    )
    (fp_text value bornier2 (at 0 5.08) (layer F.Fab)
      (effects (font (size 1 1) (thickness 0.15)))
    )
    (fp_line (start 5.08 2.54) (end -5.08 2.54) (layer F.SilkS) (width 0.15))
    (fp_line (start 5.08 3.81) (end 5.08 -3.81) (layer F.SilkS) (width 0.15))
    (fp_line (start 5.08 -3.81) (end -5.08 -3.81) (layer F.SilkS) (width 0.15))
    (fp_line (start -5.08 -3.81) (end -5.08 3.81) (layer F.SilkS) (width 0.15))
    (fp_line (start -5.08 3.81) (end 5.08 3.81) (layer F.SilkS) (width 0.15))
    (pad 1 thru_hole rect (at -2.54 0) (size 2.54 2.54) (drill 1) (layers *.Cu *.Mask F.SilkS))
    (pad 2 thru_hole rect (at 2.54 0) (size 2.54 2.54) (drill 1) (layers *.Cu *.Mask F.SilkS))
    (model Connect.3dshapes/bornier2.wrl
      (at (xyz 0 0 0))
      (scale (xyz 1 1 1))
      (rotate (xyz 0 0 0))
    )
  )

  (module Connect:bornier2 (layer F.Cu) (tedit 564FA0D0) (tstamp 564F332F)
    (at 182.88 72.898 180)
    (descr "Bornier d'alimentation 2 pins")
    (tags DEV)
    (fp_text reference REF** (at 0 -5.08 180) (layer F.SilkS)
      (effects (font (size 1 1) (thickness 0.15)))
    )
    (fp_text value bornier2 (at 0 5.08 180) (layer F.Fab)
      (effects (font (size 1 1) (thickness 0.15)))
    )
    (fp_line (start 5.08 2.54) (end -5.08 2.54) (layer F.SilkS) (width 0.15))
    (fp_line (start 5.08 3.81) (end 5.08 -3.81) (layer F.SilkS) (width 0.15))
    (fp_line (start 5.08 -3.81) (end -5.08 -3.81) (layer F.SilkS) (width 0.15))
    (fp_line (start -5.08 -3.81) (end -5.08 3.81) (layer F.SilkS) (width 0.15))
    (fp_line (start -5.08 3.81) (end 5.08 3.81) (layer F.SilkS) (width 0.15))
    (pad 1 thru_hole rect (at -2.54 0 180) (size 2.54 2.54) (drill 1) (layers *.Cu *.Mask F.SilkS))
    (pad 2 thru_hole rect (at 2.54 0 180) (size 2.54 2.54) (drill 1) (layers *.Cu *.Mask F.SilkS))
    (model Connect.3dshapes/bornier2.wrl
      (at (xyz 0 0 0))
      (scale (xyz 1 1 1))
      (rotate (xyz 0 0 0))
    )
  )

  (module Connect:bornier2 (layer F.Cu) (tedit 0) (tstamp 564F3366)
    (at 193.294 72.898 180)
    (descr "Bornier d'alimentation 2 pins")
    (tags DEV)
    (fp_text reference REF** (at 0 -5.08 180) (layer F.SilkS)
      (effects (font (size 1 1) (thickness 0.15)))
    )
    (fp_text value bornier2 (at 0 5.08 180) (layer F.Fab)
      (effects (font (size 1 1) (thickness 0.15)))
    )
    (fp_line (start 5.08 2.54) (end -5.08 2.54) (layer F.SilkS) (width 0.15))
    (fp_line (start 5.08 3.81) (end 5.08 -3.81) (layer F.SilkS) (width 0.15))
    (fp_line (start 5.08 -3.81) (end -5.08 -3.81) (layer F.SilkS) (width 0.15))
    (fp_line (start -5.08 -3.81) (end -5.08 3.81) (layer F.SilkS) (width 0.15))
    (fp_line (start -5.08 3.81) (end 5.08 3.81) (layer F.SilkS) (width 0.15))
    (pad 1 thru_hole rect (at -2.54 0 180) (size 2.54 2.54) (drill 1) (layers *.Cu *.Mask F.SilkS))
    (pad 2 thru_hole rect (at 2.54 0 180) (size 2.54 2.54) (drill 1) (layers *.Cu *.Mask F.SilkS))
    (model Connect.3dshapes/bornier2.wrl
      (at (xyz 0 0 0))
      (scale (xyz 1 1 1))
      (rotate (xyz 0 0 0))
    )
  )

  (module Connect:bornier2 (layer F.Cu) (tedit 0) (tstamp 564F36AD)
    (at 254.254 74.168 90)
    (descr "Bornier d'alimentation 2 pins")
    (tags DEV)
    (fp_text reference REF** (at 0 -5.08 90) (layer F.SilkS)
      (effects (font (size 1 1) (thickness 0.15)))
    )
    (fp_text value bornier2 (at 0 5.08 90) (layer F.Fab)
      (effects (font (size 1 1) (thickness 0.15)))
    )
    (fp_line (start 5.08 2.54) (end -5.08 2.54) (layer F.SilkS) (width 0.15))
    (fp_line (start 5.08 3.81) (end 5.08 -3.81) (layer F.SilkS) (width 0.15))
    (fp_line (start 5.08 -3.81) (end -5.08 -3.81) (layer F.SilkS) (width 0.15))
    (fp_line (start -5.08 -3.81) (end -5.08 3.81) (layer F.SilkS) (width 0.15))
    (fp_line (start -5.08 3.81) (end 5.08 3.81) (layer F.SilkS) (width 0.15))
    (pad 1 thru_hole rect (at -2.54 0 90) (size 2.54 2.54) (drill 1) (layers *.Cu *.Mask F.SilkS))
    (pad 2 thru_hole rect (at 2.54 0 90) (size 2.54 2.54) (drill 1) (layers *.Cu *.Mask F.SilkS))
    (model Connect.3dshapes/bornier2.wrl
      (at (xyz 0 0 0))
      (scale (xyz 1 1 1))
      (rotate (xyz 0 0 0))
    )
  )

  (module Connect:bornier2 (layer F.Cu) (tedit 0) (tstamp 564F36B8)
    (at 254.254 84.836 90)
    (descr "Bornier d'alimentation 2 pins")
    (tags DEV)
    (fp_text reference REF** (at 0 -5.08 90) (layer F.SilkS)
      (effects (font (size 1 1) (thickness 0.15)))
    )
    (fp_text value bornier2 (at 0 5.08 90) (layer F.Fab)
      (effects (font (size 1 1) (thickness 0.15)))
    )
    (fp_line (start 5.08 2.54) (end -5.08 2.54) (layer F.SilkS) (width 0.15))
    (fp_line (start 5.08 3.81) (end 5.08 -3.81) (layer F.SilkS) (width 0.15))
    (fp_line (start 5.08 -3.81) (end -5.08 -3.81) (layer F.SilkS) (width 0.15))
    (fp_line (start -5.08 -3.81) (end -5.08 3.81) (layer F.SilkS) (width 0.15))
    (fp_line (start -5.08 3.81) (end 5.08 3.81) (layer F.SilkS) (width 0.15))
    (pad 1 thru_hole rect (at -2.54 0 90) (size 2.54 2.54) (drill 1) (layers *.Cu *.Mask F.SilkS))
    (pad 2 thru_hole rect (at 2.54 0 90) (size 2.54 2.54) (drill 1) (layers *.Cu *.Mask F.SilkS))
    (model Connect.3dshapes/bornier2.wrl
      (at (xyz 0 0 0))
      (scale (xyz 1 1 1))
      (rotate (xyz 0 0 0))
    )
  )

  (module Connect:bornier2 (layer F.Cu) (tedit 0) (tstamp 564F36C3)
    (at 254.254 95.504 90)
    (descr "Bornier d'alimentation 2 pins")
    (tags DEV)
    (fp_text reference REF** (at 0 -5.08 90) (layer F.SilkS)
      (effects (font (size 1 1) (thickness 0.15)))
    )
    (fp_text value bornier2 (at 0 5.08 90) (layer F.Fab)
      (effects (font (size 1 1) (thickness 0.15)))
    )
    (fp_line (start 5.08 2.54) (end -5.08 2.54) (layer F.SilkS) (width 0.15))
    (fp_line (start 5.08 3.81) (end 5.08 -3.81) (layer F.SilkS) (width 0.15))
    (fp_line (start 5.08 -3.81) (end -5.08 -3.81) (layer F.SilkS) (width 0.15))
    (fp_line (start -5.08 -3.81) (end -5.08 3.81) (layer F.SilkS) (width 0.15))
    (fp_line (start -5.08 3.81) (end 5.08 3.81) (layer F.SilkS) (width 0.15))
    (pad 1 thru_hole rect (at -2.54 0 90) (size 2.54 2.54) (drill 1) (layers *.Cu *.Mask F.SilkS))
    (pad 2 thru_hole rect (at 2.54 0 90) (size 2.54 2.54) (drill 1) (layers *.Cu *.Mask F.SilkS))
    (model Connect.3dshapes/bornier2.wrl
      (at (xyz 0 0 0))
      (scale (xyz 1 1 1))
      (rotate (xyz 0 0 0))
    )
  )

  (module Connect:bornier2 (layer F.Cu) (tedit 0) (tstamp 564F36CE)
    (at 254.254 106.172 90)
    (descr "Bornier d'alimentation 2 pins")
    (tags DEV)
    (fp_text reference REF** (at 0 -5.08 90) (layer F.SilkS)
      (effects (font (size 1 1) (thickness 0.15)))
    )
    (fp_text value bornier2 (at 0 5.08 90) (layer F.Fab)
      (effects (font (size 1 1) (thickness 0.15)))
    )
    (fp_line (start 5.08 2.54) (end -5.08 2.54) (layer F.SilkS) (width 0.15))
    (fp_line (start 5.08 3.81) (end 5.08 -3.81) (layer F.SilkS) (width 0.15))
    (fp_line (start 5.08 -3.81) (end -5.08 -3.81) (layer F.SilkS) (width 0.15))
    (fp_line (start -5.08 -3.81) (end -5.08 3.81) (layer F.SilkS) (width 0.15))
    (fp_line (start -5.08 3.81) (end 5.08 3.81) (layer F.SilkS) (width 0.15))
    (pad 1 thru_hole rect (at -2.54 0 90) (size 2.54 2.54) (drill 1) (layers *.Cu *.Mask F.SilkS))
    (pad 2 thru_hole rect (at 2.54 0 90) (size 2.54 2.54) (drill 1) (layers *.Cu *.Mask F.SilkS))
    (model Connect.3dshapes/bornier2.wrl
      (at (xyz 0 0 0))
      (scale (xyz 1 1 1))
      (rotate (xyz 0 0 0))
    )
  )

  (module Resistors_ThroughHole:Resistor_Horizontal_RM10mm (layer F.Cu) (tedit 564FA1CA) (tstamp 5703F761)
    (at 245.11 99.568 90)
    (descr "Resistor, Axial,  RM 10mm, 1/3W,")
    (tags "Resistor, Axial, RM 10mm, 1/3W,")
    (path /564E23E2)
    (fp_text reference R3 (at 0.24892 -3.50012 90) (layer F.SilkS)
      (effects (font (size 1 1) (thickness 0.15)))
    )
    (fp_text value R (at 3.81 3.81 90) (layer F.Fab)
      (effects (font (size 1 1) (thickness 0.15)))
    )
    (fp_line (start -2.54 -1.27) (end 2.54 -1.27) (layer F.SilkS) (width 0.15))
    (fp_line (start 2.54 -1.27) (end 2.54 1.27) (layer F.SilkS) (width 0.15))
    (fp_line (start 2.54 1.27) (end -2.54 1.27) (layer F.SilkS) (width 0.15))
    (fp_line (start -2.54 1.27) (end -2.54 -1.27) (layer F.SilkS) (width 0.15))
    (fp_line (start -2.54 0) (end -3.81 0) (layer F.SilkS) (width 0.15))
    (fp_line (start 2.54 0) (end 3.81 0) (layer F.SilkS) (width 0.15))
    (pad 1 thru_hole circle (at -5.08 0 90) (size 1.99898 1.99898) (drill 1) (layers *.Cu *.SilkS *.Mask)
      (net 4 "Net-(R3-Pad1)"))
    (pad 2 thru_hole circle (at 5.08 0 90) (size 1.99898 1.99898) (drill 1) (layers *.Cu *.SilkS *.Mask)
      (net 5 "Net-(Q3-Pad2)"))
    (model Resistors_ThroughHole.3dshapes/Resistor_Horizontal_RM10mm.wrl
      (at (xyz 0 0 0))
      (scale (xyz 0.4 0.4 0.4))
      (rotate (xyz 0 0 0))
    )
  )

  (module Resistors_ThroughHole:Resistor_Horizontal_RM10mm (layer F.Cu) (tedit 53F56209) (tstamp 564E52BE)
    (at 243.84 83.185 90)
    (descr "Resistor, Axial,  RM 10mm, 1/3W,")
    (tags "Resistor, Axial, RM 10mm, 1/3W,")
    (path R3)
    (fp_text reference R3 (at 0.24892 -3.50012 90) (layer F.SilkS)
      (effects (font (size 1 1) (thickness 0.15)))
    )
    (fp_text value Val* (at 3.81 3.81 90) (layer F.Fab)
      (effects (font (size 1 1) (thickness 0.15)))
    )
    (fp_line (start -2.54 -1.27) (end 2.54 -1.27) (layer F.SilkS) (width 0.15))
    (fp_line (start 2.54 -1.27) (end 2.54 1.27) (layer F.SilkS) (width 0.15))
    (fp_line (start 2.54 1.27) (end -2.54 1.27) (layer F.SilkS) (width 0.15))
    (fp_line (start -2.54 1.27) (end -2.54 -1.27) (layer F.SilkS) (width 0.15))
    (fp_line (start -2.54 0) (end -3.81 0) (layer F.SilkS) (width 0.15))
    (fp_line (start 2.54 0) (end 3.81 0) (layer F.SilkS) (width 0.15))
    (pad 1 thru_hole circle (at -5.08 0 90) (size 1.99898 1.99898) (drill 1) (layers *.Cu *.SilkS *.Mask))
    (pad 2 thru_hole circle (at 5.08 0 90) (size 1.99898 1.99898) (drill 1) (layers *.Cu *.SilkS *.Mask))
    (model Resistors_ThroughHole.3dshapes/Resistor_Horizontal_RM10mm.wrl
      (at (xyz 0 0 0))
      (scale (xyz 0.4 0.4 0.4))
      (rotate (xyz 0 0 0))
    )
  )

  (module Resistors_ThroughHole:Resistor_Horizontal_RM10mm (layer F.Cu) (tedit 53F56209) (tstamp 5703F77C)
    (at 210.058 93.472)
    (descr "Resistor, Axial,  RM 10mm, 1/3W,")
    (tags "Resistor, Axial, RM 10mm, 1/3W,")
    (path R3)
    (fp_text reference R3 (at 0.24892 -3.50012) (layer F.SilkS)
      (effects (font (size 1 1) (thickness 0.15)))
    )
    (fp_text value Val* (at 3.81 3.81) (layer F.Fab)
      (effects (font (size 1 1) (thickness 0.15)))
    )
    (fp_line (start -2.54 -1.27) (end 2.54 -1.27) (layer F.SilkS) (width 0.15))
    (fp_line (start 2.54 -1.27) (end 2.54 1.27) (layer F.SilkS) (width 0.15))
    (fp_line (start 2.54 1.27) (end -2.54 1.27) (layer F.SilkS) (width 0.15))
    (fp_line (start -2.54 1.27) (end -2.54 -1.27) (layer F.SilkS) (width 0.15))
    (fp_line (start -2.54 0) (end -3.81 0) (layer F.SilkS) (width 0.15))
    (fp_line (start 2.54 0) (end 3.81 0) (layer F.SilkS) (width 0.15))
    (pad 1 thru_hole circle (at -5.08 0) (size 1.99898 1.99898) (drill 1) (layers *.Cu *.SilkS *.Mask))
    (pad 2 thru_hole circle (at 5.08 0) (size 1.99898 1.99898) (drill 1) (layers *.Cu *.SilkS *.Mask))
    (model Resistors_ThroughHole.3dshapes/Resistor_Horizontal_RM10mm.wrl
      (at (xyz 0 0 0))
      (scale (xyz 0.4 0.4 0.4))
      (rotate (xyz 0 0 0))
    )
  )

  (module Resistors_ThroughHole:Resistor_Horizontal_RM10mm (layer F.Cu) (tedit 53F56209) (tstamp 5703F797)
    (at 210.058 96.012)
    (descr "Resistor, Axial,  RM 10mm, 1/3W,")
    (tags "Resistor, Axial, RM 10mm, 1/3W,")
    (path R3)
    (fp_text reference R3 (at 0.24892 -3.50012) (layer F.SilkS)
      (effects (font (size 1 1) (thickness 0.15)))
    )
    (fp_text value Val* (at 3.81 3.81) (layer F.Fab)
      (effects (font (size 1 1) (thickness 0.15)))
    )
    (fp_line (start -2.54 -1.27) (end 2.54 -1.27) (layer F.SilkS) (width 0.15))
    (fp_line (start 2.54 -1.27) (end 2.54 1.27) (layer F.SilkS) (width 0.15))
    (fp_line (start 2.54 1.27) (end -2.54 1.27) (layer F.SilkS) (width 0.15))
    (fp_line (start -2.54 1.27) (end -2.54 -1.27) (layer F.SilkS) (width 0.15))
    (fp_line (start -2.54 0) (end -3.81 0) (layer F.SilkS) (width 0.15))
    (fp_line (start 2.54 0) (end 3.81 0) (layer F.SilkS) (width 0.15))
    (pad 1 thru_hole circle (at -5.08 0) (size 1.99898 1.99898) (drill 1) (layers *.Cu *.SilkS *.Mask))
    (pad 2 thru_hole circle (at 5.08 0) (size 1.99898 1.99898) (drill 1) (layers *.Cu *.SilkS *.Mask))
    (model Resistors_ThroughHole.3dshapes/Resistor_Horizontal_RM10mm.wrl
      (at (xyz 0 0 0))
      (scale (xyz 0.4 0.4 0.4))
      (rotate (xyz 0 0 0))
    )
  )

  (module Diodes_ThroughHole:Diode_DO-35_SOD27_Horizontal_RM10 (layer F.Cu) (tedit 552FFC30) (tstamp 5703FE2D)
    (at 235.966 108.966 90)
    (descr "Diode, DO-35,  SOD27, Horizontal, RM 10mm")
    (tags "Diode, DO-35, SOD27, Horizontal, RM 10mm, 1N4148,")
    (fp_text reference D3 (at 5.43052 2.53746 90) (layer F.SilkS)
      (effects (font (size 1 1) (thickness 0.15)))
    )
    (fp_text value D*** (at 4.41452 -3.55854 90) (layer F.Fab)
      (effects (font (size 1 1) (thickness 0.15)))
    )
    (fp_line (start 7.36652 -0.00254) (end 8.76352 -0.00254) (layer F.SilkS) (width 0.15))
    (fp_line (start 2.92152 -0.00254) (end 1.39752 -0.00254) (layer F.SilkS) (width 0.15))
    (fp_line (start 3.30252 -0.76454) (end 3.30252 0.75946) (layer F.SilkS) (width 0.15))
    (fp_line (start 3.04852 -0.76454) (end 3.04852 0.75946) (layer F.SilkS) (width 0.15))
    (fp_line (start 2.79452 -0.00254) (end 2.79452 0.75946) (layer F.SilkS) (width 0.15))
    (fp_line (start 2.79452 0.75946) (end 7.36652 0.75946) (layer F.SilkS) (width 0.15))
    (fp_line (start 7.36652 0.75946) (end 7.36652 -0.76454) (layer F.SilkS) (width 0.15))
    (fp_line (start 7.36652 -0.76454) (end 2.79452 -0.76454) (layer F.SilkS) (width 0.15))
    (fp_line (start 2.79452 -0.76454) (end 2.79452 -0.00254) (layer F.SilkS) (width 0.15))
    (pad 2 thru_hole rect (at 10.16052 -0.00254 270) (size 1.69926 1.69926) (drill 1) (layers *.Cu *.Mask F.SilkS))
    (pad 1 thru_hole rect (at 0.00052 -0.00254 270) (size 1.69926 1.69926) (drill 1) (layers *.Cu *.Mask F.SilkS))
    (model Diodes_ThroughHole.3dshapes/Diode_DO-35_SOD27_Horizontal_RM10.wrl
      (at (xyz 0.2 0 0))
      (scale (xyz 0.4 0.4 0.4))
      (rotate (xyz 0 0 180))
    )
  )

  (module Connect:bornier2 (layer F.Cu) (tedit 0) (tstamp 564F610A)
    (at 251.46 116.84)
    (descr "Bornier d'alimentation 2 pins")
    (tags DEV)
    (fp_text reference REF** (at 0 -5.08) (layer F.SilkS)
      (effects (font (size 1 1) (thickness 0.15)))
    )
    (fp_text value bornier2 (at 0 5.08) (layer F.Fab)
      (effects (font (size 1 1) (thickness 0.15)))
    )
    (fp_line (start 5.08 2.54) (end -5.08 2.54) (layer F.SilkS) (width 0.15))
    (fp_line (start 5.08 3.81) (end 5.08 -3.81) (layer F.SilkS) (width 0.15))
    (fp_line (start 5.08 -3.81) (end -5.08 -3.81) (layer F.SilkS) (width 0.15))
    (fp_line (start -5.08 -3.81) (end -5.08 3.81) (layer F.SilkS) (width 0.15))
    (fp_line (start -5.08 3.81) (end 5.08 3.81) (layer F.SilkS) (width 0.15))
    (pad 1 thru_hole rect (at -2.54 0) (size 2.54 2.54) (drill 1) (layers *.Cu *.Mask F.SilkS))
    (pad 2 thru_hole rect (at 2.54 0) (size 2.54 2.54) (drill 1) (layers *.Cu *.Mask F.SilkS))
    (model Connect.3dshapes/bornier2.wrl
      (at (xyz 0 0 0))
      (scale (xyz 1 1 1))
      (rotate (xyz 0 0 0))
    )
  )

  (module Diodes_ThroughHole:Diode_DO-35_SOD27_Horizontal_RM10 (layer F.Cu) (tedit 552FFC30) (tstamp 5703FDEF)
    (at 200.787 93.345 90)
    (descr "Diode, DO-35,  SOD27, Horizontal, RM 10mm")
    (tags "Diode, DO-35, SOD27, Horizontal, RM 10mm, 1N4148,")
    (path /564E23C4)
    (fp_text reference D3 (at 5.43052 2.53746 90) (layer F.SilkS)
      (effects (font (size 1 1) (thickness 0.15)))
    )
    (fp_text value DIODE (at 4.41452 -3.55854 90) (layer F.Fab)
      (effects (font (size 1 1) (thickness 0.15)))
    )
    (fp_line (start 7.36652 -0.00254) (end 8.76352 -0.00254) (layer F.SilkS) (width 0.15))
    (fp_line (start 2.92152 -0.00254) (end 1.39752 -0.00254) (layer F.SilkS) (width 0.15))
    (fp_line (start 3.30252 -0.76454) (end 3.30252 0.75946) (layer F.SilkS) (width 0.15))
    (fp_line (start 3.04852 -0.76454) (end 3.04852 0.75946) (layer F.SilkS) (width 0.15))
    (fp_line (start 2.79452 -0.00254) (end 2.79452 0.75946) (layer F.SilkS) (width 0.15))
    (fp_line (start 2.79452 0.75946) (end 7.36652 0.75946) (layer F.SilkS) (width 0.15))
    (fp_line (start 7.36652 0.75946) (end 7.36652 -0.76454) (layer F.SilkS) (width 0.15))
    (fp_line (start 7.36652 -0.76454) (end 2.79452 -0.76454) (layer F.SilkS) (width 0.15))
    (fp_line (start 2.79452 -0.76454) (end 2.79452 -0.00254) (layer F.SilkS) (width 0.15))
    (pad 2 thru_hole rect (at 10.16052 -0.00254 270) (size 1.69926 1.69926) (drill 1) (layers *.Cu *.Mask F.SilkS)
      (net 2 VCC))
    (pad 1 thru_hole rect (at 0.00052 -0.00254 270) (size 1.69926 1.69926) (drill 1) (layers *.Cu *.Mask F.SilkS)
      (net 1 N-0000039))
    (model Diodes_ThroughHole.3dshapes/Diode_DO-35_SOD27_Horizontal_RM10.wrl
      (at (xyz 0.2 0 0))
      (scale (xyz 0.4 0.4 0.4))
      (rotate (xyz 0 0 180))
    )
  )

  (module TO_SOT_Packages_THT:TO-92_Inline_Narrow_Oval (layer F.Cu) (tedit 54F24281) (tstamp 56E628D0)
    (at 205.613 87.376 90)
    (descr "TO-92 leads in-line, narrow, oval pads, drill 0.6mm (see NXP sot054_po.pdf)")
    (tags "to-92 sc-43 sc-43a sot54 PA33 transistor")
    (fp_text reference >NAME (at 0 -4 90) (layer F.SilkS)
      (effects (font (size 1 1) (thickness 0.15)))
    )
    (fp_text value >VALUE (at 0 3 90) (layer F.Fab)
      (effects (font (size 1 1) (thickness 0.15)))
    )
    (fp_line (start -1.4 1.95) (end -1.4 -2.65) (layer F.CrtYd) (width 0.05))
    (fp_line (start -1.4 1.95) (end 3.95 1.95) (layer F.CrtYd) (width 0.05))
    (fp_line (start -0.43 1.7) (end 2.97 1.7) (layer F.SilkS) (width 0.15))
    (fp_arc (start 1.27 0) (end 1.27 -2.4) (angle -135) (layer F.SilkS) (width 0.15))
    (fp_arc (start 1.27 0) (end 1.27 -2.4) (angle 135) (layer F.SilkS) (width 0.15))
    (fp_line (start -1.4 -2.65) (end 3.95 -2.65) (layer F.CrtYd) (width 0.05))
    (fp_line (start 3.95 1.95) (end 3.95 -2.65) (layer F.CrtYd) (width 0.05))
    (pad 2 thru_hole oval (at 1.27 0 270) (size 0.89916 1.50114) (drill 0.6) (layers *.Cu *.Mask F.SilkS))
    (pad 3 thru_hole oval (at 2.54 0 270) (size 0.89916 1.50114) (drill 0.6) (layers *.Cu *.Mask F.SilkS))
    (pad 1 thru_hole oval (at 0 0 270) (size 0.89916 1.50114) (drill 0.6) (layers *.Cu *.Mask F.SilkS))
    (model TO_SOT_Packages_THT.3dshapes/TO-92_Inline_Narrow_Oval.wrl
      (at (xyz 0.05 0 0))
      (scale (xyz 1 1 1))
      (rotate (xyz 0 0 -90))
    )
  )

  (module TO_SOT_Packages_THT:TO-92_Inline_Narrow_Oval (layer F.Cu) (tedit 54F24281) (tstamp 56E628A9)
    (at 240.03 84.836 90)
    (descr "TO-92 leads in-line, narrow, oval pads, drill 0.6mm (see NXP sot054_po.pdf)")
    (tags "to-92 sc-43 sc-43a sot54 PA33 transistor")
    (fp_text reference >NAME (at 0 -4 90) (layer F.SilkS)
      (effects (font (size 1 1) (thickness 0.15)))
    )
    (fp_text value >VALUE (at 0 3 90) (layer F.Fab)
      (effects (font (size 1 1) (thickness 0.15)))
    )
    (fp_line (start -1.4 1.95) (end -1.4 -2.65) (layer F.CrtYd) (width 0.05))
    (fp_line (start -1.4 1.95) (end 3.95 1.95) (layer F.CrtYd) (width 0.05))
    (fp_line (start -0.43 1.7) (end 2.97 1.7) (layer F.SilkS) (width 0.15))
    (fp_arc (start 1.27 0) (end 1.27 -2.4) (angle -135) (layer F.SilkS) (width 0.15))
    (fp_arc (start 1.27 0) (end 1.27 -2.4) (angle 135) (layer F.SilkS) (width 0.15))
    (fp_line (start -1.4 -2.65) (end 3.95 -2.65) (layer F.CrtYd) (width 0.05))
    (fp_line (start 3.95 1.95) (end 3.95 -2.65) (layer F.CrtYd) (width 0.05))
    (pad 2 thru_hole oval (at 1.27 0 270) (size 0.89916 1.50114) (drill 0.6) (layers *.Cu *.Mask F.SilkS))
    (pad 3 thru_hole oval (at 2.54 0 270) (size 0.89916 1.50114) (drill 0.6) (layers *.Cu *.Mask F.SilkS))
    (pad 1 thru_hole oval (at 0 0 270) (size 0.89916 1.50114) (drill 0.6) (layers *.Cu *.Mask F.SilkS))
    (model TO_SOT_Packages_THT.3dshapes/TO-92_Inline_Narrow_Oval.wrl
      (at (xyz 0.05 0 0))
      (scale (xyz 1 1 1))
      (rotate (xyz 0 0 -90))
    )
  )

  (module Relays_ThroughHole:Relay_SANYOU_SRD_Series_Form_C (layer F.Cu) (tedit 564FA1A7) (tstamp 564F7C51)
    (at 196.85 103.886 180)
    (descr "relay, Sanyou SRD series Form C")
    (fp_text reference REF** (at 8.1 9.2 180) (layer F.SilkS)
      (effects (font (size 1 1) (thickness 0.15)))
    )
    (fp_text value Relay_SANYOU_SRD_Series_Form_C (at 8 -9.6 180) (layer F.Fab)
      (effects (font (size 1 1) (thickness 0.15)))
    )
    (fp_line (start 15 7.7) (end 18.3 7.7) (layer F.SilkS) (width 0.15))
    (fp_line (start 18.3 7.7) (end 18.3 -7.7) (layer F.SilkS) (width 0.15))
    (fp_line (start 18.3 -7.7) (end 14.95 -7.7) (layer F.SilkS) (width 0.15))
    (fp_line (start -1.3 1.35) (end -1.3 7.7) (layer F.SilkS) (width 0.15))
    (fp_line (start -1.3 7.7) (end 13.25 7.7) (layer F.SilkS) (width 0.15))
    (fp_line (start -1.3 -1.4) (end -1.3 -7.7) (layer F.SilkS) (width 0.15))
    (fp_line (start -1.3 -7.7) (end 13.45 -7.7) (layer F.SilkS) (width 0.15))
    (fp_line (start -1.3 -7.65) (end -1.3 -1.4) (layer F.SilkS) (width 0.15))
    (fp_line (start 14.15 4.2) (end 14.15 1.75) (layer F.SilkS) (width 0.15))
    (fp_line (start 14.15 -4.2) (end 14.15 -1.7) (layer F.SilkS) (width 0.15))
    (fp_line (start 3.55 6.05) (end 6.05 6.05) (layer F.SilkS) (width 0.15))
    (fp_line (start 2.65 0.05) (end 1.85 0.05) (layer F.SilkS) (width 0.15))
    (fp_line (start 6.05 -5.95) (end 3.55 -5.95) (layer F.SilkS) (width 0.15))
    (fp_line (start 9.45 0.05) (end 10.95 0.05) (layer F.SilkS) (width 0.15))
    (fp_line (start 10.95 0.05) (end 15.55 -2.45) (layer F.SilkS) (width 0.15))
    (fp_line (start 9.45 3.65) (end 2.65 3.65) (layer F.SilkS) (width 0.15))
    (fp_line (start 9.45 0.05) (end 9.45 3.65) (layer F.SilkS) (width 0.15))
    (fp_line (start 2.65 0.05) (end 2.65 3.65) (layer F.SilkS) (width 0.15))
    (fp_line (start 6.05 -5.95) (end 6.05 -1.75) (layer F.SilkS) (width 0.15))
    (fp_line (start 6.05 1.85) (end 6.05 6.05) (layer F.SilkS) (width 0.15))
    (fp_line (start 8.05 1.85) (end 4.05 -1.75) (layer F.SilkS) (width 0.15))
    (fp_line (start 4.05 1.85) (end 4.05 -1.75) (layer F.SilkS) (width 0.15))
    (fp_line (start 4.05 -1.75) (end 8.05 -1.75) (layer F.SilkS) (width 0.15))
    (fp_line (start 8.05 -1.75) (end 8.05 1.85) (layer F.SilkS) (width 0.15))
    (fp_line (start 8.05 1.85) (end 4.05 1.85) (layer F.SilkS) (width 0.15))
    (pad 2 thru_hole circle (at 1.95 6.05 270) (size 3 3) (drill 1) (layers *.Cu *.Mask))
    (pad 3 thru_hole circle (at 14.15 6.05 270) (size 3 3) (drill 1) (layers *.Cu *.Mask))
    (pad 4 thru_hole circle (at 14.2 -6 270) (size 3 3) (drill 1) (layers *.Cu *.Mask))
    (pad 5 thru_hole circle (at 1.95 -5.95 270) (size 3 3) (drill 1) (layers *.Cu *.Mask))
    (pad 1 thru_hole circle (at 0 0 270) (size 3 3) (drill 1) (layers *.Cu *.Mask))
    (model Relays_ThroughHole.3dshapes/Relay_SANYOU_SRD_Series_Form_C.wrl
      (at (xyz 0 0 0))
      (scale (xyz 1 1 1))
      (rotate (xyz 0 0 0))
    )
  )

  (module Relays_ThroughHole:Relay_SANYOU_SRD_Series_Form_C (layer F.Cu) (tedit 564FA0AD) (tstamp 564F7E6C)
    (at 197.231 87.122 180)
    (descr "relay, Sanyou SRD series Form C")
    (fp_text reference REF** (at 8.1 9.2 180) (layer F.SilkS)
      (effects (font (size 1 1) (thickness 0.15)))
    )
    (fp_text value Relay_SANYOU_SRD_Series_Form_C (at 8 -9.6 180) (layer F.Fab)
      (effects (font (size 1 1) (thickness 0.15)))
    )
    (fp_line (start 15 7.7) (end 18.3 7.7) (layer F.SilkS) (width 0.15))
    (fp_line (start 18.3 7.7) (end 18.3 -7.7) (layer F.SilkS) (width 0.15))
    (fp_line (start 18.3 -7.7) (end 14.95 -7.7) (layer F.SilkS) (width 0.15))
    (fp_line (start -1.3 1.35) (end -1.3 7.7) (layer F.SilkS) (width 0.15))
    (fp_line (start -1.3 7.7) (end 13.25 7.7) (layer F.SilkS) (width 0.15))
    (fp_line (start -1.3 -1.4) (end -1.3 -7.7) (layer F.SilkS) (width 0.15))
    (fp_line (start -1.3 -7.7) (end 13.45 -7.7) (layer F.SilkS) (width 0.15))
    (fp_line (start -1.3 -7.65) (end -1.3 -1.4) (layer F.SilkS) (width 0.15))
    (fp_line (start 14.15 4.2) (end 14.15 1.75) (layer F.SilkS) (width 0.15))
    (fp_line (start 14.15 -4.2) (end 14.15 -1.7) (layer F.SilkS) (width 0.15))
    (fp_line (start 3.55 6.05) (end 6.05 6.05) (layer F.SilkS) (width 0.15))
    (fp_line (start 2.65 0.05) (end 1.85 0.05) (layer F.SilkS) (width 0.15))
    (fp_line (start 6.05 -5.95) (end 3.55 -5.95) (layer F.SilkS) (width 0.15))
    (fp_line (start 9.45 0.05) (end 10.95 0.05) (layer F.SilkS) (width 0.15))
    (fp_line (start 10.95 0.05) (end 15.55 -2.45) (layer F.SilkS) (width 0.15))
    (fp_line (start 9.45 3.65) (end 2.65 3.65) (layer F.SilkS) (width 0.15))
    (fp_line (start 9.45 0.05) (end 9.45 3.65) (layer F.SilkS) (width 0.15))
    (fp_line (start 2.65 0.05) (end 2.65 3.65) (layer F.SilkS) (width 0.15))
    (fp_line (start 6.05 -5.95) (end 6.05 -1.75) (layer F.SilkS) (width 0.15))
    (fp_line (start 6.05 1.85) (end 6.05 6.05) (layer F.SilkS) (width 0.15))
    (fp_line (start 8.05 1.85) (end 4.05 -1.75) (layer F.SilkS) (width 0.15))
    (fp_line (start 4.05 1.85) (end 4.05 -1.75) (layer F.SilkS) (width 0.15))
    (fp_line (start 4.05 -1.75) (end 8.05 -1.75) (layer F.SilkS) (width 0.15))
    (fp_line (start 8.05 -1.75) (end 8.05 1.85) (layer F.SilkS) (width 0.15))
    (fp_line (start 8.05 1.85) (end 4.05 1.85) (layer F.SilkS) (width 0.15))
    (pad 2 thru_hole circle (at 1.95 6.05 270) (size 3 3) (drill 1) (layers *.Cu *.Mask))
    (pad 3 thru_hole circle (at 14.15 6.05 270) (size 3 3) (drill 1) (layers *.Cu *.Mask))
    (pad 4 thru_hole circle (at 14.2 -6 270) (size 3 3) (drill 1) (layers *.Cu *.Mask))
    (pad 5 thru_hole circle (at 1.95 -5.95 270) (size 3 3) (drill 1) (layers *.Cu *.Mask))
    (pad 1 thru_hole circle (at 0 0 270) (size 3 3) (drill 1) (layers *.Cu *.Mask))
    (model Relays_ThroughHole.3dshapes/Relay_SANYOU_SRD_Series_Form_C.wrl
      (at (xyz 0 0 0))
      (scale (xyz 1 1 1))
      (rotate (xyz 0 0 0))
    )
  )

  (module Relays_ThroughHole:Relay_SANYOU_SRD_Series_Form_C (layer F.Cu) (tedit 5418D3EA) (tstamp 564F7ED5)
    (at 230.251 84.201 180)
    (descr "relay, Sanyou SRD series Form C")
    (fp_text reference REF** (at 8.1 9.2 180) (layer F.SilkS)
      (effects (font (size 1 1) (thickness 0.15)))
    )
    (fp_text value Relay_SANYOU_SRD_Series_Form_C (at 8 -9.6 180) (layer F.Fab)
      (effects (font (size 1 1) (thickness 0.15)))
    )
    (fp_line (start 15 7.7) (end 18.3 7.7) (layer F.SilkS) (width 0.15))
    (fp_line (start 18.3 7.7) (end 18.3 -7.7) (layer F.SilkS) (width 0.15))
    (fp_line (start 18.3 -7.7) (end 14.95 -7.7) (layer F.SilkS) (width 0.15))
    (fp_line (start -1.3 1.35) (end -1.3 7.7) (layer F.SilkS) (width 0.15))
    (fp_line (start -1.3 7.7) (end 13.25 7.7) (layer F.SilkS) (width 0.15))
    (fp_line (start -1.3 -1.4) (end -1.3 -7.7) (layer F.SilkS) (width 0.15))
    (fp_line (start -1.3 -7.7) (end 13.45 -7.7) (layer F.SilkS) (width 0.15))
    (fp_line (start -1.3 -7.65) (end -1.3 -1.4) (layer F.SilkS) (width 0.15))
    (fp_line (start 14.15 4.2) (end 14.15 1.75) (layer F.SilkS) (width 0.15))
    (fp_line (start 14.15 -4.2) (end 14.15 -1.7) (layer F.SilkS) (width 0.15))
    (fp_line (start 3.55 6.05) (end 6.05 6.05) (layer F.SilkS) (width 0.15))
    (fp_line (start 2.65 0.05) (end 1.85 0.05) (layer F.SilkS) (width 0.15))
    (fp_line (start 6.05 -5.95) (end 3.55 -5.95) (layer F.SilkS) (width 0.15))
    (fp_line (start 9.45 0.05) (end 10.95 0.05) (layer F.SilkS) (width 0.15))
    (fp_line (start 10.95 0.05) (end 15.55 -2.45) (layer F.SilkS) (width 0.15))
    (fp_line (start 9.45 3.65) (end 2.65 3.65) (layer F.SilkS) (width 0.15))
    (fp_line (start 9.45 0.05) (end 9.45 3.65) (layer F.SilkS) (width 0.15))
    (fp_line (start 2.65 0.05) (end 2.65 3.65) (layer F.SilkS) (width 0.15))
    (fp_line (start 6.05 -5.95) (end 6.05 -1.75) (layer F.SilkS) (width 0.15))
    (fp_line (start 6.05 1.85) (end 6.05 6.05) (layer F.SilkS) (width 0.15))
    (fp_line (start 8.05 1.85) (end 4.05 -1.75) (layer F.SilkS) (width 0.15))
    (fp_line (start 4.05 1.85) (end 4.05 -1.75) (layer F.SilkS) (width 0.15))
    (fp_line (start 4.05 -1.75) (end 8.05 -1.75) (layer F.SilkS) (width 0.15))
    (fp_line (start 8.05 -1.75) (end 8.05 1.85) (layer F.SilkS) (width 0.15))
    (fp_line (start 8.05 1.85) (end 4.05 1.85) (layer F.SilkS) (width 0.15))
    (pad 2 thru_hole circle (at 1.95 6.05 270) (size 3 3) (drill 1) (layers *.Cu *.Mask))
    (pad 3 thru_hole circle (at 14.15 6.05 270) (size 3 3) (drill 1) (layers *.Cu *.Mask))
    (pad 4 thru_hole circle (at 14.2 -6 270) (size 3 3) (drill 1) (layers *.Cu *.Mask))
    (pad 5 thru_hole circle (at 1.95 -5.95 270) (size 3 3) (drill 1) (layers *.Cu *.Mask))
    (pad 1 thru_hole circle (at 0 0 270) (size 3 3) (drill 1) (layers *.Cu *.Mask))
    (model Relays_ThroughHole.3dshapes/Relay_SANYOU_SRD_Series_Form_C.wrl
      (at (xyz 0 0 0))
      (scale (xyz 1 1 1))
      (rotate (xyz 0 0 0))
    )
  )

  (module Relays_ThroughHole:Relay_SANYOU_SRD_Series_Form_C (layer F.Cu) (tedit 5418D3EA) (tstamp 564F7EF9)
    (at 230.378 105.156 180)
    (descr "relay, Sanyou SRD series Form C")
    (fp_text reference REF** (at 8.1 9.2 180) (layer F.SilkS)
      (effects (font (size 1 1) (thickness 0.15)))
    )
    (fp_text value Relay_SANYOU_SRD_Series_Form_C (at 8 -9.6 180) (layer F.Fab)
      (effects (font (size 1 1) (thickness 0.15)))
    )
    (fp_line (start 15 7.7) (end 18.3 7.7) (layer F.SilkS) (width 0.15))
    (fp_line (start 18.3 7.7) (end 18.3 -7.7) (layer F.SilkS) (width 0.15))
    (fp_line (start 18.3 -7.7) (end 14.95 -7.7) (layer F.SilkS) (width 0.15))
    (fp_line (start -1.3 1.35) (end -1.3 7.7) (layer F.SilkS) (width 0.15))
    (fp_line (start -1.3 7.7) (end 13.25 7.7) (layer F.SilkS) (width 0.15))
    (fp_line (start -1.3 -1.4) (end -1.3 -7.7) (layer F.SilkS) (width 0.15))
    (fp_line (start -1.3 -7.7) (end 13.45 -7.7) (layer F.SilkS) (width 0.15))
    (fp_line (start -1.3 -7.65) (end -1.3 -1.4) (layer F.SilkS) (width 0.15))
    (fp_line (start 14.15 4.2) (end 14.15 1.75) (layer F.SilkS) (width 0.15))
    (fp_line (start 14.15 -4.2) (end 14.15 -1.7) (layer F.SilkS) (width 0.15))
    (fp_line (start 3.55 6.05) (end 6.05 6.05) (layer F.SilkS) (width 0.15))
    (fp_line (start 2.65 0.05) (end 1.85 0.05) (layer F.SilkS) (width 0.15))
    (fp_line (start 6.05 -5.95) (end 3.55 -5.95) (layer F.SilkS) (width 0.15))
    (fp_line (start 9.45 0.05) (end 10.95 0.05) (layer F.SilkS) (width 0.15))
    (fp_line (start 10.95 0.05) (end 15.55 -2.45) (layer F.SilkS) (width 0.15))
    (fp_line (start 9.45 3.65) (end 2.65 3.65) (layer F.SilkS) (width 0.15))
    (fp_line (start 9.45 0.05) (end 9.45 3.65) (layer F.SilkS) (width 0.15))
    (fp_line (start 2.65 0.05) (end 2.65 3.65) (layer F.SilkS) (width 0.15))
    (fp_line (start 6.05 -5.95) (end 6.05 -1.75) (layer F.SilkS) (width 0.15))
    (fp_line (start 6.05 1.85) (end 6.05 6.05) (layer F.SilkS) (width 0.15))
    (fp_line (start 8.05 1.85) (end 4.05 -1.75) (layer F.SilkS) (width 0.15))
    (fp_line (start 4.05 1.85) (end 4.05 -1.75) (layer F.SilkS) (width 0.15))
    (fp_line (start 4.05 -1.75) (end 8.05 -1.75) (layer F.SilkS) (width 0.15))
    (fp_line (start 8.05 -1.75) (end 8.05 1.85) (layer F.SilkS) (width 0.15))
    (fp_line (start 8.05 1.85) (end 4.05 1.85) (layer F.SilkS) (width 0.15))
    (pad 2 thru_hole circle (at 1.95 6.05 270) (size 3 3) (drill 1) (layers *.Cu *.Mask))
    (pad 3 thru_hole circle (at 14.15 6.05 270) (size 3 3) (drill 1) (layers *.Cu *.Mask))
    (pad 4 thru_hole circle (at 14.2 -6 270) (size 3 3) (drill 1) (layers *.Cu *.Mask))
    (pad 5 thru_hole circle (at 1.95 -5.95 270) (size 3 3) (drill 1) (layers *.Cu *.Mask))
    (pad 1 thru_hole circle (at 0 0 270) (size 3 3) (drill 1) (layers *.Cu *.Mask))
    (model Relays_ThroughHole.3dshapes/Relay_SANYOU_SRD_Series_Form_C.wrl
      (at (xyz 0 0 0))
      (scale (xyz 1 1 1))
      (rotate (xyz 0 0 0))
    )
  )

  (module Wire_Pads:SolderWirePad_single_1mmDrill (layer F.Cu) (tedit 0) (tstamp 564F8D2E)
    (at 207.645 80.772)
    (fp_text reference REF** (at 0 -3.81) (layer F.SilkS)
      (effects (font (size 1 1) (thickness 0.15)))
    )
    (fp_text value SolderWirePad_single_1mmDrill (at -1.905 3.175) (layer F.Fab)
      (effects (font (size 1 1) (thickness 0.15)))
    )
    (pad 1 thru_hole circle (at 0 0) (size 2.49936 2.49936) (drill 1.00076) (layers *.Cu *.Mask F.SilkS))
  )

  (module Wire_Pads:SolderWirePad_single_0-8mmDrill (layer F.Cu) (tedit 0) (tstamp 564F8D42)
    (at 233.426 87.122)
    (fp_text reference REF** (at 0 -2.54) (layer F.SilkS)
      (effects (font (size 1 1) (thickness 0.15)))
    )
    (fp_text value SolderWirePad_single_0-8mmDrill (at 0 2.54) (layer F.Fab)
      (effects (font (size 1 1) (thickness 0.15)))
    )
    (pad 1 thru_hole circle (at 0 0) (size 1.99898 1.99898) (drill 1) (layers *.Cu *.Mask F.SilkS))
  )

  (module Pin_Headers:Pin_Header_Straight_1x08 (layer B.Cu) (tedit 564FA187) (tstamp 564F8E7C)
    (at 199.771 71.12 270)
    (descr "Through hole pin header")
    (tags "pin header")
    (fp_text reference REF** (at 0 5.1 270) (layer B.SilkS)
      (effects (font (size 1 1) (thickness 0.15)) (justify mirror))
    )
    (fp_text value Pin_Header_Straight_1x08 (at 0 3.1 270) (layer B.Fab)
      (effects (font (size 1 1) (thickness 0.15)) (justify mirror))
    )
    (fp_line (start -1.75 1.75) (end -1.75 -19.55) (layer B.CrtYd) (width 0.05))
    (fp_line (start 1.75 1.75) (end 1.75 -19.55) (layer B.CrtYd) (width 0.05))
    (fp_line (start -1.75 1.75) (end 1.75 1.75) (layer B.CrtYd) (width 0.05))
    (fp_line (start -1.75 -19.55) (end 1.75 -19.55) (layer B.CrtYd) (width 0.05))
    (fp_line (start 1.27 -1.27) (end 1.27 -19.05) (layer B.SilkS) (width 0.15))
    (fp_line (start 1.27 -19.05) (end -1.27 -19.05) (layer B.SilkS) (width 0.15))
    (fp_line (start -1.27 -19.05) (end -1.27 -1.27) (layer B.SilkS) (width 0.15))
    (fp_line (start 1.55 1.55) (end 1.55 0) (layer B.SilkS) (width 0.15))
    (fp_line (start 1.27 -1.27) (end -1.27 -1.27) (layer B.SilkS) (width 0.15))
    (fp_line (start -1.55 0) (end -1.55 1.55) (layer B.SilkS) (width 0.15))
    (fp_line (start -1.55 1.55) (end 1.55 1.55) (layer B.SilkS) (width 0.15))
    (pad 1 thru_hole oval (at 0 0 270) (size 2.032 1.7272) (drill 1) (layers *.Cu *.Mask B.SilkS))
    (pad 2 thru_hole oval (at 0 -2.54 270) (size 2.032 1.7272) (drill 1) (layers *.Cu *.Mask B.SilkS))
    (pad 3 thru_hole oval (at 0 -5.08 270) (size 2.032 1.7272) (drill 1) (layers *.Cu *.Mask B.SilkS))
    (pad 4 thru_hole oval (at 0 -7.62 270) (size 2.032 1.7272) (drill 1) (layers *.Cu *.Mask B.SilkS))
    (pad 5 thru_hole oval (at 0 -10.16 270) (size 2.032 1.7272) (drill 1) (layers *.Cu *.Mask B.SilkS))
    (pad 6 thru_hole oval (at 0 -12.7 270) (size 2.032 1.7272) (drill 1) (layers *.Cu *.Mask B.SilkS))
    (pad 7 thru_hole oval (at 0 -15.24 270) (size 2.032 1.7272) (drill 1) (layers *.Cu *.Mask B.SilkS))
    (pad 8 thru_hole oval (at 0 -17.78 270) (size 2.032 1.7272) (drill 1) (layers *.Cu *.Mask B.SilkS))
    (model Pin_Headers.3dshapes/Pin_Header_Straight_1x08.wrl
      (at (xyz 0 -0.35 0))
      (scale (xyz 1 1 1))
      (rotate (xyz 0 0 90))
    )
  )

  (module Pin_Headers:Pin_Header_Straight_1x08 (layer B.Cu) (tedit 0) (tstamp 564F8ECD)
    (at 221.615 71.12 270)
    (descr "Through hole pin header")
    (tags "pin header")
    (fp_text reference REF** (at 0 5.1 270) (layer B.SilkS)
      (effects (font (size 1 1) (thickness 0.15)) (justify mirror))
    )
    (fp_text value Pin_Header_Straight_1x08 (at 0 3.1 270) (layer B.Fab)
      (effects (font (size 1 1) (thickness 0.15)) (justify mirror))
    )
    (fp_line (start -1.75 1.75) (end -1.75 -19.55) (layer B.CrtYd) (width 0.05))
    (fp_line (start 1.75 1.75) (end 1.75 -19.55) (layer B.CrtYd) (width 0.05))
    (fp_line (start -1.75 1.75) (end 1.75 1.75) (layer B.CrtYd) (width 0.05))
    (fp_line (start -1.75 -19.55) (end 1.75 -19.55) (layer B.CrtYd) (width 0.05))
    (fp_line (start 1.27 -1.27) (end 1.27 -19.05) (layer B.SilkS) (width 0.15))
    (fp_line (start 1.27 -19.05) (end -1.27 -19.05) (layer B.SilkS) (width 0.15))
    (fp_line (start -1.27 -19.05) (end -1.27 -1.27) (layer B.SilkS) (width 0.15))
    (fp_line (start 1.55 1.55) (end 1.55 0) (layer B.SilkS) (width 0.15))
    (fp_line (start 1.27 -1.27) (end -1.27 -1.27) (layer B.SilkS) (width 0.15))
    (fp_line (start -1.55 0) (end -1.55 1.55) (layer B.SilkS) (width 0.15))
    (fp_line (start -1.55 1.55) (end 1.55 1.55) (layer B.SilkS) (width 0.15))
    (pad 1 thru_hole oval (at 0 0 270) (size 2.032 1.7272) (drill 1) (layers *.Cu *.Mask B.SilkS))
    (pad 2 thru_hole oval (at 0 -2.54 270) (size 2.032 1.7272) (drill 1) (layers *.Cu *.Mask B.SilkS))
    (pad 3 thru_hole oval (at 0 -5.08 270) (size 2.032 1.7272) (drill 1) (layers *.Cu *.Mask B.SilkS))
    (pad 4 thru_hole oval (at 0 -7.62 270) (size 2.032 1.7272) (drill 1) (layers *.Cu *.Mask B.SilkS))
    (pad 5 thru_hole oval (at 0 -10.16 270) (size 2.032 1.7272) (drill 1) (layers *.Cu *.Mask B.SilkS))
    (pad 6 thru_hole oval (at 0 -12.7 270) (size 2.032 1.7272) (drill 1) (layers *.Cu *.Mask B.SilkS))
    (pad 7 thru_hole oval (at 0 -15.24 270) (size 2.032 1.7272) (drill 1) (layers *.Cu *.Mask B.SilkS))
    (pad 8 thru_hole oval (at 0 -17.78 270) (size 2.032 1.7272) (drill 1) (layers *.Cu *.Mask B.SilkS))
    (model Pin_Headers.3dshapes/Pin_Header_Straight_1x08.wrl
      (at (xyz 0 -0.35 0))
      (scale (xyz 1 1 1))
      (rotate (xyz 0 0 90))
    )
  )

  (module Pin_Headers:Pin_Header_Straight_1x06 (layer B.Cu) (tedit 0) (tstamp 564F8EE6)
    (at 208.915 119.38 270)
    (descr "Through hole pin header")
    (tags "pin header")
    (fp_text reference REF** (at 0 5.1 270) (layer B.SilkS)
      (effects (font (size 1 1) (thickness 0.15)) (justify mirror))
    )
    (fp_text value Pin_Header_Straight_1x06 (at 0 3.1 270) (layer B.Fab)
      (effects (font (size 1 1) (thickness 0.15)) (justify mirror))
    )
    (fp_line (start -1.75 1.75) (end -1.75 -14.45) (layer B.CrtYd) (width 0.05))
    (fp_line (start 1.75 1.75) (end 1.75 -14.45) (layer B.CrtYd) (width 0.05))
    (fp_line (start -1.75 1.75) (end 1.75 1.75) (layer B.CrtYd) (width 0.05))
    (fp_line (start -1.75 -14.45) (end 1.75 -14.45) (layer B.CrtYd) (width 0.05))
    (fp_line (start 1.27 -1.27) (end 1.27 -13.97) (layer B.SilkS) (width 0.15))
    (fp_line (start 1.27 -13.97) (end -1.27 -13.97) (layer B.SilkS) (width 0.15))
    (fp_line (start -1.27 -13.97) (end -1.27 -1.27) (layer B.SilkS) (width 0.15))
    (fp_line (start 1.55 1.55) (end 1.55 0) (layer B.SilkS) (width 0.15))
    (fp_line (start 1.27 -1.27) (end -1.27 -1.27) (layer B.SilkS) (width 0.15))
    (fp_line (start -1.55 0) (end -1.55 1.55) (layer B.SilkS) (width 0.15))
    (fp_line (start -1.55 1.55) (end 1.55 1.55) (layer B.SilkS) (width 0.15))
    (pad 1 thru_hole rect (at 0 0 270) (size 2.032 1.7272) (drill 1.016) (layers *.Cu *.Mask B.SilkS))
    (pad 2 thru_hole oval (at 0 -2.54 270) (size 2.032 1.7272) (drill 1.016) (layers *.Cu *.Mask B.SilkS))
    (pad 3 thru_hole oval (at 0 -5.08 270) (size 2.032 1.7272) (drill 1.016) (layers *.Cu *.Mask B.SilkS))
    (pad 4 thru_hole oval (at 0 -7.62 270) (size 2.032 1.7272) (drill 1.016) (layers *.Cu *.Mask B.SilkS))
    (pad 5 thru_hole oval (at 0 -10.16 270) (size 2.032 1.7272) (drill 1.016) (layers *.Cu *.Mask B.SilkS))
    (pad 6 thru_hole oval (at 0 -12.7 270) (size 2.032 1.7272) (drill 1.016) (layers *.Cu *.Mask B.SilkS))
    (model Pin_Headers.3dshapes/Pin_Header_Straight_1x06.wrl
      (at (xyz 0 -0.25 0))
      (scale (xyz 1 1 1))
      (rotate (xyz 0 0 90))
    )
  )

  (module Pin_Headers:Pin_Header_Straight_1x06 (layer B.Cu) (tedit 0) (tstamp 564F8EFB)
    (at 226.695 119.38 270)
    (descr "Through hole pin header")
    (tags "pin header")
    (fp_text reference REF** (at 0 5.1 270) (layer B.SilkS)
      (effects (font (size 1 1) (thickness 0.15)) (justify mirror))
    )
    (fp_text value Pin_Header_Straight_1x06 (at 0 3.1 270) (layer B.Fab)
      (effects (font (size 1 1) (thickness 0.15)) (justify mirror))
    )
    (fp_line (start -1.75 1.75) (end -1.75 -14.45) (layer B.CrtYd) (width 0.05))
    (fp_line (start 1.75 1.75) (end 1.75 -14.45) (layer B.CrtYd) (width 0.05))
    (fp_line (start -1.75 1.75) (end 1.75 1.75) (layer B.CrtYd) (width 0.05))
    (fp_line (start -1.75 -14.45) (end 1.75 -14.45) (layer B.CrtYd) (width 0.05))
    (fp_line (start 1.27 -1.27) (end 1.27 -13.97) (layer B.SilkS) (width 0.15))
    (fp_line (start 1.27 -13.97) (end -1.27 -13.97) (layer B.SilkS) (width 0.15))
    (fp_line (start -1.27 -13.97) (end -1.27 -1.27) (layer B.SilkS) (width 0.15))
    (fp_line (start 1.55 1.55) (end 1.55 0) (layer B.SilkS) (width 0.15))
    (fp_line (start 1.27 -1.27) (end -1.27 -1.27) (layer B.SilkS) (width 0.15))
    (fp_line (start -1.55 0) (end -1.55 1.55) (layer B.SilkS) (width 0.15))
    (fp_line (start -1.55 1.55) (end 1.55 1.55) (layer B.SilkS) (width 0.15))
    (pad 1 thru_hole rect (at 0 0 270) (size 2.032 1.7272) (drill 1.016) (layers *.Cu *.Mask B.SilkS))
    (pad 2 thru_hole oval (at 0 -2.54 270) (size 2.032 1.7272) (drill 1.016) (layers *.Cu *.Mask B.SilkS))
    (pad 3 thru_hole oval (at 0 -5.08 270) (size 2.032 1.7272) (drill 1.016) (layers *.Cu *.Mask B.SilkS))
    (pad 4 thru_hole oval (at 0 -7.62 270) (size 2.032 1.7272) (drill 1.016) (layers *.Cu *.Mask B.SilkS))
    (pad 5 thru_hole oval (at 0 -10.16 270) (size 2.032 1.7272) (drill 1.016) (layers *.Cu *.Mask B.SilkS))
    (pad 6 thru_hole oval (at 0 -12.7 270) (size 2.032 1.7272) (drill 1.016) (layers *.Cu *.Mask B.SilkS))
    (model Pin_Headers.3dshapes/Pin_Header_Straight_1x06.wrl
      (at (xyz 0 -0.25 0))
      (scale (xyz 1 1 1))
      (rotate (xyz 0 0 90))
    )
  )

  (module Wire_Pads:SolderWirePad_single_0-8mmDrill (layer F.Cu) (tedit 56D744ED) (tstamp 564F91B6)
    (at 219.837 74.549)
    (fp_text reference REF** (at 0 -2.54) (layer F.SilkS)
      (effects (font (size 1 1) (thickness 0.15)))
    )
    (fp_text value SolderWirePad_single_0-8mmDrill (at 0 2.54) (layer F.Fab)
      (effects (font (size 1 1) (thickness 0.15)))
    )
  )

  (module Wire_Pads:SolderWirePad_single_0-8mmDrill (layer F.Cu) (tedit 56D744E4) (tstamp 564F91BC)
    (at 217.297 74.422)
    (fp_text reference REF** (at 0 -2.54) (layer F.SilkS)
      (effects (font (size 1 1) (thickness 0.15)))
    )
    (fp_text value SolderWirePad_single_0-8mmDrill (at 0 2.54) (layer F.Fab)
      (effects (font (size 1 1) (thickness 0.15)))
    )
  )

  (module Wire_Pads:SolderWirePad_single_0-8mmDrill (layer F.Cu) (tedit 564FA1E6) (tstamp 564F9277)
    (at 248.412 104.648)
    (fp_text reference REF** (at 0 -2.54) (layer F.SilkS)
      (effects (font (size 1 1) (thickness 0.15)))
    )
    (fp_text value SolderWirePad_single_0-8mmDrill (at 0 2.54) (layer F.Fab)
      (effects (font (size 1 1) (thickness 0.15)))
    )
    (pad 1 thru_hole circle (at 0 0) (size 1.99898 1.99898) (drill 1) (layers *.Cu *.Mask F.SilkS))
  )

  (module Wire_Pads:SolderWirePad_single_0-8mmDrill (layer F.Cu) (tedit 0) (tstamp 564F92EA)
    (at 246.507 71.12)
    (fp_text reference REF** (at 0 -2.54) (layer F.SilkS)
      (effects (font (size 1 1) (thickness 0.15)))
    )
    (fp_text value SolderWirePad_single_0-8mmDrill (at 0 2.54) (layer F.Fab)
      (effects (font (size 1 1) (thickness 0.15)))
    )
    (pad 1 thru_hole circle (at 0 0) (size 1.99898 1.99898) (drill 1) (layers *.Cu *.Mask F.SilkS))
  )

  (module Wire_Pads:SolderWirePad_single_0-8mmDrill (layer F.Cu) (tedit 0) (tstamp 564F92FF)
    (at 248.92 72.898)
    (fp_text reference REF** (at 0 -2.54) (layer F.SilkS)
      (effects (font (size 1 1) (thickness 0.15)))
    )
    (fp_text value SolderWirePad_single_0-8mmDrill (at 0 2.54) (layer F.Fab)
      (effects (font (size 1 1) (thickness 0.15)))
    )
    (pad 1 thru_hole circle (at 0 0) (size 1.99898 1.99898) (drill 1) (layers *.Cu *.Mask F.SilkS))
  )

  (module Wire_Pads:SolderWirePad_single_0-8mmDrill (layer F.Cu) (tedit 0) (tstamp 564F93E5)
    (at 248.92 92.202)
    (fp_text reference REF** (at 0 -2.54) (layer F.SilkS)
      (effects (font (size 1 1) (thickness 0.15)))
    )
    (fp_text value SolderWirePad_single_0-8mmDrill (at 0 2.54) (layer F.Fab)
      (effects (font (size 1 1) (thickness 0.15)))
    )
    (pad 1 thru_hole circle (at 0 0) (size 1.99898 1.99898) (drill 1) (layers *.Cu *.Mask F.SilkS))
  )

  (module Capacitors_ThroughHole:C_Disc_D3_P2.5 (layer F.Cu) (tedit 0) (tstamp 56536718)
    (at 244.5385 119.253 90)
    (descr "Capacitor 3mm Disc, Pitch 2.5mm")
    (tags Capacitor)
    (fp_text reference REF** (at 1.25 -2.5 90) (layer F.SilkS)
      (effects (font (size 1 1) (thickness 0.15)))
    )
    (fp_text value C_Disc_D3_P2.5 (at 1.25 2.5 90) (layer F.Fab)
      (effects (font (size 1 1) (thickness 0.15)))
    )
    (fp_line (start -0.9 -1.5) (end 3.4 -1.5) (layer F.CrtYd) (width 0.05))
    (fp_line (start 3.4 -1.5) (end 3.4 1.5) (layer F.CrtYd) (width 0.05))
    (fp_line (start 3.4 1.5) (end -0.9 1.5) (layer F.CrtYd) (width 0.05))
    (fp_line (start -0.9 1.5) (end -0.9 -1.5) (layer F.CrtYd) (width 0.05))
    (fp_line (start -0.25 -1.25) (end 2.75 -1.25) (layer F.SilkS) (width 0.15))
    (fp_line (start 2.75 1.25) (end -0.25 1.25) (layer F.SilkS) (width 0.15))
    (pad 1 thru_hole rect (at 0 0 90) (size 1.3 1.3) (drill 0.8) (layers *.Cu *.Mask F.SilkS))
    (pad 2 thru_hole circle (at 2.5 0 90) (size 1.3 1.3) (drill 0.8001) (layers *.Cu *.Mask F.SilkS))
    (model Capacitors_ThroughHole.3dshapes/C_Disc_D3_P2.5.wrl
      (at (xyz 0.0492126 0 0))
      (scale (xyz 1 1 1))
      (rotate (xyz 0 0 0))
    )
  )

  (gr_line (start 177.165 121.92) (end 177.165 68.58) (angle 90) (layer Edge.Cuts) (width 0.15))
  (gr_line (start 257.175 121.92) (end 177.165 121.92) (angle 90) (layer Edge.Cuts) (width 0.15))
  (gr_line (start 259.715 119.38) (end 257.175 121.92) (angle 90) (layer Edge.Cuts) (width 0.15))
  (gr_line (start 259.715 69.85) (end 259.715 119.38) (angle 90) (layer Edge.Cuts) (width 0.15))
  (gr_line (start 258.445 68.58) (end 259.715 69.85) (angle 90) (layer Edge.Cuts) (width 0.15))
  (gr_line (start 177.165 68.58) (end 258.445 68.58) (angle 90) (layer Edge.Cuts) (width 0.15))

  (segment (start 202.311 73.914) (end 202.311 71.12) (width 1.254) (layer F.Cu) (net 0) (status 800000))
  (segment (start 202.311 82.296) (end 202.311 73.914) (width 0.54) (layer F.Cu) (net 0) (status 20))
  (segment (start 224.155 74.549) (end 224.155 71.12) (width 0.5) (layer B.Cu) (net 0))
  (segment (start 221.615 74.549) (end 221.615 71.12) (width 0.5) (layer B.Cu) (net 0))
  (segment (start 224.155 78.867) (end 213.106 89.916) (width 0.54) (layer B.Cu) (net 0) (tstamp 564F9207))
  (segment (start 215.138 92.964) (end 213.106 90.932) (width 0.54) (layer B.Cu) (net 0) (tstamp 564F5F0D) (status 10))
  (segment (start 213.106 90.932) (end 213.106 89.916) (width 0.54) (layer B.Cu) (net 0))
  (segment (start 224.155 74.549) (end 224.155 78.867) (width 0.54) (layer B.Cu) (net 0) (status 10))
  (segment (start 221.615 74.549) (end 221.615 78.74) (width 0.54) (layer B.Cu) (net 0) (status 10))
  (segment (start 182.7 97.836) (end 182.7 100.129) (width 1.254) (layer B.Cu) (net 0) (status 10))
  (segment (start 178.943 116.078) (end 180.34 117.475) (width 1.254) (layer B.Cu) (net 0) (tstamp 56D740C0) (status 20))
  (segment (start 178.943 103.886) (end 178.943 116.078) (width 1.254) (layer B.Cu) (net 0) (tstamp 56D740BE))
  (segment (start 182.7 100.129) (end 178.943 103.886) (width 1.254) (layer B.Cu) (net 0) (tstamp 56D740B7))
  (segment (start 254.254 92.964) (end 255.778 92.964) (width 1.254) (layer B.Cu) (net 0) (status 10))
  (segment (start 255.778 92.964) (end 257.302 94.488) (width 1.254) (layer B.Cu) (net 0) (tstamp 56D7409D))
  (segment (start 254.254 82.296) (end 254.254 82.423) (width 1.254) (layer B.Cu) (net 0) (status 30))
  (segment (start 254.254 82.423) (end 257.302 85.471) (width 1.254) (layer B.Cu) (net 0) (tstamp 56D74090) (status 10))
  (segment (start 254.254 103.632) (end 255.016 103.632) (width 1.254) (layer B.Cu) (net 0) (status 30))
  (segment (start 255.016 103.632) (end 257.302 105.918) (width 1.254) (layer B.Cu) (net 0) (tstamp 56D7408A) (status 10))
  (segment (start 254.254 71.628) (end 255.905 71.628) (width 1.254) (layer B.Cu) (net 0) (status 10))
  (segment (start 257.302 113.538) (end 254 116.84) (width 1.254) (layer B.Cu) (net 0) (tstamp 56D74084) (status 20))
  (segment (start 257.302 73.025) (end 257.302 85.471) (width 1.254) (layer B.Cu) (net 0) (tstamp 56D7407E))
  (segment (start 257.302 85.471) (end 257.302 94.488) (width 1.254) (layer B.Cu) (net 0) (tstamp 56D74093))
  (segment (start 257.302 94.488) (end 257.302 105.918) (width 1.254) (layer B.Cu) (net 0) (tstamp 56D740A0))
  (segment (start 257.302 105.918) (end 257.302 113.538) (width 1.254) (layer B.Cu) (net 0) (tstamp 56D7408E))
  (segment (start 255.905 71.628) (end 257.302 73.025) (width 1.254) (layer B.Cu) (net 0) (tstamp 56D7407C))
  (segment (start 244.5385 119.253) (end 242.697 119.253) (width 1.254) (layer B.Cu) (net 0) (status 10))
  (segment (start 242.697 119.253) (end 242.189 118.745) (width 1.254) (layer B.Cu) (net 0) (tstamp 56D73FFB))
  (segment (start 242.189 118.745) (end 242.189 116.459) (width 1.254) (layer B.Cu) (net 0) (tstamp 56D73FFC))
  (segment (start 242.189 116.459) (end 241.173 115.443) (width 1.254) (layer B.Cu) (net 0) (tstamp 56D73FFE))
  (segment (start 241.173 115.443) (end 221.488 115.443) (width 1.254) (layer B.Cu) (net 0) (tstamp 56D73FFF))
  (segment (start 221.488 115.443) (end 219.075 117.856) (width 1.254) (layer B.Cu) (net 0) (tstamp 56D7400A))
  (segment (start 219.075 117.856) (end 219.075 119.38) (width 1.254) (layer B.Cu) (net 0) (tstamp 56D7400E) (status 20))
  (segment (start 233.68 81.788) (end 239.522 81.788) (width 1.254) (layer F.Cu) (net 0))
  (segment (start 239.522 81.788) (end 240.03 82.296) (width 1.254) (layer F.Cu) (net 0) (tstamp 56703487) (status 20))
  (segment (start 207.01 106.299) (end 207.01 106.7435) (width 1.254) (layer B.Cu) (net 0) (status 30))
  (segment (start 207.01 106.7435) (end 206.248 107.5055) (width 1.254) (layer B.Cu) (net 0) (tstamp 56536649) (status 10))
  (segment (start 206.248 107.5055) (end 204.978 107.5055) (width 1.254) (layer B.Cu) (net 0) (tstamp 5653664C))
  (segment (start 204.978 107.5055) (end 202.68946 105.21696) (width 1.254) (layer B.Cu) (net 0) (tstamp 5653664D))
  (segment (start 202.68946 105.21696) (end 202.68946 98.93248) (width 1.254) (layer B.Cu) (net 0) (tstamp 5653664E) (status 20))
  (segment (start 205.486 84.836) (end 205.486 84.709) (width 1.254) (layer F.Cu) (net 0) (status 30))
  (segment (start 205.486 84.709) (end 203.581 82.804) (width 1.254) (layer F.Cu) (net 0) (tstamp 565365E7) (status 10))
  (segment (start 203.581 82.804) (end 202.692 82.804) (width 1.254) (layer F.Cu) (net 0) (tstamp 565365E8))
  (segment (start 240.03 104.013) (end 240.03 107.1245) (width 1.254) (layer B.Cu) (net 0) (status 10))
  (segment (start 254 115.3795) (end 254 116.84) (width 1.254) (layer B.Cu) (net 0) (tstamp 56536254) (status 20))
  (segment (start 251.46 112.8395) (end 254 115.3795) (width 1.254) (layer B.Cu) (net 0) (tstamp 56536253))
  (segment (start 245.745 112.8395) (end 251.46 112.8395) (width 1.254) (layer B.Cu) (net 0) (tstamp 56536250))
  (segment (start 240.03 107.1245) (end 245.745 112.8395) (width 1.254) (layer B.Cu) (net 0) (tstamp 5653624F))
  (segment (start 240.03 101.473) (end 238.63098 101.473) (width 1.254) (layer B.Cu) (net 0) (status 10))
  (segment (start 238.63098 101.473) (end 235.96346 98.80548) (width 1.254) (layer B.Cu) (net 0) (tstamp 56536247) (status 20))
  (segment (start 239.9665 84.963) (end 239.9665 85.1535) (width 1.254) (layer B.Cu) (net 0) (status 30))
  (segment (start 239.9665 85.1535) (end 239.0775 86.0425) (width 1.254) (layer B.Cu) (net 0) (tstamp 565361F2) (status 10))
  (segment (start 239.0775 86.0425) (end 237.617 86.0425) (width 1.254) (layer B.Cu) (net 0) (tstamp 565361F3))
  (segment (start 237.617 86.0425) (end 235.70946 84.13496) (width 1.254) (layer B.Cu) (net 0) (tstamp 565361F4))
  (segment (start 235.70946 84.13496) (end 235.70946 79.75548) (width 1.254) (layer B.Cu) (net 0) (tstamp 565361F5) (status 20))
  (segment (start 195.16598 97.88652) (end 201.6435 97.88652) (width 1.254) (layer B.Cu) (net 0) (status 10))
  (segment (start 201.6435 97.88652) (end 202.68946 98.93248) (width 1.254) (layer B.Cu) (net 0) (tstamp 56535C7A) (status 20))
  (segment (start 248.92 116.84) (end 244.602 116.84) (width 1.254) (layer B.Cu) (net 0) (status 30))
  (segment (start 244.602 116.84) (end 244.475 116.713) (width 0.54) (layer B.Cu) (net 0) (tstamp 564FA45B) (status 30))
  (segment (start 234.315 71.12) (end 234.315 72.898) (width 0.54) (layer F.Cu) (net 0) (status 10))
  (segment (start 248.92 76.835) (end 248.92 92.202) (width 0.54) (layer F.Cu) (net 0) (tstamp 564F951F) (status 20))
  (segment (start 245.999 73.914) (end 248.92 76.835) (width 0.54) (layer F.Cu) (net 0) (tstamp 564F951B))
  (segment (start 235.331 73.914) (end 245.999 73.914) (width 0.54) (layer F.Cu) (net 0) (tstamp 564F9518))
  (segment (start 234.315 72.898) (end 235.331 73.914) (width 0.54) (layer F.Cu) (net 0) (tstamp 564F9516))
  (segment (start 231.775 71.12) (end 231.775 73.787) (width 0.54) (layer F.Cu) (net 0) (status 10))
  (segment (start 247.142 103.378) (end 248.412 104.648) (width 0.54) (layer F.Cu) (net 0) (tstamp 564F94FD) (status 20))
  (segment (start 247.142 77.343) (end 247.142 103.378) (width 0.54) (layer F.Cu) (net 0) (tstamp 564F94FA))
  (segment (start 244.856 75.057) (end 247.142 77.343) (width 0.54) (layer F.Cu) (net 0) (tstamp 564F94F9))
  (segment (start 233.045 75.057) (end 244.856 75.057) (width 0.54) (layer F.Cu) (net 0) (tstamp 564F94F3))
  (segment (start 231.775 73.787) (end 233.045 75.057) (width 0.54) (layer F.Cu) (net 0) (tstamp 564F94F1))
  (segment (start 243.84 78.105) (end 231.521 78.105) (width 0.54) (layer F.Cu) (net 0) (status 10))
  (segment (start 226.695 74.422) (end 226.695 71.12) (width 0.54) (layer F.Cu) (net 0) (tstamp 564F94A9) (status 20))
  (segment (start 227.584 75.311) (end 226.695 74.422) (width 0.54) (layer F.Cu) (net 0) (tstamp 564F94A7))
  (segment (start 228.727 75.311) (end 227.584 75.311) (width 0.54) (layer F.Cu) (net 0) (tstamp 564F94A6))
  (segment (start 231.521 78.105) (end 228.727 75.311) (width 0.54) (layer F.Cu) (net 0) (tstamp 564F94A0))
  (segment (start 243.84 88.265) (end 243.84 88.011) (width 0.54) (layer B.Cu) (net 0) (status 30))
  (segment (start 243.84 88.011) (end 242.189 86.36) (width 0.54) (layer B.Cu) (net 0) (tstamp 564F9487) (status 10))
  (segment (start 242.189 86.36) (end 242.189 83.947) (width 0.54) (layer B.Cu) (net 0) (tstamp 564F948C))
  (segment (start 242.189 83.947) (end 241.935 83.693) (width 0.54) (layer B.Cu) (net 0) (tstamp 564F948D))
  (segment (start 254.254 87.376) (end 252.222 87.376) (width 0.54) (layer B.Cu) (net 0) (status 10))
  (segment (start 250.063 74.041) (end 248.92 72.898) (width 0.54) (layer B.Cu) (net 0) (tstamp 564F945F) (status 20))
  (segment (start 250.063 85.217) (end 250.063 74.041) (width 0.54) (layer B.Cu) (net 0) (tstamp 564F9458))
  (segment (start 252.222 87.376) (end 250.063 85.217) (width 0.54) (layer B.Cu) (net 0) (tstamp 564F9457))
  (segment (start 254.254 98.044) (end 252.349 98.044) (width 0.54) (layer B.Cu) (net 0) (status 10))
  (segment (start 248.92 94.615) (end 248.92 92.202) (width 0.54) (layer B.Cu) (net 0) (tstamp 564F9453) (status 20))
  (segment (start 252.349 98.044) (end 248.92 94.615) (width 0.54) (layer B.Cu) (net 0) (tstamp 564F9450))
  (segment (start 248.92 72.898) (end 238.633 72.898) (width 0.54) (layer F.Cu) (net 0) (status 10))
  (segment (start 238.633 72.898) (end 236.855 71.12) (width 0.54) (layer F.Cu) (net 0) (tstamp 564F93AC) (status 20))
  (segment (start 246.507 71.12) (end 250.444 71.12) (width 0.54) (layer B.Cu) (net 0) (status 10))
  (segment (start 254.254 74.93) (end 254.254 76.708) (width 0.54) (layer B.Cu) (net 0) (tstamp 564F933E) (status 20))
  (segment (start 250.444 71.12) (end 254.254 74.93) (width 0.54) (layer B.Cu) (net 0) (tstamp 564F933B))
  (segment (start 239.395 71.12) (end 246.507 71.12) (width 1.254) (layer F.Cu) (net 0) (status 30))
  (segment (start 221.615 78.74) (end 221.488 78.867) (width 0.54) (layer B.Cu) (net 0) (tstamp 564F9203))
  (segment (start 254 116.84) (end 254 118.618) (width 1.254) (layer B.Cu) (net 0) (status 10))
  (segment (start 253.238 119.38) (end 244.602 119.38) (width 1.254) (layer B.Cu) (net 0) (tstamp 564F910E) (status 20))
  (segment (start 254 118.618) (end 253.238 119.38) (width 1.254) (layer B.Cu) (net 0) (tstamp 564F910D))
  (segment (start 244.602 119.507) (end 244.729 119.507) (width 0.54) (layer F.Cu) (net 0) (tstamp 564F90EB) (status 30))
  (segment (start 219.075 119.38) (end 219.075 119.761) (width 0.54) (layer F.Cu) (net 0) (status 30))
  (segment (start 233.426 87.122) (end 213.995 87.122) (width 1.254) (layer F.Cu) (net 0) (status 10))
  (segment (start 213.995 87.122) (end 207.645 80.772) (width 1.254) (layer F.Cu) (net 0) (tstamp 564F8D4B) (status 20))
  (segment (start 233.426 87.122) (end 233.426 84.836) (width 1.254) (layer B.Cu) (net 0) (status 10))
  (segment (start 232.791 84.201) (end 230.251 84.201) (width 1.254) (layer B.Cu) (net 0) (tstamp 564F8D48) (status 20))
  (segment (start 233.426 84.836) (end 232.791 84.201) (width 0.54) (layer B.Cu) (net 0) (tstamp 564F8D47))
  (segment (start 207.645 80.772) (end 199.39 80.772) (width 1.254) (layer B.Cu) (net 0) (status 10))
  (segment (start 199.39 80.772) (end 195.834 77.216) (width 1.254) (layer B.Cu) (net 0) (tstamp 564F8D39))
  (segment (start 195.834 77.216) (end 195.072 77.216) (width 0.54) (layer B.Cu) (net 0) (tstamp 564F8D3B))
  (segment (start 195.072 77.216) (end 190.754 72.898) (width 1.254) (layer B.Cu) (net 0) (tstamp 564F8D3D) (status 20))
  (segment (start 254.254 103.632) (end 255.397 103.632) (width 0.54) (layer B.Cu) (net 0) (status 30))
  (segment (start 254.254 82.296) (end 255.397 82.296) (width 0.54) (layer B.Cu) (net 0) (status 30))
  (segment (start 235.96346 108.96548) (end 235.96346 108.58246) (width 0.54) (layer B.Cu) (net 0) (status 30))
  (segment (start 235.96346 108.58246) (end 233.807 106.426) (width 1.254) (layer B.Cu) (net 0) (tstamp 564F8B0E) (status 10))
  (segment (start 233.807 106.426) (end 233.807 103.759) (width 1.254) (layer B.Cu) (net 0) (tstamp 564F8B11))
  (segment (start 233.807 103.759) (end 231.902 101.854) (width 1.254) (layer B.Cu) (net 0) (tstamp 564F8B13))
  (segment (start 231.902 101.854) (end 226.187 101.854) (width 1.254) (layer B.Cu) (net 0) (tstamp 564F8B15))
  (segment (start 226.187 101.854) (end 225.044 100.711) (width 1.254) (layer B.Cu) (net 0) (tstamp 564F8B17))
  (segment (start 225.044 100.711) (end 225.044 93.408) (width 1.254) (layer B.Cu) (net 0) (tstamp 564F8B18))
  (segment (start 225.044 93.408) (end 228.301 90.151) (width 1.254) (layer B.Cu) (net 0) (tstamp 564F8B1C) (status 20))
  (segment (start 235.70946 80.13446) (end 235.70946 79.75548) (width 1.254) (layer B.Cu) (net 0) (tstamp 564F78EE) (status 30))
  (segment (start 240.157 83.693) (end 241.935 83.693) (width 0.54) (layer B.Cu) (net 0) (status 10))
  (segment (start 208.915 105.029) (end 207.01 105.029) (width 0.54) (layer B.Cu) (net 0) (status 20))
  (segment (start 205.486 86.106) (end 207.137 86.106) (width 0.54) (layer B.Cu) (net 0) (status 10))
  (segment (start 235.84154 109.09352) (end 230.50194 109.09352) (width 1.254) (layer B.Cu) (net 0) (status 10))
  (segment (start 230.50194 109.09352) (end 228.43998 111.15548) (width 1.254) (layer B.Cu) (net 0) (tstamp 564F5F7D) (status 20))
  (segment (start 214.884 96.012) (end 214.884 96.393) (width 0.54) (layer B.Cu) (net 0) (status 30))
  (segment (start 214.884 96.393) (end 212.598 98.679) (width 0.54) (layer B.Cu) (net 0) (tstamp 564F5F26) (status 10))
  (segment (start 212.598 98.679) (end 212.598 101.346) (width 0.54) (layer B.Cu) (net 0) (tstamp 564F5F28))
  (segment (start 212.598 101.346) (end 208.915 105.029) (width 0.54) (layer B.Cu) (net 0) (tstamp 564F5F2A))
  (segment (start 215.138 93.472) (end 215.138 92.964) (width 0.54) (layer B.Cu) (net 0) (status 30))
  (segment (start 235.70946 89.91548) (end 228.59798 89.91548) (width 1.254) (layer B.Cu) (net 0) (status 30))
  (segment (start 228.59798 89.91548) (end 228.31298 90.20048) (width 0.54) (layer B.Cu) (net 0) (tstamp 564F5EC7) (status 30))
  (segment (start 191.008 73.152) (end 190.754 72.898) (width 0.54) (layer F.Cu) (net 0) (tstamp 564F59E6) (status 30))
  (segment (start 202.311 73.787) (end 206.248 77.724) (width 1.254) (layer F.Cu) (net 0))
  (segment (start 206.248 77.724) (end 211.836 77.724) (width 1.254) (layer F.Cu) (net 0) (tstamp 564F59CA))
  (segment (start 211.836 77.724) (end 215.9 81.788) (width 1.254) (layer F.Cu) (net 0) (tstamp 564F59CC))
  (segment (start 215.9 81.788) (end 233.68 81.788) (width 1.254) (layer F.Cu) (net 0) (tstamp 564F59CD))
  (segment (start 233.68 81.788) (end 234.188 81.788) (width 0.54) (layer F.Cu) (net 0) (tstamp 564F59CE))
  (segment (start 202.311 82.296) (end 202.311 82.423) (width 0.54) (layer F.Cu) (net 0))
  (segment (start 202.311 82.423) (end 202.692 82.804) (width 0.54) (layer F.Cu) (net 0) (tstamp 564F59C4))
  (segment (start 202.692 82.804) (end 202.946 83.058) (width 0.54) (layer F.Cu) (net 0) (tstamp 565365EB))
  (segment (start 195.16598 109.88548) (end 195.16598 109.31398) (width 0.54) (layer F.Cu) (net 0) (status 30))
  (segment (start 235.966 99.06) (end 228.5365 99.06) (width 1.254) (layer B.Cu) (net 0) (status 30))
  (segment (start 228.5365 99.06) (end 228.43998 99.15652) (width 0.54) (layer B.Cu) (net 0) (tstamp 564F597C) (status 30))
  (segment (start 235.458 79.883) (end 229.99446 79.883) (width 1.254) (layer B.Cu) (net 0) (status 10))
  (segment (start 229.99446 79.883) (end 228.31298 78.20152) (width 1.254) (layer B.Cu) (net 0) (tstamp 564F5947) (status 20))
  (segment (start 230.4415 105.156) (end 217.424 105.156) (width 1.254) (layer B.Cu) (net 0) (status 10))
  (segment (start 217.424 105.156) (end 205.105 117.475) (width 1.254) (layer B.Cu) (net 0) (tstamp 564F590E))
  (segment (start 205.105 117.475) (end 196.215 117.475) (width 1.254) (layer B.Cu) (net 0) (tstamp 564F5910) (status 20))
  (segment (start 191.135 117.475) (end 191.897 117.475) (width 0.54) (layer B.Cu) (net 0) (status 30))
  (segment (start 191.897 117.475) (end 197.231 112.141) (width 1.254) (layer B.Cu) (net 0) (tstamp 564F5904) (status 10))
  (segment (start 204.851 112.141) (end 216.2429 100.7491) (width 1.254) (layer B.Cu) (net 0) (tstamp 564F5908))
  (segment (start 197.231 112.141) (end 204.851 112.141) (width 1.254) (layer B.Cu) (net 0) (tstamp 564F5905))
  (segment (start 216.2429 100.7491) (end 216.2429 99.15652) (width 0.54) (layer B.Cu) (net 0) (tstamp 564F590B) (status 20))
  (segment (start 185.42 117.475) (end 185.42 113.284) (width 1.254) (layer B.Cu) (net 0) (status 10))
  (segment (start 185.42 113.284) (end 194.818 103.886) (width 1.254) (layer B.Cu) (net 0) (tstamp 564F58D6))
  (segment (start 194.818 103.886) (end 197.1675 103.886) (width 1.254) (layer B.Cu) (net 0) (tstamp 564F58DD) (status 20))
  (segment (start 195.834 72.898) (end 199.136 76.2) (width 1.254) (layer B.Cu) (net 0) (status 10))
  (segment (start 199.136 76.2) (end 214.11438 76.2) (width 1.254) (layer B.Cu) (net 0) (tstamp 564F58BB))
  (segment (start 214.11438 76.2) (end 216.1159 78.20152) (width 1.254) (layer B.Cu) (net 0) (tstamp 564F58BD) (status 20))
  (segment (start 180.34 72.898) (end 180.34 78.49362) (width 1.254) (layer B.Cu) (net 0) (status 10))
  (segment (start 180.34 78.49362) (end 182.9689 81.12252) (width 1.254) (layer B.Cu) (net 0) (tstamp 564F58B3) (status 20))
  (segment (start 185.42 72.898) (end 185.42 75.3745) (width 1.254) (layer B.Cu) (net 0) (status 10))
  (segment (start 185.42 75.3745) (end 197.1675 87.122) (width 1.254) (layer B.Cu) (net 0) (tstamp 564F58AD) (status 20))
  (segment (start 204.978 96.012) (end 206.756 96.012) (width 0.54) (layer B.Cu) (net 0) (status 10))
  (segment (start 210.566 92.202) (end 210.566 89.789) (width 0.54) (layer B.Cu) (net 0) (tstamp 564F520C))
  (segment (start 206.756 96.012) (end 210.566 92.202) (width 0.54) (layer B.Cu) (net 0) (tstamp 564F520A))
  (segment (start 210.566 89.789) (end 221.615 78.74) (width 0.54) (layer B.Cu) (net 0) (tstamp 564F520E))
  (segment (start 204.978 93.472) (end 204.978 91.694) (width 0.54) (layer B.Cu) (net 0) (status 10))
  (segment (start 204.978 91.694) (end 207.137 89.535) (width 0.54) (layer B.Cu) (net 0) (tstamp 564F5202))
  (segment (start 207.137 89.535) (end 207.137 86.106) (width 0.54) (layer B.Cu) (net 0) (tstamp 564F5206))
  (segment (start 194.818 103.886) (end 197.1675 103.886) (width 0.254) (layer B.Cu) (net 0) (tstamp 564F3F14) (status 20))
  (segment (start 185.42 113.284) (end 194.818 103.886) (width 0.254) (layer B.Cu) (net 0) (tstamp 564F3F0D))
  (segment (start 202.311 73.66) (end 202.311 82.296) (width 0.254) (layer F.Cu) (net 0))
  (segment (start 202.311 82.423) (end 202.946 83.058) (width 0.254) (layer F.Cu) (net 0) (tstamp 564F3E6F))
  (segment (start 195.16598 93.12148) (end 194.40652 93.12148) (width 0.254) (layer F.Cu) (net 0) (status 30))
  (segment (start 202.311 71.12) (end 202.311 73.66) (width 0.254) (layer F.Cu) (net 0) (status 10))
  (segment (start 202.311 73.66) (end 202.311 73.787) (width 0.254) (layer F.Cu) (net 0) (tstamp 564F3E6D))
  (segment (start 215.9 81.788) (end 234.188 81.788) (width 0.254) (layer F.Cu) (net 0) (tstamp 564F3E23))
  (segment (start 211.836 77.724) (end 215.9 81.788) (width 0.254) (layer F.Cu) (net 0) (tstamp 564F3E20))
  (segment (start 206.248 77.724) (end 211.836 77.724) (width 0.254) (layer F.Cu) (net 0) (tstamp 564F3E1E))
  (segment (start 214.11438 76.2) (end 216.1159 78.20152) (width 0.254) (layer B.Cu) (net 0) (tstamp 564F3D0B) (status 20))
  (segment (start 199.136 76.2) (end 214.11438 76.2) (width 0.254) (layer B.Cu) (net 0) (tstamp 564F3D07))
  (segment (start 185.42 75.3745) (end 197.1675 87.122) (width 0.254) (layer B.Cu) (net 0) (tstamp 564F3CB0) (status 20))
  (segment (start 180.34 78.49362) (end 182.9689 81.12252) (width 0.254) (layer B.Cu) (net 0) (tstamp 564F3CAC) (status 20))
  (segment (start 191.897 117.475) (end 197.104 112.268) (width 0.254) (layer B.Cu) (net 0) (tstamp 564F3C8A) (status 10))
  (segment (start 197.104 112.268) (end 204.724 112.268) (width 0.254) (layer B.Cu) (net 0) (tstamp 564F3C8E))
  (segment (start 204.724 112.268) (end 216.2429 100.7491) (width 0.254) (layer B.Cu) (net 0) (tstamp 564F3C91))
  (segment (start 216.2429 100.7491) (end 216.2429 99.15652) (width 0.254) (layer B.Cu) (net 0) (tstamp 564F3C93) (status 20))
  (segment (start 196.215 117.475) (end 205.105 117.475) (width 0.254) (layer B.Cu) (net 0) (status 10))
  (segment (start 205.105 117.475) (end 217.424 105.156) (width 0.254) (layer B.Cu) (net 0) (tstamp 564F3C7B))
  (segment (start 254.254 108.712) (end 252.476 108.712) (width 1.254) (layer B.Cu) (net 0) (status 10))
  (segment (start 252.476 108.712) (end 248.412 104.648) (width 1.254) (layer B.Cu) (net 0) (tstamp 564F3BE5) (status 20))
  (segment (start 221.488 78.74) (end 221.488 78.867) (width 0.254) (layer B.Cu) (net 0) (tstamp 564F3B78))
  (segment (start 221.615 78.74) (end 221.488 78.74) (width 0.254) (layer B.Cu) (net 0) (tstamp 564F3B75))
  (segment (start 210.566 89.789) (end 221.488 78.867) (width 0.254) (layer B.Cu) (net 0) (tstamp 564E5336))
  (segment (start 212.598 101.346) (end 208.915 105.029) (width 0.254) (layer B.Cu) (net 0) (tstamp 564F39E5))
  (segment (start 207.137 89.535) (end 207.137 86.106) (width 0.254) (layer B.Cu) (net 0) (tstamp 564F39CF))
  (segment (start 204.978 91.694) (end 207.137 89.535) (width 0.254) (layer B.Cu) (net 0) (tstamp 564F39CB))
  (segment (start 221.742 119.38) (end 221.615 119.38) (width 0.254) (layer B.Cu) (net 0) (tstamp 564F3774) (status 30))
  (segment (start 195.19646 109.093) (end 195.16598 109.12348) (width 0.254) (layer B.Cu) (net 0) (tstamp 564F3755) (status 30))
  (segment (start 228.5365 99.06) (end 228.43998 99.15652) (width 0.254) (layer B.Cu) (net 0) (tstamp 564E531F) (status 30))
  (segment (start 229.99446 79.883) (end 228.31298 78.20152) (width 0.254) (layer B.Cu) (net 0) (tstamp 564E5317) (status 20))
  (segment (start 228.43998 111.15548) (end 228.18852 111.15548) (width 0.54) (layer F.Cu) (net 0) (status 30))
  (segment (start 228.43998 110.83798) (end 228.43998 111.15548) (width 0.54) (layer F.Cu) (net 0) (tstamp 564F59F5) (status 30))
  (segment (start 228.43998 111.15548) (end 228.43998 110.83798) (width 0.254) (layer F.Cu) (net 0) (status 30))
  (segment (start 201.6435 97.88652) (end 202.68946 98.93248) (width 0.54) (layer B.Cu) (net 0) (tstamp 564F61A6) (status 20))
  (segment (start 195.16598 97.88652) (end 195.92798 97.88652) (width 0.54) (layer B.Cu) (net 0) (status 30))
  (segment (start 207.01 103.759) (end 205.486 102.235) (width 0.5) (layer F.Cu) (net 1))
  (segment (start 205.359 99.06) (end 201.168 94.869) (width 0.5) (layer F.Cu) (net 1) (tstamp 56D743F4))
  (segment (start 205.486 99.06) (end 205.359 99.06) (width 0.5) (layer F.Cu) (net 1) (tstamp 56D743EE))
  (segment (start 205.486 102.235) (end 205.486 99.06) (width 0.5) (layer F.Cu) (net 1) (tstamp 56D743EA))
  (segment (start 200.78446 93.34448) (end 201.168 93.72802) (width 0.5) (layer F.Cu) (net 1))
  (segment (start 201.168 93.72802) (end 201.168 94.869) (width 0.5) (layer F.Cu) (net 1) (tstamp 56D743FA))
  (segment (start 205.486 87.376) (end 205.486 87.9475) (width 1.254) (layer B.Cu) (net 2) (status 10))
  (segment (start 200.78446 86.92896) (end 200.78446 83.18448) (width 1.254) (layer B.Cu) (net 2) (tstamp 565365DA) (status 20))
  (segment (start 202.946 89.0905) (end 200.78446 86.92896) (width 1.254) (layer B.Cu) (net 2) (tstamp 565365D9))
  (segment (start 204.343 89.0905) (end 202.946 89.0905) (width 1.254) (layer B.Cu) (net 2) (tstamp 565365D8))
  (segment (start 205.486 87.9475) (end 204.343 89.0905) (width 1.254) (layer B.Cu) (net 2) (tstamp 565365D7))
  (segment (start 200.66 83.312) (end 197.35546 83.312) (width 1.254) (layer B.Cu) (net 2) (status 10))
  (segment (start 197.35546 83.312) (end 195.16598 81.12252) (width 1.254) (layer B.Cu) (net 2) (tstamp 564F51F9) (status 20))
  (segment (start 197.35546 83.312) (end 195.16598 81.12252) (width 0.254) (layer B.Cu) (net 2) (tstamp 564F39B2) (status 20))
  (segment (start 235.96346 108.96548) (end 235.96346 115.44554) (width 1.254) (layer F.Cu) (net 3) (status 10))
  (segment (start 235.96346 115.44554) (end 234.696 116.713) (width 1.254) (layer F.Cu) (net 3) (tstamp 56535BF9))
  (segment (start 221.615 119.38) (end 221.615 116.967) (width 1.254) (layer F.Cu) (net 3) (status 10))
  (segment (start 221.615 116.967) (end 219.964 115.316) (width 1.254) (layer F.Cu) (net 3) (tstamp 565359A8))
  (segment (start 244.475 116.713) (end 234.696 116.713) (width 1.254) (layer F.Cu) (net 3) (status 10))
  (segment (start 234.696 116.713) (end 228.981 116.713) (width 1.254) (layer F.Cu) (net 3) (tstamp 56535BFD))
  (segment (start 224.663 116.332) (end 221.615 119.38) (width 1.254) (layer F.Cu) (net 3) (tstamp 564F90C4) (status 20))
  (segment (start 228.6 116.332) (end 224.663 116.332) (width 1.254) (layer F.Cu) (net 3))
  (segment (start 228.981 116.713) (end 228.6 116.332) (width 0.54) (layer F.Cu) (net 3) (tstamp 564FA460))
  (segment (start 195.281 93.072) (end 195.281 93.136) (width 0.54) (layer B.Cu) (net 3) (status 30))
  (segment (start 195.281 93.136) (end 190.881 97.536) (width 1.254) (layer B.Cu) (net 3) (tstamp 564F8ABD) (status 10))
  (segment (start 190.881 97.536) (end 190.881 98.679) (width 1.254) (layer B.Cu) (net 3) (tstamp 564F8AC1))
  (segment (start 190.881 98.679) (end 192.659 100.457) (width 1.254) (layer B.Cu) (net 3) (tstamp 564F8AC5))
  (segment (start 192.659 100.457) (end 198.628 100.457) (width 1.254) (layer B.Cu) (net 3) (tstamp 564F8AC7))
  (segment (start 198.628 100.457) (end 200.787 102.616) (width 1.254) (layer B.Cu) (net 3) (tstamp 564F8AD0))
  (segment (start 200.787 102.616) (end 200.787 107.19002) (width 1.254) (layer B.Cu) (net 3) (tstamp 564F8AD3))
  (segment (start 200.787 107.19002) (end 202.68946 109.09248) (width 1.254) (layer B.Cu) (net 3) (tstamp 564F8AD6) (status 20))
  (segment (start 200.78446 93.34448) (end 195.38898 93.34448) (width 1.254) (layer B.Cu) (net 3) (status 30))
  (segment (start 195.38898 93.34448) (end 195.16598 93.12148) (width 0.54) (layer B.Cu) (net 3) (tstamp 564F6269) (status 30))
  (segment (start 202.692 109.093) (end 195.95846 109.093) (width 1.254) (layer B.Cu) (net 3) (status 30))
  (segment (start 195.95846 109.093) (end 195.16598 109.88548) (width 0.54) (layer B.Cu) (net 3) (tstamp 564F58F8) (status 30))
  (segment (start 219.964 115.316) (end 208.915 115.316) (width 1.254) (layer F.Cu) (net 3) (tstamp 564F5A01))
  (segment (start 208.915 115.316) (end 202.692 109.093) (width 1.254) (layer F.Cu) (net 3) (tstamp 564F5A03) (status 20))
  (segment (start 208.915 115.316) (end 202.692 109.093) (width 0.254) (layer F.Cu) (net 3) (tstamp 564F3E55) (status 20))
  (segment (start 219.964 115.316) (end 208.915 115.316) (width 0.254) (layer F.Cu) (net 3) (tstamp 564F3E53))
  (segment (start 241.935 102.743) (end 240.03 102.743) (width 0.54) (layer B.Cu) (net 4) (status 20))
  (segment (start 245.11 104.648) (end 243.84 104.648) (width 0.54) (layer B.Cu) (net 4) (status 10))
  (segment (start 243.84 104.648) (end 241.935 102.743) (width 0.54) (layer B.Cu) (net 4) (tstamp 564F5EEE))
  (segment (start 245.11 94.488) (end 245.11 89.662) (width 0.54) (layer F.Cu) (net 5) (status 10))
  (segment (start 229.235 73.533) (end 229.235 71.12) (width 0.54) (layer F.Cu) (net 5) (tstamp 564F94E2) (status 20))
  (segment (start 231.902 76.2) (end 229.235 73.533) (width 0.54) (layer F.Cu) (net 5) (tstamp 564F94E1))
  (segment (start 244.348 76.2) (end 231.902 76.2) (width 0.54) (layer F.Cu) (net 5) (tstamp 564F94DB))
  (segment (start 245.872 77.724) (end 244.348 76.2) (width 0.54) (layer F.Cu) (net 5) (tstamp 564F94D7))
  (segment (start 245.872 88.9) (end 245.872 77.724) (width 0.54) (layer F.Cu) (net 5) (tstamp 564F94D3))
  (segment (start 245.11 89.662) (end 245.872 88.9) (width 0.54) (layer F.Cu) (net 5) (tstamp 564F94CE))
  (segment (start 229.235 72.009) (end 229.235 71.12) (width 0.54) (layer F.Cu) (net 5) (tstamp 564F917E) (status 30))

)
