EESchema Schematic File Version 2
LIBS:power
LIBS:device
LIBS:transistors
LIBS:conn
LIBS:linear
LIBS:regul
LIBS:74xx
LIBS:cmos4000
LIBS:adc-dac
LIBS:memory
LIBS:xilinx
LIBS:special
LIBS:microcontrollers
LIBS:dsp
LIBS:microchip
LIBS:analog_switches
LIBS:motorola
LIBS:texas
LIBS:intel
LIBS:audio
LIBS:interface
LIBS:digital-audio
LIBS:philips
LIBS:display
LIBS:cypress
LIBS:siliconi
LIBS:opto
LIBS:atmel
LIBS:contrib
LIBS:valves
LIBS:relay_k64-cache
EELAYER 27 0
EELAYER END
$Descr A4 11693 8268
encoding utf-8
Sheet 1 1
Title "noname.sch"
Date "19 nov 2015"
Rev ""
Comp ""
Comment1 ""
Comment2 ""
Comment3 ""
Comment4 ""
$EndDescr
$Comp
L ARDUINO_SHIELD SHIELD1
U 1 1 564E231E
P 3300 3850
F 0 "SHIELD1" H 2950 4800 60  0000 C CNN
F 1 "ARDUINO_SHIELD" H 3350 2900 60  0000 C CNN
F 2 "~" H 3300 3850 60  0000 C CNN
F 3 "~" H 3300 3850 60  0000 C CNN
	1    3300 3850
	1    0    0    -1  
$EndComp
$Comp
L DIODE D3
U 1 1 564E23C4
P 5550 3500
F 0 "D3" H 5550 3600 40  0000 C CNN
F 1 "DIODE" H 5550 3400 40  0000 C CNN
F 2 "~" H 5550 3500 60  0000 C CNN
F 3 "~" H 5550 3500 60  0000 C CNN
	1    5550 3500
	0    -1   -1   0   
$EndComp
$Comp
L NPN Q3
U 1 1 564E23D3
P 5450 3950
F 0 "Q3" H 5450 3800 50  0000 R CNN
F 1 "NPN" H 5450 4100 50  0000 R CNN
F 2 "~" H 5450 3950 60  0000 C CNN
F 3 "~" H 5450 3950 60  0000 C CNN
	1    5450 3950
	1    0    0    -1  
$EndComp
$Comp
L R R3
U 1 1 564E23E2
P 4950 3950
F 0 "R3" V 5030 3950 40  0000 C CNN
F 1 "R" V 4957 3951 40  0000 C CNN
F 2 "~" V 4880 3950 30  0000 C CNN
F 3 "~" H 4950 3950 30  0000 C CNN
	1    4950 3950
	0    -1   -1   0   
$EndComp
$Comp
L RELAY_2RT K3
U 1 1 564E2409
P 6950 3700
F 0 "K3" H 6900 4100 70  0000 C CNN
F 1 "RELAY_2RT" H 7100 3200 70  0000 C CNN
F 2 "~" H 6950 3700 60  0000 C CNN
F 3 "~" H 6950 3700 60  0000 C CNN
	1    6950 3700
	1    0    0    -1  
$EndComp
$Comp
L VCC #PWR01
U 1 1 564E2488
P 5550 3150
F 0 "#PWR01" H 5550 3250 30  0001 C CNN
F 1 "VCC" H 5550 3250 30  0000 C CNN
F 2 "" H 5550 3150 60  0000 C CNN
F 3 "" H 5550 3150 60  0000 C CNN
	1    5550 3150
	1    0    0    -1  
$EndComp
$Comp
L GND #PWR02
U 1 1 564E2497
P 5550 4350
F 0 "#PWR02" H 5550 4350 30  0001 C CNN
F 1 "GND" H 5550 4280 30  0001 C CNN
F 2 "" H 5550 4350 60  0000 C CNN
F 3 "" H 5550 4350 60  0000 C CNN
	1    5550 4350
	1    0    0    -1  
$EndComp
Wire Wire Line
	5550 3300 5550 3150
Wire Wire Line
	5550 3700 5550 3750
Wire Wire Line
	6550 3950 6250 3950
Wire Wire Line
	6250 3950 6250 3300
Wire Wire Line
	6250 3300 5550 3300
Wire Wire Line
	6550 4050 6150 4050
Wire Wire Line
	6150 4050 6150 3750
Wire Wire Line
	6150 3750 5550 3750
Wire Wire Line
	5550 4150 5550 4350
Wire Wire Line
	5250 3950 5200 3950
$Comp
L DIODE D4
U 1 1 564E2577
P 5750 4950
F 0 "D4" H 5750 5050 40  0000 C CNN
F 1 "DIODE" H 5750 4850 40  0000 C CNN
F 2 "~" H 5750 4950 60  0000 C CNN
F 3 "~" H 5750 4950 60  0000 C CNN
	1    5750 4950
	0    -1   -1   0   
$EndComp
$Comp
L NPN Q4
U 1 1 564E257D
P 5650 5400
F 0 "Q4" H 5650 5250 50  0000 R CNN
F 1 "NPN" H 5650 5550 50  0000 R CNN
F 2 "~" H 5650 5400 60  0000 C CNN
F 3 "~" H 5650 5400 60  0000 C CNN
	1    5650 5400
	1    0    0    -1  
$EndComp
$Comp
L R R4
U 1 1 564E2583
P 5150 5400
F 0 "R4" V 5230 5400 40  0000 C CNN
F 1 "R" V 5157 5401 40  0000 C CNN
F 2 "~" V 5080 5400 30  0000 C CNN
F 3 "~" H 5150 5400 30  0000 C CNN
	1    5150 5400
	0    -1   -1   0   
$EndComp
$Comp
L RELAY_2RT K4
U 1 1 564E2589
P 7150 5150
F 0 "K4" H 7100 5550 70  0000 C CNN
F 1 "RELAY_2RT" H 7300 4650 70  0000 C CNN
F 2 "~" H 7150 5150 60  0000 C CNN
F 3 "~" H 7150 5150 60  0000 C CNN
	1    7150 5150
	1    0    0    -1  
$EndComp
$Comp
L VCC #PWR03
U 1 1 564E258F
P 5750 4600
F 0 "#PWR03" H 5750 4700 30  0001 C CNN
F 1 "VCC" H 5750 4700 30  0000 C CNN
F 2 "" H 5750 4600 60  0000 C CNN
F 3 "" H 5750 4600 60  0000 C CNN
	1    5750 4600
	1    0    0    -1  
$EndComp
$Comp
L GND #PWR04
U 1 1 564E2595
P 5750 5800
F 0 "#PWR04" H 5750 5800 30  0001 C CNN
F 1 "GND" H 5750 5730 30  0001 C CNN
F 2 "" H 5750 5800 60  0000 C CNN
F 3 "" H 5750 5800 60  0000 C CNN
	1    5750 5800
	1    0    0    -1  
$EndComp
Wire Wire Line
	5750 4750 5750 4600
Wire Wire Line
	5750 5150 5750 5200
Wire Wire Line
	6750 5400 6450 5400
Wire Wire Line
	6450 5400 6450 4750
Wire Wire Line
	6450 4750 5750 4750
Wire Wire Line
	6750 5500 6350 5500
Wire Wire Line
	6350 5500 6350 5200
Wire Wire Line
	6350 5200 5750 5200
Wire Wire Line
	5750 5600 5750 5800
Wire Wire Line
	5450 5400 5400 5400
Wire Wire Line
	4900 5400 4800 5400
$Comp
L DIODE D2
U 1 1 564E25BD
P 5500 2000
F 0 "D2" H 5500 2100 40  0000 C CNN
F 1 "DIODE" H 5500 1900 40  0000 C CNN
F 2 "~" H 5500 2000 60  0000 C CNN
F 3 "~" H 5500 2000 60  0000 C CNN
	1    5500 2000
	0    -1   -1   0   
$EndComp
$Comp
L NPN Q2
U 1 1 564E25C3
P 5400 2450
F 0 "Q2" H 5400 2300 50  0000 R CNN
F 1 "NPN" H 5400 2600 50  0000 R CNN
F 2 "~" H 5400 2450 60  0000 C CNN
F 3 "~" H 5400 2450 60  0000 C CNN
	1    5400 2450
	1    0    0    -1  
$EndComp
$Comp
L R R2
U 1 1 564E25C9
P 4900 2450
F 0 "R2" V 4980 2450 40  0000 C CNN
F 1 "R" V 4907 2451 40  0000 C CNN
F 2 "~" V 4830 2450 30  0000 C CNN
F 3 "~" H 4900 2450 30  0000 C CNN
	1    4900 2450
	0    -1   -1   0   
$EndComp
$Comp
L RELAY_2RT K2
U 1 1 564E25CF
P 6900 2200
F 0 "K2" H 6850 2600 70  0000 C CNN
F 1 "RELAY_2RT" H 7050 1700 70  0000 C CNN
F 2 "~" H 6900 2200 60  0000 C CNN
F 3 "~" H 6900 2200 60  0000 C CNN
	1    6900 2200
	1    0    0    -1  
$EndComp
$Comp
L VCC #PWR05
U 1 1 564E25D5
P 5500 1650
F 0 "#PWR05" H 5500 1750 30  0001 C CNN
F 1 "VCC" H 5500 1750 30  0000 C CNN
F 2 "" H 5500 1650 60  0000 C CNN
F 3 "" H 5500 1650 60  0000 C CNN
	1    5500 1650
	1    0    0    -1  
$EndComp
$Comp
L GND #PWR06
U 1 1 564E25DB
P 5500 2850
F 0 "#PWR06" H 5500 2850 30  0001 C CNN
F 1 "GND" H 5500 2780 30  0001 C CNN
F 2 "" H 5500 2850 60  0000 C CNN
F 3 "" H 5500 2850 60  0000 C CNN
	1    5500 2850
	1    0    0    -1  
$EndComp
Wire Wire Line
	5500 1800 5500 1650
Wire Wire Line
	5500 2200 5500 2250
Wire Wire Line
	6500 2450 6200 2450
Wire Wire Line
	6200 2450 6200 1800
Wire Wire Line
	6200 1800 5500 1800
Wire Wire Line
	6500 2550 6100 2550
Wire Wire Line
	6100 2550 6100 2250
Wire Wire Line
	6100 2250 5500 2250
Wire Wire Line
	5500 2650 5500 2850
Wire Wire Line
	5200 2450 5150 2450
$Comp
L DIODE D1
U 1 1 564E25EB
P 5450 6600
F 0 "D1" H 5450 6700 40  0000 C CNN
F 1 "DIODE" H 5450 6500 40  0000 C CNN
F 2 "~" H 5450 6600 60  0000 C CNN
F 3 "~" H 5450 6600 60  0000 C CNN
	1    5450 6600
	0    -1   -1   0   
$EndComp
$Comp
L NPN Q1
U 1 1 564E25F1
P 5350 7050
F 0 "Q1" H 5350 6900 50  0000 R CNN
F 1 "NPN" H 5350 7200 50  0000 R CNN
F 2 "~" H 5350 7050 60  0000 C CNN
F 3 "~" H 5350 7050 60  0000 C CNN
	1    5350 7050
	1    0    0    -1  
$EndComp
$Comp
L R R1
U 1 1 564E25F7
P 4850 7050
F 0 "R1" V 4930 7050 40  0000 C CNN
F 1 "R" V 4857 7051 40  0000 C CNN
F 2 "~" V 4780 7050 30  0000 C CNN
F 3 "~" H 4850 7050 30  0000 C CNN
	1    4850 7050
	0    -1   -1   0   
$EndComp
$Comp
L RELAY_2RT K1
U 1 1 564E25FD
P 6850 6800
F 0 "K1" H 6800 7200 70  0000 C CNN
F 1 "RELAY_2RT" H 7000 6300 70  0000 C CNN
F 2 "~" H 6850 6800 60  0000 C CNN
F 3 "~" H 6850 6800 60  0000 C CNN
	1    6850 6800
	1    0    0    -1  
$EndComp
$Comp
L VCC #PWR07
U 1 1 564E2603
P 5450 6250
F 0 "#PWR07" H 5450 6350 30  0001 C CNN
F 1 "VCC" H 5450 6350 30  0000 C CNN
F 2 "" H 5450 6250 60  0000 C CNN
F 3 "" H 5450 6250 60  0000 C CNN
	1    5450 6250
	1    0    0    -1  
$EndComp
$Comp
L GND #PWR08
U 1 1 564E2609
P 5450 7450
F 0 "#PWR08" H 5450 7450 30  0001 C CNN
F 1 "GND" H 5450 7380 30  0001 C CNN
F 2 "" H 5450 7450 60  0000 C CNN
F 3 "" H 5450 7450 60  0000 C CNN
	1    5450 7450
	1    0    0    -1  
$EndComp
Wire Wire Line
	5450 6400 5450 6250
Wire Wire Line
	5450 6800 5450 6850
Wire Wire Line
	6450 7050 6150 7050
Wire Wire Line
	6150 7050 6150 6400
Wire Wire Line
	6150 6400 5450 6400
Wire Wire Line
	6450 7150 6050 7150
Wire Wire Line
	6050 7150 6050 6850
Wire Wire Line
	6050 6850 5450 6850
Wire Wire Line
	5450 7250 5450 7450
Wire Wire Line
	5150 7050 5100 7050
Wire Wire Line
	4600 7050 4600 5500
Wire Wire Line
	4600 5500 4750 5500
Wire Wire Line
	4750 5500 4750 4250
Wire Wire Line
	4750 4250 4250 4250
Wire Wire Line
	4250 4150 4800 4150
Wire Wire Line
	4700 4050 4700 3950
Wire Wire Line
	4250 4050 4700 4050
Wire Wire Line
	4800 4150 4800 5400
Wire Wire Line
	4650 3950 4650 2450
Wire Wire Line
	4250 3950 4650 3950
NoConn ~ 7350 3350
NoConn ~ 7350 3550
NoConn ~ 6550 3450
NoConn ~ 7350 3650
NoConn ~ 6500 1950
NoConn ~ 7300 2050
NoConn ~ 7300 1850
NoConn ~ 7300 2150
NoConn ~ 6450 6550
NoConn ~ 7250 6650
NoConn ~ 7250 6450
NoConn ~ 7250 6750
NoConn ~ 7550 4800
NoConn ~ 7550 5000
NoConn ~ 6750 4900
NoConn ~ 7550 5100
Wire Wire Line
	6750 5200 6750 5050
Wire Wire Line
	6550 3600 6550 3750
Wire Wire Line
	6500 2250 6500 2100
$EndSCHEMATC
