<?xml version="1.0" standalone="no"?>
 <!DOCTYPE svg PUBLIC "-//W3C//DTD SVG 1.1//EN" 
 "http://www.w3.org/Graphics/SVG/1.1/DTD/svg11.dtd"> 
<svg xmlns="http://www.w3.org/2000/svg" version="1.1" 
    width="41.9989cm" height="29.7002cm" viewBox="0 0 165350 116930 ">
<title>SVG Picture created as Relay shield_-F.Mask.svg date 2015/12/15 12:54:18 </title>
  <desc>Picture generated by PCBNEW </desc>
<g style="fill:#000000; fill-opacity:1;stroke:#000000; stroke-opacity:1;
stroke-linecap:round; stroke-linejoin:round; "
 transform="translate(0 0) scale(1 1)">
</g>
<g style="fill:#000000; fill-opacity:0.0; 
stroke:#000000; stroke-width:-0.000393701; stroke-opacity:1; 
stroke-linecap:round; stroke-linejoin:round;">
</g>
<g style="fill:#000000; fill-opacity:0.0; 
stroke:#000000; stroke-width:39.3701; stroke-opacity:1; 
stroke-linecap:round; stroke-linejoin:round;">
</g>
<g style="fill:#000000; fill-opacity:0.0; 
stroke:#000000; stroke-width:59.0551; stroke-opacity:1; 
stroke-linecap:round; stroke-linejoin:round;">
<rect x="118106" y="99607.2" width="42519.7" height="12598.4" rx="0" />
</g>
<g style="fill:#000000; fill-opacity:0.0; 
stroke:#000000; stroke-width:39.3701; stroke-opacity:1; 
stroke-linecap:round; stroke-linejoin:round;">
</g>
<g style="fill:#000000; fill-opacity:0.0; 
stroke:#000000; stroke-width:59.0551; stroke-opacity:1; 
stroke-linecap:round; stroke-linejoin:round;">
<rect x="3937.01" y="3937.01" width="157476" height="109056" rx="0" />
</g>
<g style="fill:#000000; fill-opacity:0.0; 
stroke:#000000; stroke-width:39.3701; stroke-opacity:1; 
stroke-linecap:round; stroke-linejoin:round;">
</g>
<g style="fill:#000000; fill-opacity:0.0; 
stroke:#000000; stroke-width:59.0551; stroke-opacity:1; 
stroke-linecap:round; stroke-linejoin:round;">
<rect x="4724.41" y="4724.41" width="155901" height="107481" rx="0" />
</g>
<g style="fill:#000000; fill-opacity:0.0; 
stroke:#000000; stroke-width:39.3701; stroke-opacity:1; 
stroke-linecap:round; stroke-linejoin:round;">
</g>
<g style="fill:#000000; fill-opacity:0.0; 
stroke:#000000; stroke-width:59.0551; stroke-opacity:1; 
stroke-linecap:round; stroke-linejoin:round;">
<path d="M23622 4724
L23622 3937
" />
</g>
<g style="fill:#000000; fill-opacity:0.0; 
stroke:#000000; stroke-width:39.3701; stroke-opacity:1; 
stroke-linecap:round; stroke-linejoin:round;">
</g>
<g style="fill:#000000; fill-opacity:0.0; 
stroke:#000000; stroke-width:59.0551; stroke-opacity:1; 
stroke-linecap:round; stroke-linejoin:round;">
<path d="M43307 4724
L43307 3937
" />
</g>
<g style="fill:#000000; fill-opacity:0.0; 
stroke:#000000; stroke-width:39.3701; stroke-opacity:1; 
stroke-linecap:round; stroke-linejoin:round;">
</g>
<g style="fill:#000000; fill-opacity:0.0; 
stroke:#000000; stroke-width:59.0551; stroke-opacity:1; 
stroke-linecap:round; stroke-linejoin:round;">
<path d="M62992 4724
L62992 3937
" />
</g>
<g style="fill:#000000; fill-opacity:0.0; 
stroke:#000000; stroke-width:39.3701; stroke-opacity:1; 
stroke-linecap:round; stroke-linejoin:round;">
</g>
<g style="fill:#000000; fill-opacity:0.0; 
stroke:#000000; stroke-width:59.0551; stroke-opacity:1; 
stroke-linecap:round; stroke-linejoin:round;">
<path d="M82677 4724
L82677 3937
" />
</g>
<g style="fill:#000000; fill-opacity:0.0; 
stroke:#000000; stroke-width:39.3701; stroke-opacity:1; 
stroke-linecap:round; stroke-linejoin:round;">
</g>
<g style="fill:#000000; fill-opacity:0.0; 
stroke:#000000; stroke-width:59.0551; stroke-opacity:1; 
stroke-linecap:round; stroke-linejoin:round;">
<path d="M102362 4724
L102362 3937
" />
</g>
<g style="fill:#000000; fill-opacity:0.0; 
stroke:#000000; stroke-width:39.3701; stroke-opacity:1; 
stroke-linecap:round; stroke-linejoin:round;">
</g>
<g style="fill:#000000; fill-opacity:0.0; 
stroke:#000000; stroke-width:59.0551; stroke-opacity:1; 
stroke-linecap:round; stroke-linejoin:round;">
<path d="M122047 4724
L122047 3937
" />
</g>
<g style="fill:#000000; fill-opacity:0.0; 
stroke:#000000; stroke-width:39.3701; stroke-opacity:1; 
stroke-linecap:round; stroke-linejoin:round;">
</g>
<g style="fill:#000000; fill-opacity:0.0; 
stroke:#000000; stroke-width:59.0551; stroke-opacity:1; 
stroke-linecap:round; stroke-linejoin:round;">
<path d="M141732 4724
L141732 3937
" />
</g>
<g style="fill:#000000; fill-opacity:0.0; 
stroke:#000000; stroke-width:39.3701; stroke-opacity:1; 
stroke-linecap:round; stroke-linejoin:round;">
</g>
<g style="fill:#000000; fill-opacity:0.0; 
stroke:#000000; stroke-width:59.0551; stroke-opacity:1; 
stroke-linecap:round; stroke-linejoin:round;">
<path d="M14169 4562
L13877 4562
" />
<path d="M14023 4562
L14023 4050
L13974 4123
L13925 4172
L13877 4196
" />
</g>
<g style="fill:#000000; fill-opacity:0.0; 
stroke:#000000; stroke-width:39.3701; stroke-opacity:1; 
stroke-linecap:round; stroke-linejoin:round;">
</g>
<g style="fill:#000000; fill-opacity:0.0; 
stroke:#000000; stroke-width:59.0551; stroke-opacity:1; 
stroke-linecap:round; stroke-linejoin:round;">
<path d="M33562 4099
L33586 4074
L33635 4050
L33757 4050
L33805 4074
L33830 4099
L33854 4147
L33854 4196
L33830 4269
L33537 4562
L33854 4562
" />
</g>
<g style="fill:#000000; fill-opacity:0.0; 
stroke:#000000; stroke-width:39.3701; stroke-opacity:1; 
stroke-linecap:round; stroke-linejoin:round;">
</g>
<g style="fill:#000000; fill-opacity:0.0; 
stroke:#000000; stroke-width:59.0551; stroke-opacity:1; 
stroke-linecap:round; stroke-linejoin:round;">
<path d="M53222 4050
L53539 4050
L53368 4245
L53442 4245
L53490 4269
L53515 4294
L53539 4342
L53539 4464
L53515 4513
L53490 4537
L53442 4562
L53295 4562
L53247 4537
L53222 4513
" />
</g>
<g style="fill:#000000; fill-opacity:0.0; 
stroke:#000000; stroke-width:39.3701; stroke-opacity:1; 
stroke-linecap:round; stroke-linejoin:round;">
</g>
<g style="fill:#000000; fill-opacity:0.0; 
stroke:#000000; stroke-width:59.0551; stroke-opacity:1; 
stroke-linecap:round; stroke-linejoin:round;">
<path d="M73175 4221
L73175 4562
" />
<path d="M73053 4026
L72932 4391
L73248 4391
" />
</g>
<g style="fill:#000000; fill-opacity:0.0; 
stroke:#000000; stroke-width:39.3701; stroke-opacity:1; 
stroke-linecap:round; stroke-linejoin:round;">
</g>
<g style="fill:#000000; fill-opacity:0.0; 
stroke:#000000; stroke-width:59.0551; stroke-opacity:1; 
stroke-linecap:round; stroke-linejoin:round;">
<path d="M92885 4050
L92641 4050
L92617 4294
L92641 4269
L92690 4245
L92812 4245
L92860 4269
L92885 4294
L92909 4342
L92909 4464
L92885 4513
L92860 4537
L92812 4562
L92690 4562
L92641 4537
L92617 4513
" />
</g>
<g style="fill:#000000; fill-opacity:0.0; 
stroke:#000000; stroke-width:39.3701; stroke-opacity:1; 
stroke-linecap:round; stroke-linejoin:round;">
</g>
<g style="fill:#000000; fill-opacity:0.0; 
stroke:#000000; stroke-width:59.0551; stroke-opacity:1; 
stroke-linecap:round; stroke-linejoin:round;">
<path d="M112545 4050
L112448 4050
L112399 4074
L112375 4099
L112326 4172
L112302 4269
L112302 4464
L112326 4513
L112350 4537
L112399 4562
L112497 4562
L112545 4537
L112570 4513
L112594 4464
L112594 4342
L112570 4294
L112545 4269
L112497 4245
L112399 4245
L112350 4269
L112326 4294
L112302 4342
" />
</g>
<g style="fill:#000000; fill-opacity:0.0; 
stroke:#000000; stroke-width:39.3701; stroke-opacity:1; 
stroke-linecap:round; stroke-linejoin:round;">
</g>
<g style="fill:#000000; fill-opacity:0.0; 
stroke:#000000; stroke-width:59.0551; stroke-opacity:1; 
stroke-linecap:round; stroke-linejoin:round;">
<path d="M131962 4050
L132304 4050
L132084 4562
" />
</g>
<g style="fill:#000000; fill-opacity:0.0; 
stroke:#000000; stroke-width:39.3701; stroke-opacity:1; 
stroke-linecap:round; stroke-linejoin:round;">
</g>
<g style="fill:#000000; fill-opacity:0.0; 
stroke:#000000; stroke-width:59.0551; stroke-opacity:1; 
stroke-linecap:round; stroke-linejoin:round;">
<path d="M151769 4269
L151721 4245
L151696 4221
L151672 4172
L151672 4147
L151696 4099
L151721 4074
L151769 4050
L151867 4050
L151916 4074
L151940 4099
L151964 4147
L151964 4172
L151940 4221
L151916 4245
L151867 4269
L151769 4269
L151721 4294
L151696 4318
L151672 4367
L151672 4464
L151696 4513
L151721 4537
L151769 4562
L151867 4562
L151916 4537
L151940 4513
L151964 4464
L151964 4367
L151940 4318
L151916 4294
L151867 4269
" />
</g>
<g style="fill:#000000; fill-opacity:0.0; 
stroke:#000000; stroke-width:39.3701; stroke-opacity:1; 
stroke-linecap:round; stroke-linejoin:round;">
</g>
<g style="fill:#000000; fill-opacity:0.0; 
stroke:#000000; stroke-width:59.0551; stroke-opacity:1; 
stroke-linecap:round; stroke-linejoin:round;">
<path d="M23622 112205
L23622 112992
" />
</g>
<g style="fill:#000000; fill-opacity:0.0; 
stroke:#000000; stroke-width:39.3701; stroke-opacity:1; 
stroke-linecap:round; stroke-linejoin:round;">
</g>
<g style="fill:#000000; fill-opacity:0.0; 
stroke:#000000; stroke-width:59.0551; stroke-opacity:1; 
stroke-linecap:round; stroke-linejoin:round;">
<path d="M43307 112205
L43307 112992
" />
</g>
<g style="fill:#000000; fill-opacity:0.0; 
stroke:#000000; stroke-width:39.3701; stroke-opacity:1; 
stroke-linecap:round; stroke-linejoin:round;">
</g>
<g style="fill:#000000; fill-opacity:0.0; 
stroke:#000000; stroke-width:59.0551; stroke-opacity:1; 
stroke-linecap:round; stroke-linejoin:round;">
<path d="M62992 112205
L62992 112992
" />
</g>
<g style="fill:#000000; fill-opacity:0.0; 
stroke:#000000; stroke-width:39.3701; stroke-opacity:1; 
stroke-linecap:round; stroke-linejoin:round;">
</g>
<g style="fill:#000000; fill-opacity:0.0; 
stroke:#000000; stroke-width:59.0551; stroke-opacity:1; 
stroke-linecap:round; stroke-linejoin:round;">
<path d="M82677 112205
L82677 112992
" />
</g>
<g style="fill:#000000; fill-opacity:0.0; 
stroke:#000000; stroke-width:39.3701; stroke-opacity:1; 
stroke-linecap:round; stroke-linejoin:round;">
</g>
<g style="fill:#000000; fill-opacity:0.0; 
stroke:#000000; stroke-width:59.0551; stroke-opacity:1; 
stroke-linecap:round; stroke-linejoin:round;">
<path d="M102362 112205
L102362 112992
" />
</g>
<g style="fill:#000000; fill-opacity:0.0; 
stroke:#000000; stroke-width:39.3701; stroke-opacity:1; 
stroke-linecap:round; stroke-linejoin:round;">
</g>
<g style="fill:#000000; fill-opacity:0.0; 
stroke:#000000; stroke-width:59.0551; stroke-opacity:1; 
stroke-linecap:round; stroke-linejoin:round;">
<path d="M122047 112205
L122047 112992
" />
</g>
<g style="fill:#000000; fill-opacity:0.0; 
stroke:#000000; stroke-width:39.3701; stroke-opacity:1; 
stroke-linecap:round; stroke-linejoin:round;">
</g>
<g style="fill:#000000; fill-opacity:0.0; 
stroke:#000000; stroke-width:59.0551; stroke-opacity:1; 
stroke-linecap:round; stroke-linejoin:round;">
<path d="M141732 112205
L141732 112992
" />
</g>
<g style="fill:#000000; fill-opacity:0.0; 
stroke:#000000; stroke-width:39.3701; stroke-opacity:1; 
stroke-linecap:round; stroke-linejoin:round;">
</g>
<g style="fill:#000000; fill-opacity:0.0; 
stroke:#000000; stroke-width:59.0551; stroke-opacity:1; 
stroke-linecap:round; stroke-linejoin:round;">
<path d="M14169 112830
L13877 112830
" />
<path d="M14023 112830
L14023 112319
L13974 112392
L13925 112440
L13877 112465
" />
</g>
<g style="fill:#000000; fill-opacity:0.0; 
stroke:#000000; stroke-width:39.3701; stroke-opacity:1; 
stroke-linecap:round; stroke-linejoin:round;">
</g>
<g style="fill:#000000; fill-opacity:0.0; 
stroke:#000000; stroke-width:59.0551; stroke-opacity:1; 
stroke-linecap:round; stroke-linejoin:round;">
<path d="M33562 112367
L33586 112343
L33635 112319
L33757 112319
L33805 112343
L33830 112367
L33854 112416
L33854 112465
L33830 112538
L33537 112830
L33854 112830
" />
</g>
<g style="fill:#000000; fill-opacity:0.0; 
stroke:#000000; stroke-width:39.3701; stroke-opacity:1; 
stroke-linecap:round; stroke-linejoin:round;">
</g>
<g style="fill:#000000; fill-opacity:0.0; 
stroke:#000000; stroke-width:59.0551; stroke-opacity:1; 
stroke-linecap:round; stroke-linejoin:round;">
<path d="M53222 112319
L53539 112319
L53368 112513
L53442 112513
L53490 112538
L53515 112562
L53539 112611
L53539 112733
L53515 112782
L53490 112806
L53442 112830
L53295 112830
L53247 112806
L53222 112782
" />
</g>
<g style="fill:#000000; fill-opacity:0.0; 
stroke:#000000; stroke-width:39.3701; stroke-opacity:1; 
stroke-linecap:round; stroke-linejoin:round;">
</g>
<g style="fill:#000000; fill-opacity:0.0; 
stroke:#000000; stroke-width:59.0551; stroke-opacity:1; 
stroke-linecap:round; stroke-linejoin:round;">
<path d="M73175 112489
L73175 112830
" />
<path d="M73053 112294
L72932 112660
L73248 112660
" />
</g>
<g style="fill:#000000; fill-opacity:0.0; 
stroke:#000000; stroke-width:39.3701; stroke-opacity:1; 
stroke-linecap:round; stroke-linejoin:round;">
</g>
<g style="fill:#000000; fill-opacity:0.0; 
stroke:#000000; stroke-width:59.0551; stroke-opacity:1; 
stroke-linecap:round; stroke-linejoin:round;">
<path d="M92885 112319
L92641 112319
L92617 112562
L92641 112538
L92690 112513
L92812 112513
L92860 112538
L92885 112562
L92909 112611
L92909 112733
L92885 112782
L92860 112806
L92812 112830
L92690 112830
L92641 112806
L92617 112782
" />
</g>
<g style="fill:#000000; fill-opacity:0.0; 
stroke:#000000; stroke-width:39.3701; stroke-opacity:1; 
stroke-linecap:round; stroke-linejoin:round;">
</g>
<g style="fill:#000000; fill-opacity:0.0; 
stroke:#000000; stroke-width:59.0551; stroke-opacity:1; 
stroke-linecap:round; stroke-linejoin:round;">
<path d="M112545 112319
L112448 112319
L112399 112343
L112375 112367
L112326 112440
L112302 112538
L112302 112733
L112326 112782
L112350 112806
L112399 112830
L112497 112830
L112545 112806
L112570 112782
L112594 112733
L112594 112611
L112570 112562
L112545 112538
L112497 112513
L112399 112513
L112350 112538
L112326 112562
L112302 112611
" />
</g>
<g style="fill:#000000; fill-opacity:0.0; 
stroke:#000000; stroke-width:39.3701; stroke-opacity:1; 
stroke-linecap:round; stroke-linejoin:round;">
</g>
<g style="fill:#000000; fill-opacity:0.0; 
stroke:#000000; stroke-width:59.0551; stroke-opacity:1; 
stroke-linecap:round; stroke-linejoin:round;">
<path d="M131962 112319
L132304 112319
L132084 112830
" />
</g>
<g style="fill:#000000; fill-opacity:0.0; 
stroke:#000000; stroke-width:39.3701; stroke-opacity:1; 
stroke-linecap:round; stroke-linejoin:round;">
</g>
<g style="fill:#000000; fill-opacity:0.0; 
stroke:#000000; stroke-width:59.0551; stroke-opacity:1; 
stroke-linecap:round; stroke-linejoin:round;">
<path d="M151769 112538
L151721 112513
L151696 112489
L151672 112440
L151672 112416
L151696 112367
L151721 112343
L151769 112319
L151867 112319
L151916 112343
L151940 112367
L151964 112416
L151964 112440
L151940 112489
L151916 112513
L151867 112538
L151769 112538
L151721 112562
L151696 112587
L151672 112635
L151672 112733
L151696 112782
L151721 112806
L151769 112830
L151867 112830
L151916 112806
L151940 112782
L151964 112733
L151964 112635
L151940 112587
L151916 112562
L151867 112538
" />
</g>
<g style="fill:#000000; fill-opacity:0.0; 
stroke:#000000; stroke-width:39.3701; stroke-opacity:1; 
stroke-linecap:round; stroke-linejoin:round;">
</g>
<g style="fill:#000000; fill-opacity:0.0; 
stroke:#000000; stroke-width:59.0551; stroke-opacity:1; 
stroke-linecap:round; stroke-linejoin:round;">
<path d="M3937 23622
L4724 23622
" />
</g>
<g style="fill:#000000; fill-opacity:0.0; 
stroke:#000000; stroke-width:39.3701; stroke-opacity:1; 
stroke-linecap:round; stroke-linejoin:round;">
</g>
<g style="fill:#000000; fill-opacity:0.0; 
stroke:#000000; stroke-width:59.0551; stroke-opacity:1; 
stroke-linecap:round; stroke-linejoin:round;">
<path d="M3937 43307
L4724 43307
" />
</g>
<g style="fill:#000000; fill-opacity:0.0; 
stroke:#000000; stroke-width:39.3701; stroke-opacity:1; 
stroke-linecap:round; stroke-linejoin:round;">
</g>
<g style="fill:#000000; fill-opacity:0.0; 
stroke:#000000; stroke-width:59.0551; stroke-opacity:1; 
stroke-linecap:round; stroke-linejoin:round;">
<path d="M3937 62992
L4724 62992
" />
</g>
<g style="fill:#000000; fill-opacity:0.0; 
stroke:#000000; stroke-width:39.3701; stroke-opacity:1; 
stroke-linecap:round; stroke-linejoin:round;">
</g>
<g style="fill:#000000; fill-opacity:0.0; 
stroke:#000000; stroke-width:59.0551; stroke-opacity:1; 
stroke-linecap:round; stroke-linejoin:round;">
<path d="M3937 82677
L4724 82677
" />
</g>
<g style="fill:#000000; fill-opacity:0.0; 
stroke:#000000; stroke-width:39.3701; stroke-opacity:1; 
stroke-linecap:round; stroke-linejoin:round;">
</g>
<g style="fill:#000000; fill-opacity:0.0; 
stroke:#000000; stroke-width:59.0551; stroke-opacity:1; 
stroke-linecap:round; stroke-linejoin:round;">
<path d="M3937 102362
L4724 102362
" />
</g>
<g style="fill:#000000; fill-opacity:0.0; 
stroke:#000000; stroke-width:39.3701; stroke-opacity:1; 
stroke-linecap:round; stroke-linejoin:round;">
</g>
<g style="fill:#000000; fill-opacity:0.0; 
stroke:#000000; stroke-width:59.0551; stroke-opacity:1; 
stroke-linecap:round; stroke-linejoin:round;">
<path d="M4208 13864
L4452 13864
" />
<path d="M4160 14011
L4330 13499
L4501 14011
" />
</g>
<g style="fill:#000000; fill-opacity:0.0; 
stroke:#000000; stroke-width:39.3701; stroke-opacity:1; 
stroke-linecap:round; stroke-linejoin:round;">
</g>
<g style="fill:#000000; fill-opacity:0.0; 
stroke:#000000; stroke-width:59.0551; stroke-opacity:1; 
stroke-linecap:round; stroke-linejoin:round;">
<path d="M4367 33428
L4440 33452
L4464 33476
L4489 33525
L4489 33598
L4464 33647
L4440 33671
L4391 33696
L4196 33696
L4196 33184
L4367 33184
L4416 33208
L4440 33233
L4464 33281
L4464 33330
L4440 33379
L4416 33403
L4367 33428
L4196 33428
" />
</g>
<g style="fill:#000000; fill-opacity:0.0; 
stroke:#000000; stroke-width:39.3701; stroke-opacity:1; 
stroke-linecap:round; stroke-linejoin:round;">
</g>
<g style="fill:#000000; fill-opacity:0.0; 
stroke:#000000; stroke-width:59.0551; stroke-opacity:1; 
stroke-linecap:round; stroke-linejoin:round;">
<path d="M4489 53332
L4464 53356
L4391 53381
L4342 53381
L4269 53356
L4221 53308
L4196 53259
L4172 53161
L4172 53088
L4196 52991
L4221 52942
L4269 52893
L4342 52869
L4391 52869
L4464 52893
L4489 52918
" />
</g>
<g style="fill:#000000; fill-opacity:0.0; 
stroke:#000000; stroke-width:39.3701; stroke-opacity:1; 
stroke-linecap:round; stroke-linejoin:round;">
</g>
<g style="fill:#000000; fill-opacity:0.0; 
stroke:#000000; stroke-width:59.0551; stroke-opacity:1; 
stroke-linecap:round; stroke-linejoin:round;">
<path d="M4196 73066
L4196 72554
L4318 72554
L4391 72578
L4440 72627
L4464 72676
L4489 72773
L4489 72846
L4464 72944
L4440 72993
L4391 73041
L4318 73066
L4196 73066
" />
</g>
<g style="fill:#000000; fill-opacity:0.0; 
stroke:#000000; stroke-width:39.3701; stroke-opacity:1; 
stroke-linecap:round; stroke-linejoin:round;">
</g>
<g style="fill:#000000; fill-opacity:0.0; 
stroke:#000000; stroke-width:59.0551; stroke-opacity:1; 
stroke-linecap:round; stroke-linejoin:round;">
<path d="M4221 92483
L4391 92483
" />
<path d="M4464 92751
L4221 92751
L4221 92239
L4464 92239
" />
</g>
<g style="fill:#000000; fill-opacity:0.0; 
stroke:#000000; stroke-width:39.3701; stroke-opacity:1; 
stroke-linecap:round; stroke-linejoin:round;">
</g>
<g style="fill:#000000; fill-opacity:0.0; 
stroke:#000000; stroke-width:59.0551; stroke-opacity:1; 
stroke-linecap:round; stroke-linejoin:round;">
<path d="M4403 112168
L4233 112168
" />
<path d="M4233 112436
L4233 111924
L4476 111924
" />
</g>
<g style="fill:#000000; fill-opacity:0.0; 
stroke:#000000; stroke-width:39.3701; stroke-opacity:1; 
stroke-linecap:round; stroke-linejoin:round;">
</g>
<g style="fill:#000000; fill-opacity:0.0; 
stroke:#000000; stroke-width:59.0551; stroke-opacity:1; 
stroke-linecap:round; stroke-linejoin:round;">
<path d="M161412 23622
L160625 23622
" />
</g>
<g style="fill:#000000; fill-opacity:0.0; 
stroke:#000000; stroke-width:39.3701; stroke-opacity:1; 
stroke-linecap:round; stroke-linejoin:round;">
</g>
<g style="fill:#000000; fill-opacity:0.0; 
stroke:#000000; stroke-width:59.0551; stroke-opacity:1; 
stroke-linecap:round; stroke-linejoin:round;">
<path d="M161412 43307
L160625 43307
" />
</g>
<g style="fill:#000000; fill-opacity:0.0; 
stroke:#000000; stroke-width:39.3701; stroke-opacity:1; 
stroke-linecap:round; stroke-linejoin:round;">
</g>
<g style="fill:#000000; fill-opacity:0.0; 
stroke:#000000; stroke-width:59.0551; stroke-opacity:1; 
stroke-linecap:round; stroke-linejoin:round;">
<path d="M161412 62992
L160625 62992
" />
</g>
<g style="fill:#000000; fill-opacity:0.0; 
stroke:#000000; stroke-width:39.3701; stroke-opacity:1; 
stroke-linecap:round; stroke-linejoin:round;">
</g>
<g style="fill:#000000; fill-opacity:0.0; 
stroke:#000000; stroke-width:59.0551; stroke-opacity:1; 
stroke-linecap:round; stroke-linejoin:round;">
<path d="M161412 82677
L160625 82677
" />
</g>
<g style="fill:#000000; fill-opacity:0.0; 
stroke:#000000; stroke-width:39.3701; stroke-opacity:1; 
stroke-linecap:round; stroke-linejoin:round;">
</g>
<g style="fill:#000000; fill-opacity:0.0; 
stroke:#000000; stroke-width:59.0551; stroke-opacity:1; 
stroke-linecap:round; stroke-linejoin:round;">
<path d="M161412 102362
L160625 102362
" />
</g>
<g style="fill:#000000; fill-opacity:0.0; 
stroke:#000000; stroke-width:39.3701; stroke-opacity:1; 
stroke-linecap:round; stroke-linejoin:round;">
</g>
<g style="fill:#000000; fill-opacity:0.0; 
stroke:#000000; stroke-width:59.0551; stroke-opacity:1; 
stroke-linecap:round; stroke-linejoin:round;">
<path d="M160897 13864
L161141 13864
" />
<path d="M160848 14011
L161019 13499
L161189 14011
" />
</g>
<g style="fill:#000000; fill-opacity:0.0; 
stroke:#000000; stroke-width:39.3701; stroke-opacity:1; 
stroke-linecap:round; stroke-linejoin:round;">
</g>
<g style="fill:#000000; fill-opacity:0.0; 
stroke:#000000; stroke-width:59.0551; stroke-opacity:1; 
stroke-linecap:round; stroke-linejoin:round;">
<path d="M161055 33428
L161128 33452
L161153 33476
L161177 33525
L161177 33598
L161153 33647
L161128 33671
L161080 33696
L160885 33696
L160885 33184
L161055 33184
L161104 33208
L161128 33233
L161153 33281
L161153 33330
L161128 33379
L161104 33403
L161055 33428
L160885 33428
" />
</g>
<g style="fill:#000000; fill-opacity:0.0; 
stroke:#000000; stroke-width:39.3701; stroke-opacity:1; 
stroke-linecap:round; stroke-linejoin:round;">
</g>
<g style="fill:#000000; fill-opacity:0.0; 
stroke:#000000; stroke-width:59.0551; stroke-opacity:1; 
stroke-linecap:round; stroke-linejoin:round;">
<path d="M161177 53332
L161153 53356
L161080 53381
L161031 53381
L160958 53356
L160909 53308
L160885 53259
L160860 53161
L160860 53088
L160885 52991
L160909 52942
L160958 52893
L161031 52869
L161080 52869
L161153 52893
L161177 52918
" />
</g>
<g style="fill:#000000; fill-opacity:0.0; 
stroke:#000000; stroke-width:39.3701; stroke-opacity:1; 
stroke-linecap:round; stroke-linejoin:round;">
</g>
<g style="fill:#000000; fill-opacity:0.0; 
stroke:#000000; stroke-width:59.0551; stroke-opacity:1; 
stroke-linecap:round; stroke-linejoin:round;">
<path d="M160885 73066
L160885 72554
L161007 72554
L161080 72578
L161128 72627
L161153 72676
L161177 72773
L161177 72846
L161153 72944
L161128 72993
L161080 73041
L161007 73066
L160885 73066
" />
</g>
<g style="fill:#000000; fill-opacity:0.0; 
stroke:#000000; stroke-width:39.3701; stroke-opacity:1; 
stroke-linecap:round; stroke-linejoin:round;">
</g>
<g style="fill:#000000; fill-opacity:0.0; 
stroke:#000000; stroke-width:59.0551; stroke-opacity:1; 
stroke-linecap:round; stroke-linejoin:round;">
<path d="M160909 92483
L161080 92483
" />
<path d="M161153 92751
L160909 92751
L160909 92239
L161153 92239
" />
</g>
<g style="fill:#000000; fill-opacity:0.0; 
stroke:#000000; stroke-width:39.3701; stroke-opacity:1; 
stroke-linecap:round; stroke-linejoin:round;">
</g>
<g style="fill:#000000; fill-opacity:0.0; 
stroke:#000000; stroke-width:59.0551; stroke-opacity:1; 
stroke-linecap:round; stroke-linejoin:round;">
<path d="M161092 112168
L160921 112168
" />
<path d="M160921 112436
L160921 111924
L161165 111924
" />
</g>
<g style="fill:#000000; fill-opacity:0.0; 
stroke:#000000; stroke-width:39.3701; stroke-opacity:1; 
stroke-linecap:round; stroke-linejoin:round;">
</g>
<g style="fill:#000000; fill-opacity:0.0; 
stroke:#000000; stroke-width:59.0551; stroke-opacity:1; 
stroke-linecap:round; stroke-linejoin:round;">
<path d="M127301 110543
L127301 109953
L127442 109953
L127526 109981
L127582 110037
L127610 110093
L127639 110206
L127639 110290
L127610 110403
L127582 110459
L127526 110515
L127442 110543
L127301 110543
" />
<path d="M128145 110543
L128145 110234
L128117 110178
L128060 110149
L127948 110149
L127892 110178
" />
<path d="M128145 110515
L128089 110543
L127948 110543
L127892 110515
L127864 110459
L127864 110403
L127892 110346
L127948 110318
L128089 110318
L128145 110290
" />
<path d="M128342 110149
L128567 110149
" />
<path d="M128426 109953
L128426 110459
L128454 110515
L128510 110543
L128567 110543
" />
<path d="M128988 110515
L128932 110543
L128820 110543
L128763 110515
L128735 110459
L128735 110234
L128763 110178
L128820 110149
L128932 110149
L128988 110178
L129017 110234
L129017 110290
L128735 110346
" />
<path d="M129270 110487
L129298 110515
L129270 110543
L129242 110515
L129270 110487
L129270 110543
" />
<path d="M129270 110178
L129298 110206
L129270 110234
L129242 110206
L129270 110178
L129270 110234
" />
</g>
<g style="fill:#000000; fill-opacity:0.0; 
stroke:#000000; stroke-width:39.3701; stroke-opacity:1; 
stroke-linecap:round; stroke-linejoin:round;">
</g>
<g style="fill:#000000; fill-opacity:0.0; 
stroke:#000000; stroke-width:59.0551; stroke-opacity:1; 
stroke-linecap:round; stroke-linejoin:round;">
<path d="M118105 110827
L160625 110827
" />
</g>
<g style="fill:#000000; fill-opacity:0.0; 
stroke:#000000; stroke-width:39.3701; stroke-opacity:1; 
stroke-linecap:round; stroke-linejoin:round;">
</g>
<g style="fill:#000000; fill-opacity:0.0; 
stroke:#000000; stroke-width:59.0551; stroke-opacity:1; 
stroke-linecap:round; stroke-linejoin:round;">
<path d="M118640 111645
L118640 111055
" />
<path d="M118977 111645
L118724 111308
" />
<path d="M118977 111055
L118640 111392
" />
<path d="M119230 111645
L119230 111252
" />
<path d="M119230 111055
L119202 111083
L119230 111111
L119258 111083
L119230 111055
L119230 111111
" />
<path d="M119849 111589
L119821 111617
L119736 111645
L119680 111645
L119596 111617
L119540 111561
L119511 111505
L119483 111392
L119483 111308
L119511 111196
L119540 111139
L119596 111083
L119680 111055
L119736 111055
L119821 111083
L119849 111111
" />
<path d="M120355 111645
L120355 111336
L120327 111280
L120271 111252
L120158 111252
L120102 111280
" />
<path d="M120355 111617
L120299 111645
L120158 111645
L120102 111617
L120074 111561
L120074 111505
L120102 111449
L120158 111421
L120299 111421
L120355 111392
" />
<path d="M120889 111645
L120889 111055
" />
<path d="M120889 111617
L120833 111645
L120721 111645
L120664 111617
L120636 111589
L120608 111533
L120608 111364
L120636 111308
L120664 111280
L120721 111252
L120833 111252
L120889 111280
" />
<path d="M121621 111336
L121817 111336
" />
<path d="M121902 111645
L121621 111645
L121621 111055
L121902 111055
" />
<path d="M122155 111589
L122183 111617
L122155 111645
L122127 111617
L122155 111589
L122155 111645
" />
<path d="M122436 111645
L122436 111055
L122577 111055
L122661 111083
L122717 111139
L122745 111196
L122774 111308
L122774 111392
L122745 111505
L122717 111561
L122661 111617
L122577 111645
L122436 111645
" />
<path d="M123027 111589
L123055 111617
L123027 111645
L122999 111617
L123027 111589
L123027 111645
" />
<path d="M123280 111477
L123561 111477
" />
<path d="M123224 111645
L123420 111055
L123617 111645
" />
<path d="M123814 111589
L123842 111617
L123814 111645
L123786 111617
L123814 111589
L123814 111645
" />
<path d="M124995 111252
L124995 111842
" />
<path d="M124995 111280
L125051 111252
L125164 111252
L125220 111280
L125248 111308
L125276 111364
L125276 111533
L125248 111589
L125220 111617
L125164 111645
L125051 111645
L124995 111617
" />
<path d="M125783 111617
L125726 111645
L125614 111645
L125558 111617
L125529 111589
L125501 111533
L125501 111364
L125529 111308
L125558 111280
L125614 111252
L125726 111252
L125783 111280
" />
<path d="M126036 111645
L126036 111055
" />
<path d="M126036 111280
L126092 111252
L126204 111252
L126261 111280
L126289 111308
L126317 111364
L126317 111533
L126289 111589
L126261 111617
L126204 111645
L126092 111645
L126036 111617
" />
<path d="M126570 111252
L126570 111645
" />
<path d="M126570 111308
L126598 111280
L126654 111252
L126739 111252
L126795 111280
L126823 111336
L126823 111645
" />
<path d="M127329 111617
L127273 111645
L127161 111645
L127104 111617
L127076 111561
L127076 111336
L127104 111280
L127161 111252
L127273 111252
L127329 111280
L127357 111336
L127357 111392
L127076 111449
" />
<path d="M127554 111252
L127667 111645
L127779 111364
L127892 111645
L128004 111252
" />
<path d="M128932 111252
L128932 111645
" />
<path d="M128792 111027
L128651 111449
L129017 111449
" />
<path d="M129242 111589
L129270 111617
L129242 111645
L129213 111617
L129242 111589
L129242 111645
" />
<path d="M129635 111055
L129691 111055
L129748 111083
L129776 111111
L129804 111167
L129832 111280
L129832 111421
L129804 111533
L129776 111589
L129748 111617
L129691 111645
L129635 111645
L129579 111617
L129551 111589
L129523 111533
L129495 111421
L129495 111280
L129523 111167
L129551 111111
L129579 111083
L129635 111055
" />
<path d="M130085 111589
L130113 111617
L130085 111645
L130057 111617
L130085 111589
L130085 111645
" />
<path d="M130676 111645
L130338 111645
" />
<path d="M130507 111645
L130507 111055
L130451 111139
L130394 111196
L130338 111224
" />
<path d="M130929 111421
L131379 111421
" />
<path d="M131604 111055
L131969 111055
L131772 111280
L131857 111280
L131913 111308
L131941 111336
L131969 111392
L131969 111533
L131941 111589
L131913 111617
L131857 111645
L131688 111645
L131632 111617
L131604 111589
" />
<path d="M132222 111589
L132251 111617
L132222 111645
L132194 111617
L132222 111589
L132222 111645
" />
<path d="M132475 111111
L132504 111083
L132560 111055
L132700 111055
L132757 111083
L132785 111111
L132813 111167
L132813 111224
L132785 111308
L132447 111645
L132813 111645
" />
<path d="M133179 111055
L133235 111055
L133291 111083
L133319 111111
L133347 111167
L133375 111280
L133375 111421
L133347 111533
L133319 111589
L133291 111617
L133235 111645
L133179 111645
L133122 111617
L133094 111589
L133066 111533
L133038 111421
L133038 111280
L133066 111167
L133094 111111
L133122 111083
L133179 111055
" />
<path d="M133938 111645
L133600 111645
" />
<path d="M133769 111645
L133769 111055
L133713 111139
L133657 111196
L133600 111224
" />
<path d="M134472 111055
L134191 111055
L134163 111336
L134191 111308
L134247 111280
L134388 111280
L134444 111308
L134472 111336
L134500 111392
L134500 111533
L134472 111589
L134444 111617
L134388 111645
L134247 111645
L134191 111617
L134163 111589
" />
<path d="M135063 111645
L134725 111645
" />
<path d="M134894 111645
L134894 111055
L134838 111139
L134781 111196
L134725 111224
" />
<path d="M135288 111111
L135316 111083
L135372 111055
L135513 111055
L135569 111083
L135597 111111
L135625 111167
L135625 111224
L135597 111308
L135260 111645
L135625 111645
" />
<path d="M136188 111645
L135850 111645
" />
<path d="M136019 111645
L136019 111055
L135963 111139
L135906 111196
L135850 111224
" />
<path d="M136722 111055
L136441 111055
L136412 111336
L136441 111308
L136497 111280
L136637 111280
L136694 111308
L136722 111336
L136750 111392
L136750 111533
L136722 111589
L136694 111617
L136637 111645
L136497 111645
L136441 111617
L136412 111589
" />
<path d="M137116 111055
L137172 111055
L137228 111083
L137256 111111
L137284 111167
L137312 111280
L137312 111421
L137284 111533
L137256 111589
L137228 111617
L137172 111645
L137116 111645
L137059 111617
L137031 111589
L137003 111533
L136975 111421
L136975 111280
L137003 111167
L137031 111111
L137059 111083
L137116 111055
" />
<path d="M137594 111645
L137706 111645
L137762 111617
L137790 111589
L137847 111505
L137875 111392
L137875 111167
L137847 111111
L137819 111083
L137762 111055
L137650 111055
L137594 111083
L137565 111111
L137537 111167
L137537 111308
L137565 111364
L137594 111392
L137650 111421
L137762 111421
L137819 111392
L137847 111364
L137875 111308
" />
<path d="M138072 111055
L138437 111055
L138240 111280
L138325 111280
L138381 111308
L138409 111336
L138437 111392
L138437 111533
L138409 111589
L138381 111617
L138325 111645
L138156 111645
L138100 111617
L138072 111589
" />
<path d="M139000 111645
L138662 111645
" />
<path d="M138831 111645
L138831 111055
L138775 111139
L138718 111196
L138662 111224
" />
<path d="M139253 111421
L139703 111421
" />
<path d="M139478 111645
L139478 111196
" />
<path d="M140237 111055
L140125 111055
L140068 111083
L140040 111111
L139984 111196
L139956 111308
L139956 111533
L139984 111589
L140012 111617
L140068 111645
L140181 111645
L140237 111617
L140265 111589
L140293 111533
L140293 111392
L140265 111336
L140237 111308
L140181 111280
L140068 111280
L140012 111308
L139984 111336
L139956 111392
" />
<path d="M140856 111645
L140518 111645
" />
<path d="M140687 111645
L140687 111055
L140631 111139
L140574 111196
L140518 111224
" />
<path d="M141137 111645
L141249 111645
L141306 111617
L141334 111589
L141390 111505
L141418 111392
L141418 111167
L141390 111111
L141362 111083
L141306 111055
L141193 111055
L141137 111083
L141109 111111
L141081 111167
L141081 111308
L141109 111364
L141137 111392
L141193 111421
L141306 111421
L141362 111392
L141390 111364
L141418 111308
" />
<path d="M141952 111055
L141671 111055
L141643 111336
L141671 111308
L141727 111280
L141868 111280
L141924 111308
L141952 111336
L141981 111392
L141981 111533
L141952 111589
L141924 111617
L141868 111645
L141727 111645
L141671 111617
L141643 111589
" />
<path d="M142177 111055
L142543 111055
L142346 111280
L142430 111280
L142487 111308
L142515 111336
L142543 111392
L142543 111533
L142515 111589
L142487 111617
L142430 111645
L142262 111645
L142206 111617
L142177 111589
" />
<path d="M142880 111308
L142824 111280
L142796 111252
L142768 111196
L142768 111167
L142796 111111
L142824 111083
L142880 111055
L142993 111055
L143049 111083
L143077 111111
L143105 111167
L143105 111196
L143077 111252
L143049 111280
L142993 111308
L142880 111308
L142824 111336
L142796 111364
L142768 111421
L142768 111533
L142796 111589
L142824 111617
L142880 111645
L142993 111645
L143049 111617
L143077 111589
L143105 111533
L143105 111421
L143077 111364
L143049 111336
L142993 111308
" />
<path d="M142093 110953
L143218 110953
" />
<path d="M143612 111252
L143612 111645
" />
<path d="M143358 111252
L143358 111561
L143387 111617
L143443 111645
L143527 111645
L143583 111617
L143612 111589
" />
<path d="M143893 111645
L143893 111055
" />
<path d="M143893 111280
L143949 111252
L144062 111252
L144118 111280
L144146 111308
L144174 111364
L144174 111533
L144146 111589
L144118 111617
L144062 111645
L143949 111645
L143893 111617
" />
<path d="M144680 111252
L144680 111645
" />
<path d="M144427 111252
L144427 111561
L144455 111617
L144511 111645
L144596 111645
L144652 111617
L144680 111589
" />
<path d="M144961 111252
L144961 111645
" />
<path d="M144961 111308
L144990 111280
L145046 111252
L145130 111252
L145186 111280
L145215 111336
L145215 111645
" />
<path d="M145411 111252
L145636 111252
" />
<path d="M145496 111055
L145496 111561
L145524 111617
L145580 111645
L145636 111645
" />
<path d="M146086 111252
L146086 111645
" />
<path d="M145833 111252
L145833 111561
L145861 111617
L145918 111645
L146002 111645
L146058 111617
L146086 111589
" />
<path d="M146677 111645
L146339 111645
" />
<path d="M146508 111645
L146508 111055
L146452 111139
L146396 111196
L146339 111224
" />
<path d="M147183 111252
L147183 111645
" />
<path d="M147042 111027
L146902 111449
L147267 111449
" />
<path d="M147492 111589
L147520 111617
L147492 111645
L147464 111617
L147492 111589
L147492 111645
" />
<path d="M147886 111055
L147942 111055
L147999 111083
L148027 111111
L148055 111167
L148083 111280
L148083 111421
L148055 111533
L148027 111589
L147999 111617
L147942 111645
L147886 111645
L147830 111617
L147802 111589
L147774 111533
L147745 111421
L147745 111280
L147774 111167
L147802 111111
L147830 111083
L147886 111055
" />
<path d="M148589 111252
L148589 111645
" />
<path d="M148448 111027
L148308 111449
L148673 111449
" />
<path d="M148898 111589
L148927 111617
L148898 111645
L148870 111617
L148898 111589
L148898 111645
" />
<path d="M149489 111645
L149152 111645
" />
<path d="M149320 111645
L149320 111055
L149264 111139
L149208 111196
L149152 111224
" />
<path d="M149742 111421
L150192 111421
" />
<path d="M150445 111617
L150501 111645
L150614 111645
L150670 111617
L150698 111561
L150698 111533
L150670 111477
L150614 111449
L150529 111449
L150473 111421
L150445 111364
L150445 111336
L150473 111280
L150529 111252
L150614 111252
L150670 111280
" />
<path d="M150867 111252
L151092 111252
" />
<path d="M150951 111055
L150951 111561
L150979 111617
L151036 111645
L151092 111645
" />
<path d="M151542 111645
L151542 111336
L151514 111280
L151457 111252
L151345 111252
L151289 111280
" />
<path d="M151542 111617
L151486 111645
L151345 111645
L151289 111617
L151261 111561
L151261 111505
L151289 111449
L151345 111421
L151486 111421
L151542 111392
" />
<path d="M151823 111645
L151823 111055
" />
<path d="M151823 111280
L151879 111252
L151992 111252
L152048 111280
L152076 111308
L152104 111364
L152104 111533
L152076 111589
L152048 111617
L151992 111645
L151879 111645
L151823 111617
" />
<path d="M152442 111645
L152385 111617
L152357 111561
L152357 111055
" />
<path d="M152892 111617
L152835 111645
L152723 111645
L152667 111617
L152639 111561
L152639 111336
L152667 111280
L152723 111252
L152835 111252
L152892 111280
L152920 111336
L152920 111392
L152639 111449
" />
</g>
<g style="fill:#000000; fill-opacity:0.0; 
stroke:#000000; stroke-width:39.3701; stroke-opacity:1; 
stroke-linecap:round; stroke-linejoin:round;">
</g>
<g style="fill:#000000; fill-opacity:0.0; 
stroke:#000000; stroke-width:59.0551; stroke-opacity:1; 
stroke-linecap:round; stroke-linejoin:round;">
<path d="M118105 109646
L160625 109646
" />
</g>
<g style="fill:#000000; fill-opacity:0.0; 
stroke:#000000; stroke-width:39.3701; stroke-opacity:1; 
stroke-linecap:round; stroke-linejoin:round;">
</g>
<g style="fill:#000000; fill-opacity:0.0; 
stroke:#000000; stroke-width:118.11; stroke-opacity:1; 
stroke-linecap:round; stroke-linejoin:round;">
<path d="M152442 110543
L152245 110262
" />
<path d="M152104 110543
L152104 109953
L152329 109953
L152385 109981
L152414 110009
L152442 110065
L152442 110149
L152414 110206
L152385 110234
L152329 110262
L152104 110262
" />
<path d="M152920 110515
L152864 110543
L152751 110543
L152695 110515
L152667 110459
L152667 110234
L152695 110178
L152751 110149
L152864 110149
L152920 110178
L152948 110234
L152948 110290
L152667 110346
" />
<path d="M153145 110149
L153285 110543
L153426 110149
" />
<path d="M153651 110487
L153679 110515
L153651 110543
L153623 110515
L153651 110487
L153651 110543
" />
<path d="M153651 110178
L153679 110206
L153651 110234
L153623 110206
L153651 110178
L153651 110234
" />
</g>
<g style="fill:#000000; fill-opacity:0.0; 
stroke:#000000; stroke-width:39.3701; stroke-opacity:1; 
stroke-linecap:round; stroke-linejoin:round;">
</g>
<g style="fill:#000000; fill-opacity:0.0; 
stroke:#000000; stroke-width:59.0551; stroke-opacity:1; 
stroke-linecap:round; stroke-linejoin:round;">
<path d="M118612 110515
L118696 110543
L118837 110543
L118893 110515
L118921 110487
L118949 110431
L118949 110374
L118921 110318
L118893 110290
L118837 110262
L118724 110234
L118668 110206
L118640 110178
L118612 110121
L118612 110065
L118640 110009
L118668 109981
L118724 109953
L118865 109953
L118949 109981
" />
<path d="M119202 110543
L119202 110149
" />
<path d="M119202 109953
L119174 109981
L119202 110009
L119230 109981
L119202 109953
L119202 110009
" />
<path d="M119427 110149
L119736 110149
L119427 110543
L119736 110543
" />
<path d="M120186 110515
L120130 110543
L120018 110543
L119961 110515
L119933 110459
L119933 110234
L119961 110178
L120018 110149
L120130 110149
L120186 110178
L120215 110234
L120215 110290
L119933 110346
" />
<path d="M120468 110487
L120496 110515
L120468 110543
L120439 110515
L120468 110487
L120468 110543
" />
<path d="M120468 110178
L120496 110206
L120468 110234
L120439 110206
L120468 110178
L120468 110234
" />
<path d="M121171 110374
L121452 110374
" />
<path d="M121114 110543
L121311 109953
L121508 110543
" />
<path d="M121649 109953
L122014 109953
L121817 110178
L121902 110178
L121958 110206
L121986 110234
L122014 110290
L122014 110431
L121986 110487
L121958 110515
L121902 110543
L121733 110543
L121677 110515
L121649 110487
" />
</g>
<g style="fill:#000000; fill-opacity:0.0; 
stroke:#000000; stroke-width:39.3701; stroke-opacity:1; 
stroke-linecap:round; stroke-linejoin:round;">
</g>
<g style="fill:#000000; fill-opacity:0.0; 
stroke:#000000; stroke-width:59.0551; stroke-opacity:1; 
stroke-linecap:round; stroke-linejoin:round;">
<path d="M152104 111645
L152104 111055
" />
<path d="M152639 111645
L152639 111055
" />
<path d="M152639 111617
L152582 111645
L152470 111645
L152414 111617
L152385 111589
L152357 111533
L152357 111364
L152385 111308
L152414 111280
L152470 111252
L152582 111252
L152639 111280
" />
<path d="M152920 111589
L152948 111617
L152920 111645
L152892 111617
L152920 111589
L152920 111645
" />
<path d="M152920 111280
L152948 111308
L152920 111336
L152892 111308
L152920 111280
L152920 111336
" />
<path d="M153960 111645
L153623 111645
" />
<path d="M153792 111645
L153792 111055
L153735 111139
L153679 111196
L153623 111224
" />
<path d="M154635 111027
L154129 111786
" />
<path d="M155141 111645
L154804 111645
" />
<path d="M154973 111645
L154973 111055
L154916 111139
L154860 111196
L154804 111224
" />
</g>
<g style="fill:#000000; fill-opacity:0.0; 
stroke:#000000; stroke-width:39.3701; stroke-opacity:1; 
stroke-linecap:round; stroke-linejoin:round;">
</g>
<g style="fill:#000000; fill-opacity:0.0; 
stroke:#000000; stroke-width:59.0551; stroke-opacity:1; 
stroke-linecap:round; stroke-linejoin:round;">
<path d="M118105 108071
L160625 108071
" />
</g>
<g style="fill:#000000; fill-opacity:0.0; 
stroke:#000000; stroke-width:39.3701; stroke-opacity:1; 
stroke-linecap:round; stroke-linejoin:round;">
</g>
<g style="fill:#000000; fill-opacity:0.0; 
stroke:#000000; stroke-width:157.48; stroke-opacity:1; 
stroke-linecap:round; stroke-linejoin:round;">
<path d="M118677 108349
L119127 108349
" />
<path d="M118804 109136
L118902 108349
" />
<path d="M119291 109136
L119357 108611
" />
<path d="M119390 108349
L119347 108386
L119380 108424
L119422 108386
L119390 108349
L119380 108424
" />
<path d="M119619 108611
L119919 108611
" />
<path d="M119765 108349
L119680 109024
L119708 109099
L119779 109136
L119854 109136
" />
<path d="M120229 109136
L120158 109099
L120130 109024
L120215 108349
" />
<path d="M120833 109099
L120754 109136
L120604 109136
L120533 109099
L120505 109024
L120543 108724
L120589 108649
L120669 108611
L120819 108611
L120889 108649
L120918 108724
L120908 108799
L120524 108874
" />
<path d="M121213 109061
L121246 109099
L121203 109136
L121171 109099
L121213 109061
L121203 109136
" />
<path d="M121264 108649
L121297 108686
L121255 108724
L121222 108686
L121264 108649
L121255 108724
" />
</g>
<g style="fill:#000000; fill-opacity:0.0; 
stroke:#000000; stroke-width:39.3701; stroke-opacity:1; 
stroke-linecap:round; stroke-linejoin:round;">
</g>
<g style="fill:#000000; fill-opacity:0.0; 
stroke:#000000; stroke-width:59.0551; stroke-opacity:1; 
stroke-linecap:round; stroke-linejoin:round;">
<path d="M118837 107320
L118640 107320
" />
<path d="M118640 107630
L118640 107039
L118921 107039
" />
<path d="M119146 107630
L119146 107236
" />
<path d="M119146 107039
L119118 107067
L119146 107095
L119174 107067
L119146 107039
L119146 107095
" />
<path d="M119511 107630
L119455 107602
L119427 107545
L119427 107039
" />
<path d="M119961 107602
L119905 107630
L119793 107630
L119736 107602
L119708 107545
L119708 107320
L119736 107264
L119793 107236
L119905 107236
L119961 107264
L119990 107320
L119990 107377
L119708 107433
" />
<path d="M120243 107573
L120271 107602
L120243 107630
L120215 107602
L120243 107573
L120243 107630
" />
<path d="M120243 107264
L120271 107292
L120243 107320
L120215 107292
L120243 107264
L120243 107320
" />
<path d="M121311 107630
L121114 107349
" />
<path d="M120974 107630
L120974 107039
L121199 107039
L121255 107067
L121283 107095
L121311 107152
L121311 107236
L121283 107292
L121255 107320
L121199 107349
L120974 107349
" />
<path d="M121789 107602
L121733 107630
L121621 107630
L121564 107602
L121536 107545
L121536 107320
L121564 107264
L121621 107236
L121733 107236
L121789 107264
L121817 107320
L121817 107377
L121536 107433
" />
<path d="M122155 107630
L122099 107602
L122071 107545
L122071 107039
" />
<path d="M122633 107630
L122633 107320
L122605 107264
L122549 107236
L122436 107236
L122380 107264
" />
<path d="M122633 107602
L122577 107630
L122436 107630
L122380 107602
L122352 107545
L122352 107489
L122380 107433
L122436 107405
L122577 107405
L122633 107377
" />
<path d="M122858 107236
L122999 107630
" />
<path d="M123139 107236
L122999 107630
L122942 107770
L122914 107798
L122858 107827
" />
<path d="M123786 107602
L123842 107630
L123955 107630
L124011 107602
L124039 107545
L124039 107517
L124011 107461
L123955 107433
L123870 107433
L123814 107405
L123786 107349
L123786 107320
L123814 107264
L123870 107236
L123955 107236
L124011 107264
" />
<path d="M124292 107630
L124292 107039
" />
<path d="M124545 107630
L124545 107320
L124517 107264
L124461 107236
L124376 107236
L124320 107264
L124292 107292
" />
<path d="M124826 107630
L124826 107236
" />
<path d="M124826 107039
L124798 107067
L124826 107095
L124855 107067
L124826 107039
L124826 107095
" />
<path d="M125333 107602
L125276 107630
L125164 107630
L125108 107602
L125080 107545
L125080 107320
L125108 107264
L125164 107236
L125276 107236
L125333 107264
L125361 107320
L125361 107377
L125080 107433
" />
<path d="M125698 107630
L125642 107602
L125614 107545
L125614 107039
" />
<path d="M126176 107630
L126176 107039
" />
<path d="M126176 107602
L126120 107630
L126008 107630
L125951 107602
L125923 107573
L125895 107517
L125895 107349
L125923 107292
L125951 107264
L126008 107236
L126120 107236
L126176 107264
" />
<path d="M126317 107686
L126767 107686
" />
<path d="M126907 107573
L126936 107602
L126907 107630
L126879 107602
L126907 107573
L126907 107630
" />
<path d="M127189 107630
L127189 107039
" />
<path d="M127245 107405
L127414 107630
" />
<path d="M127414 107236
L127189 107461
" />
<path d="M127667 107630
L127667 107236
" />
<path d="M127667 107039
L127639 107067
L127667 107095
L127695 107067
L127667 107039
L127667 107095
" />
<path d="M128201 107602
L128145 107630
L128032 107630
L127976 107602
L127948 107573
L127920 107517
L127920 107349
L127948 107292
L127976 107264
L128032 107236
L128145 107236
L128201 107264
" />
<path d="M128707 107630
L128707 107320
L128679 107264
L128623 107236
L128510 107236
L128454 107264
" />
<path d="M128707 107602
L128651 107630
L128510 107630
L128454 107602
L128426 107545
L128426 107489
L128454 107433
L128510 107405
L128651 107405
L128707 107377
" />
<path d="M129242 107630
L129242 107039
" />
<path d="M129242 107602
L129185 107630
L129073 107630
L129017 107602
L128988 107573
L128960 107517
L128960 107349
L128988 107292
L129017 107264
L129073 107236
L129185 107236
L129242 107264
" />
<path d="M129382 107686
L129832 107686
" />
<path d="M129973 107236
L129973 107827
" />
<path d="M129973 107264
L130029 107236
L130141 107236
L130198 107264
L130226 107292
L130254 107349
L130254 107517
L130226 107573
L130198 107602
L130141 107630
L130029 107630
L129973 107602
" />
<path d="M130760 107602
L130704 107630
L130591 107630
L130535 107602
L130507 107573
L130479 107517
L130479 107349
L130507 107292
L130535 107264
L130591 107236
L130704 107236
L130760 107264
" />
<path d="M131013 107630
L131013 107039
" />
<path d="M131013 107264
L131069 107236
L131182 107236
L131238 107264
L131266 107292
L131294 107349
L131294 107517
L131266 107573
L131238 107602
L131182 107630
L131069 107630
L131013 107602
" />
</g>
<g style="fill:#000000; fill-opacity:0.0; 
stroke:#000000; stroke-width:39.3701; stroke-opacity:1; 
stroke-linecap:round; stroke-linejoin:round;">
</g>
<g style="fill:#000000; fill-opacity:0.0; 
stroke:#000000; stroke-width:59.0551; stroke-opacity:1; 
stroke-linecap:round; stroke-linejoin:round;">
<path d="M118105 105709
L160625 105709
" />
</g>
<g style="fill:#000000; fill-opacity:0.0; 
stroke:#000000; stroke-width:39.3701; stroke-opacity:1; 
stroke-linecap:round; stroke-linejoin:round;">
</g>
<g style="fill:#000000; fill-opacity:0.0; 
stroke:#000000; stroke-width:59.0551; stroke-opacity:1; 
stroke-linecap:round; stroke-linejoin:round;">
<path d="M118612 106539
L118696 106567
L118837 106567
L118893 106539
L118921 106510
L118949 106454
L118949 106398
L118921 106342
L118893 106314
L118837 106286
L118724 106257
L118668 106229
L118640 106201
L118612 106145
L118612 106089
L118640 106032
L118668 106004
L118724 105976
L118865 105976
L118949 106004
" />
<path d="M119202 106567
L119202 105976
" />
<path d="M119455 106567
L119455 106257
L119427 106201
L119371 106173
L119287 106173
L119230 106201
L119202 106229
" />
<path d="M119961 106539
L119905 106567
L119793 106567
L119736 106539
L119708 106482
L119708 106257
L119736 106201
L119793 106173
L119905 106173
L119961 106201
L119990 106257
L119990 106314
L119708 106370
" />
<path d="M120468 106539
L120411 106567
L120299 106567
L120243 106539
L120215 106482
L120215 106257
L120243 106201
L120299 106173
L120411 106173
L120468 106201
L120496 106257
L120496 106314
L120215 106370
" />
<path d="M120664 106173
L120889 106173
" />
<path d="M120749 105976
L120749 106482
L120777 106539
L120833 106567
L120889 106567
" />
<path d="M121086 106510
L121114 106539
L121086 106567
L121058 106539
L121086 106510
L121086 106567
" />
<path d="M121086 106201
L121114 106229
L121086 106257
L121058 106229
L121086 106201
L121086 106257
" />
</g>
<g style="fill:#000000; fill-opacity:0.0; 
stroke:#000000; stroke-width:39.3701; stroke-opacity:1; 
stroke-linecap:round; stroke-linejoin:round;">
</g>
<g style="fill:#000000; fill-opacity:0.0; 
stroke:#000000; stroke-width:59.0551; stroke-opacity:1; 
stroke-linecap:round; stroke-linejoin:round;">
<path d="M125979 109646
L125979 110827
" />
</g>
<g style="fill:#000000; fill-opacity:0.0; 
stroke:#000000; stroke-width:39.3701; stroke-opacity:1; 
stroke-linecap:round; stroke-linejoin:round;">
</g>
<g style="fill:#000000; fill-opacity:0.0; 
stroke:#000000; stroke-width:59.0551; stroke-opacity:1; 
stroke-linecap:round; stroke-linejoin:round;">
<path d="M151176 109646
L151176 112205
" />
</g>
<g style="fill:#C2C200; fill-opacity:0.0; 
stroke:#C2C200; stroke-width:59.0551; stroke-opacity:1; 
stroke-linecap:round; stroke-linejoin:round;">
<path d="M69750 48000
L69750 27000
" />
<path d="M101250 48000
L69750 48000
" />
<path d="M102250 47000
L101250 48000
" />
<path d="M102250 27500
L102250 47000
" />
<path d="M101750 27000
L102250 27500
" />
<path d="M69750 27000
L101750 27000
" />
</g>
<g style="fill:#840000; fill-opacity:0.0; 
stroke:#840000; stroke-width:59.0551; stroke-opacity:1; 
stroke-linecap:round; stroke-linejoin:round;">
</g>
<g style="fill:#840000; fill-opacity:0.0; 
stroke:#840000; stroke-width:354; stroke-opacity:1; 
stroke-linecap:round; stroke-linejoin:round;">
<path d="M81618 41350
L81381 41350
" />
<path d="M81618 40850
L81381 40850
" />
<path d="M81618 41850
L81381 41850
" />
</g>
<g style="fill:#840000; fill-opacity:0.0; 
stroke:#840000; stroke-width:600; stroke-opacity:1; 
stroke-linecap:round; stroke-linejoin:round;">
<path d="M94250 47200
L94250 46800
" />
<path d="M93250 47200
L93250 46800
" />
<path d="M92250 47200
L92250 46800
" />
<path d="M89250 47200
L89250 46800
" />
<path d="M90250 47200
L90250 46800
" />
<path d="M91250 47200
L91250 46800
" />
<path d="M87250 47200
L87250 46800
" />
<path d="M86250 47200
L86250 46800
" />
<path d="M85250 47200
L85250 46800
" />
<path d="M83250 47200
L83250 46800
" />
<path d="M82250 47200
L82250 46800
" />
<path d="M94250 28200
L94250 27800
" />
<path d="M93250 28200
L93250 27800
" />
<path d="M92250 28200
L92250 27800
" />
<path d="M91250 28200
L91250 27800
" />
<path d="M90250 28200
L90250 27800
" />
<path d="M89250 28200
L89250 27800
" />
<path d="M88250 28200
L88250 27800
" />
<path d="M87250 28200
L87250 27800
" />
<path d="M85650 28200
L85650 27800
" />
<path d="M84650 28200
L84650 27800
" />
<path d="M83650 28200
L83650 27800
" />
<path d="M82650 28200
L82650 27800
" />
<path d="M81650 28200
L81650 27800
" />
<path d="M80650 28200
L80650 27800
" />
<path d="M79650 28200
L79650 27800
" />
<path d="M78650 28200
L78650 27800
" />
<path d="M84250 47200
L84250 46800
" />
</g>
<g style="fill:#840000; fill-opacity:0.0; 
stroke:#840000; stroke-width:354; stroke-opacity:1; 
stroke-linecap:round; stroke-linejoin:round;">
<path d="M94381 40450
L94618 40450
" />
<path d="M94381 40950
L94618 40950
" />
<path d="M94381 39950
L94618 39950
" />
</g>
<g style="fill:#840000; fill-opacity:0.0; 
stroke:#840000; stroke-width:0; stroke-opacity:1; 
stroke-linecap:round; stroke-linejoin:round;">
</g>
<g style="fill:#840000; fill-opacity:1.0; 
stroke:#840000; stroke-width:0; stroke-opacity:1; 
stroke-linecap:round; stroke-linejoin:round;">
<polyline style="fill-rule:evenodd;"
points="79464,38615
80133,38615
80133,39284
79464,39284
79464,38615
" /> 
<polyline style="fill-rule:evenodd;"
points="79464,42615
80133,42615
80133,43284
79464,43284
79464,42615
" /> 
<polyline style="fill-rule:evenodd;"
points="92464,31065
93133,31065
93133,31734
92464,31734
92464,31065
" /> 
<polyline style="fill-rule:evenodd;"
points="92464,35065
93133,35065
93133,35734
92464,35734
92464,35065
" /> 
<polyline style="fill-rule:evenodd;"
points="70500,46750
70500,45750
71500,45750
71500,46750
70500,46750
" /> 
<polyline style="fill-rule:evenodd;"
points="72500,46750
72500,45750
73500,45750
73500,46750
72500,46750
" /> 
<polyline style="fill-rule:evenodd;"
points="74750,46750
74750,45750
75750,45750
75750,46750
74750,46750
" /> 
<polyline style="fill-rule:evenodd;"
points="76750,46750
76750,45750
77750,45750
77750,46750
76750,46750
" /> 
<polyline style="fill-rule:evenodd;"
points="73500,28200
73500,29200
72500,29200
72500,28200
73500,28200
" /> 
<polyline style="fill-rule:evenodd;"
points="71500,28200
71500,29200
70500,29200
70500,28200
71500,28200
" /> 
<polyline style="fill-rule:evenodd;"
points="77600,28200
77600,29200
76600,29200
76600,28200
77600,28200
" /> 
<polyline style="fill-rule:evenodd;"
points="75600,28200
75600,29200
74600,29200
74600,28200
75600,28200
" /> 
<polyline style="fill-rule:evenodd;"
points="100600,30700
99600,30700
99600,29700
100600,29700
100600,30700
" /> 
<polyline style="fill-rule:evenodd;"
points="100600,28700
99600,28700
99600,27700
100600,27700
100600,28700
" /> 
<polyline style="fill-rule:evenodd;"
points="100600,34900
99600,34900
99600,33900
100600,33900
100600,34900
" /> 
<polyline style="fill-rule:evenodd;"
points="100600,32900
99600,32900
99600,31900
100600,31900
100600,32900
" /> 
<polyline style="fill-rule:evenodd;"
points="100600,39100
99600,39100
99600,38100
100600,38100
100600,39100
" /> 
<polyline style="fill-rule:evenodd;"
points="100600,37100
99600,37100
99600,36100
100600,36100
100600,37100
" /> 
<polyline style="fill-rule:evenodd;"
points="100600,43300
99600,43300
99600,42300
100600,42300
100600,43300
" /> 
<polyline style="fill-rule:evenodd;"
points="100600,41300
99600,41300
99600,40300
100600,40300
100600,41300
" /> 
<circle cx="96500" cy="41200" r="393.5" /> 
</g>
<g style="fill:#840000; fill-opacity:1.0; 
stroke:#840000; stroke-width:39.3701; stroke-opacity:1; 
stroke-linecap:round; stroke-linejoin:round;">
</g>
<g style="fill:#840000; fill-opacity:1.0; 
stroke:#840000; stroke-width:0; stroke-opacity:1; 
stroke-linecap:round; stroke-linejoin:round;">
<circle cx="96500" cy="37200" r="393.5" /> 
</g>
<g style="fill:#840000; fill-opacity:1.0; 
stroke:#840000; stroke-width:39.3701; stroke-opacity:1; 
stroke-linecap:round; stroke-linejoin:round;">
</g>
<g style="fill:#840000; fill-opacity:1.0; 
stroke:#840000; stroke-width:0; stroke-opacity:1; 
stroke-linecap:round; stroke-linejoin:round;">
<circle cx="96000" cy="34750" r="393.5" /> 
</g>
<g style="fill:#840000; fill-opacity:1.0; 
stroke:#840000; stroke-width:39.3701; stroke-opacity:1; 
stroke-linecap:round; stroke-linejoin:round;">
</g>
<g style="fill:#840000; fill-opacity:1.0; 
stroke:#840000; stroke-width:0; stroke-opacity:1; 
stroke-linecap:round; stroke-linejoin:round;">
<circle cx="96000" cy="30750" r="393.5" /> 
</g>
<g style="fill:#840000; fill-opacity:1.0; 
stroke:#840000; stroke-width:39.3701; stroke-opacity:1; 
stroke-linecap:round; stroke-linejoin:round;">
</g>
<g style="fill:#840000; fill-opacity:1.0; 
stroke:#840000; stroke-width:0; stroke-opacity:1; 
stroke-linecap:round; stroke-linejoin:round;">
<circle cx="80700" cy="36800" r="393.5" /> 
</g>
<g style="fill:#840000; fill-opacity:1.0; 
stroke:#840000; stroke-width:39.3701; stroke-opacity:1; 
stroke-linecap:round; stroke-linejoin:round;">
</g>
<g style="fill:#840000; fill-opacity:1.0; 
stroke:#840000; stroke-width:0; stroke-opacity:1; 
stroke-linecap:round; stroke-linejoin:round;">
<circle cx="84700" cy="36800" r="393.5" /> 
</g>
<g style="fill:#840000; fill-opacity:1.0; 
stroke:#840000; stroke-width:39.3701; stroke-opacity:1; 
stroke-linecap:round; stroke-linejoin:round;">
</g>
<g style="fill:#840000; fill-opacity:1.0; 
stroke:#840000; stroke-width:0; stroke-opacity:1; 
stroke-linecap:round; stroke-linejoin:round;">
<circle cx="80700" cy="37800" r="393.5" /> 
</g>
<g style="fill:#840000; fill-opacity:1.0; 
stroke:#840000; stroke-width:39.3701; stroke-opacity:1; 
stroke-linecap:round; stroke-linejoin:round;">
</g>
<g style="fill:#840000; fill-opacity:1.0; 
stroke:#840000; stroke-width:0; stroke-opacity:1; 
stroke-linecap:round; stroke-linejoin:round;">
<circle cx="84700" cy="37800" r="393.5" /> 
</g>
<g style="fill:#840000; fill-opacity:1.0; 
stroke:#840000; stroke-width:39.3701; stroke-opacity:1; 
stroke-linecap:round; stroke-linejoin:round;">
</g>
<g style="fill:#840000; fill-opacity:1.0; 
stroke:#840000; stroke-width:0; stroke-opacity:1; 
stroke-linecap:round; stroke-linejoin:round;">
<polyline style="fill-rule:evenodd;"
points="92564,38565
93233,38565
93233,39234
92564,39234
92564,38565
" /> 
<polyline style="fill-rule:evenodd;"
points="92564,42565
93233,42565
93233,43234
92564,43234
92564,42565
" /> 
<polyline style="fill-rule:evenodd;"
points="97500,46500
97500,45500
98500,45500
98500,46500
97500,46500
" /> 
<polyline style="fill-rule:evenodd;"
points="99500,46500
99500,45500
100500,45500
100500,46500
99500,46500
" /> 
<polyline style="fill-rule:evenodd;"
points="78714,32415
79383,32415
79383,33084
78714,33084
78714,32415
" /> 
<polyline style="fill-rule:evenodd;"
points="78714,36415
79383,36415
79383,37084
78714,37084
78714,36415
" /> 
</g>
<g style="fill:#840000; fill-opacity:1.0; 
stroke:#840000; stroke-width:354; stroke-opacity:1; 
stroke-linecap:round; stroke-linejoin:round;">
</g>
<g style="fill:#840000; fill-opacity:0.0; 
stroke:#840000; stroke-width:354; stroke-opacity:1; 
stroke-linecap:round; stroke-linejoin:round;">
<path d="M81068 33900
L80831 33900
" />
<path d="M81068 33400
L80831 33400
" />
<path d="M81068 34400
L80831 34400
" />
<path d="M94618 32900
L94381 32900
" />
<path d="M94618 32400
L94381 32400
" />
<path d="M94618 33400
L94381 33400
" />
</g>
<g style="fill:#840000; fill-opacity:1.0; 
stroke:#840000; stroke-width:0; stroke-opacity:1; 
stroke-linecap:round; stroke-linejoin:round;">
<circle cx="76732.3" cy="38518.1" r="590.551" /> 
</g>
<g style="fill:#840000; fill-opacity:1.0; 
stroke:#840000; stroke-width:39.3701; stroke-opacity:1; 
stroke-linecap:round; stroke-linejoin:round;">
</g>
<g style="fill:#840000; fill-opacity:1.0; 
stroke:#840000; stroke-width:0; stroke-opacity:1; 
stroke-linecap:round; stroke-linejoin:round;">
<circle cx="71929.1" cy="38518.1" r="590.551" /> 
</g>
<g style="fill:#840000; fill-opacity:1.0; 
stroke:#840000; stroke-width:39.3701; stroke-opacity:1; 
stroke-linecap:round; stroke-linejoin:round;">
</g>
<g style="fill:#840000; fill-opacity:1.0; 
stroke:#840000; stroke-width:0; stroke-opacity:1; 
stroke-linecap:round; stroke-linejoin:round;">
<circle cx="71909.4" cy="43262.2" r="590.551" /> 
</g>
<g style="fill:#840000; fill-opacity:1.0; 
stroke:#840000; stroke-width:39.3701; stroke-opacity:1; 
stroke-linecap:round; stroke-linejoin:round;">
</g>
<g style="fill:#840000; fill-opacity:1.0; 
stroke:#840000; stroke-width:0; stroke-opacity:1; 
stroke-linecap:round; stroke-linejoin:round;">
<circle cx="76732.3" cy="43242.5" r="590.551" /> 
</g>
<g style="fill:#840000; fill-opacity:1.0; 
stroke:#840000; stroke-width:39.3701; stroke-opacity:1; 
stroke-linecap:round; stroke-linejoin:round;">
</g>
<g style="fill:#840000; fill-opacity:1.0; 
stroke:#840000; stroke-width:0; stroke-opacity:1; 
stroke-linecap:round; stroke-linejoin:round;">
<circle cx="77500" cy="40900" r="590.551" /> 
</g>
<g style="fill:#840000; fill-opacity:1.0; 
stroke:#840000; stroke-width:39.3701; stroke-opacity:1; 
stroke-linecap:round; stroke-linejoin:round;">
</g>
<g style="fill:#840000; fill-opacity:1.0; 
stroke:#840000; stroke-width:0; stroke-opacity:1; 
stroke-linecap:round; stroke-linejoin:round;">
<circle cx="76882.3" cy="31918.1" r="590.551" /> 
</g>
<g style="fill:#840000; fill-opacity:1.0; 
stroke:#840000; stroke-width:39.3701; stroke-opacity:1; 
stroke-linecap:round; stroke-linejoin:round;">
</g>
<g style="fill:#840000; fill-opacity:1.0; 
stroke:#840000; stroke-width:0; stroke-opacity:1; 
stroke-linecap:round; stroke-linejoin:round;">
<circle cx="72079.1" cy="31918.1" r="590.551" /> 
</g>
<g style="fill:#840000; fill-opacity:1.0; 
stroke:#840000; stroke-width:39.3701; stroke-opacity:1; 
stroke-linecap:round; stroke-linejoin:round;">
</g>
<g style="fill:#840000; fill-opacity:1.0; 
stroke:#840000; stroke-width:0; stroke-opacity:1; 
stroke-linecap:round; stroke-linejoin:round;">
<circle cx="72059.4" cy="36662.2" r="590.551" /> 
</g>
<g style="fill:#840000; fill-opacity:1.0; 
stroke:#840000; stroke-width:39.3701; stroke-opacity:1; 
stroke-linecap:round; stroke-linejoin:round;">
</g>
<g style="fill:#840000; fill-opacity:1.0; 
stroke:#840000; stroke-width:0; stroke-opacity:1; 
stroke-linecap:round; stroke-linejoin:round;">
<circle cx="76882.3" cy="36642.5" r="590.551" /> 
</g>
<g style="fill:#840000; fill-opacity:1.0; 
stroke:#840000; stroke-width:39.3701; stroke-opacity:1; 
stroke-linecap:round; stroke-linejoin:round;">
</g>
<g style="fill:#840000; fill-opacity:1.0; 
stroke:#840000; stroke-width:0; stroke-opacity:1; 
stroke-linecap:round; stroke-linejoin:round;">
<circle cx="77650" cy="34300" r="590.551" /> 
</g>
<g style="fill:#840000; fill-opacity:1.0; 
stroke:#840000; stroke-width:39.3701; stroke-opacity:1; 
stroke-linecap:round; stroke-linejoin:round;">
</g>
<g style="fill:#840000; fill-opacity:1.0; 
stroke:#840000; stroke-width:0; stroke-opacity:1; 
stroke-linecap:round; stroke-linejoin:round;">
<circle cx="89882.3" cy="30768.1" r="590.551" /> 
</g>
<g style="fill:#840000; fill-opacity:1.0; 
stroke:#840000; stroke-width:39.3701; stroke-opacity:1; 
stroke-linecap:round; stroke-linejoin:round;">
</g>
<g style="fill:#840000; fill-opacity:1.0; 
stroke:#840000; stroke-width:0; stroke-opacity:1; 
stroke-linecap:round; stroke-linejoin:round;">
<circle cx="85079.1" cy="30768.1" r="590.551" /> 
</g>
<g style="fill:#840000; fill-opacity:1.0; 
stroke:#840000; stroke-width:39.3701; stroke-opacity:1; 
stroke-linecap:round; stroke-linejoin:round;">
</g>
<g style="fill:#840000; fill-opacity:1.0; 
stroke:#840000; stroke-width:0; stroke-opacity:1; 
stroke-linecap:round; stroke-linejoin:round;">
<circle cx="85059.4" cy="35512.2" r="590.551" /> 
</g>
<g style="fill:#840000; fill-opacity:1.0; 
stroke:#840000; stroke-width:39.3701; stroke-opacity:1; 
stroke-linecap:round; stroke-linejoin:round;">
</g>
<g style="fill:#840000; fill-opacity:1.0; 
stroke:#840000; stroke-width:0; stroke-opacity:1; 
stroke-linecap:round; stroke-linejoin:round;">
<circle cx="89882.3" cy="35492.5" r="590.551" /> 
</g>
<g style="fill:#840000; fill-opacity:1.0; 
stroke:#840000; stroke-width:39.3701; stroke-opacity:1; 
stroke-linecap:round; stroke-linejoin:round;">
</g>
<g style="fill:#840000; fill-opacity:1.0; 
stroke:#840000; stroke-width:0; stroke-opacity:1; 
stroke-linecap:round; stroke-linejoin:round;">
<circle cx="90650" cy="33150" r="590.551" /> 
</g>
<g style="fill:#840000; fill-opacity:1.0; 
stroke:#840000; stroke-width:39.3701; stroke-opacity:1; 
stroke-linecap:round; stroke-linejoin:round;">
</g>
<g style="fill:#840000; fill-opacity:1.0; 
stroke:#840000; stroke-width:0; stroke-opacity:1; 
stroke-linecap:round; stroke-linejoin:round;">
<circle cx="89932.3" cy="39018.1" r="590.551" /> 
</g>
<g style="fill:#840000; fill-opacity:1.0; 
stroke:#840000; stroke-width:39.3701; stroke-opacity:1; 
stroke-linecap:round; stroke-linejoin:round;">
</g>
<g style="fill:#840000; fill-opacity:1.0; 
stroke:#840000; stroke-width:0; stroke-opacity:1; 
stroke-linecap:round; stroke-linejoin:round;">
<circle cx="85129.1" cy="39018.1" r="590.551" /> 
</g>
<g style="fill:#840000; fill-opacity:1.0; 
stroke:#840000; stroke-width:39.3701; stroke-opacity:1; 
stroke-linecap:round; stroke-linejoin:round;">
</g>
<g style="fill:#840000; fill-opacity:1.0; 
stroke:#840000; stroke-width:0; stroke-opacity:1; 
stroke-linecap:round; stroke-linejoin:round;">
<circle cx="85109.4" cy="43762.2" r="590.551" /> 
</g>
<g style="fill:#840000; fill-opacity:1.0; 
stroke:#840000; stroke-width:39.3701; stroke-opacity:1; 
stroke-linecap:round; stroke-linejoin:round;">
</g>
<g style="fill:#840000; fill-opacity:1.0; 
stroke:#840000; stroke-width:0; stroke-opacity:1; 
stroke-linecap:round; stroke-linejoin:round;">
<circle cx="89932.3" cy="43742.5" r="590.551" /> 
</g>
<g style="fill:#840000; fill-opacity:1.0; 
stroke:#840000; stroke-width:39.3701; stroke-opacity:1; 
stroke-linecap:round; stroke-linejoin:round;">
</g>
<g style="fill:#840000; fill-opacity:1.0; 
stroke:#840000; stroke-width:0; stroke-opacity:1; 
stroke-linecap:round; stroke-linejoin:round;">
<circle cx="90700" cy="41400" r="590.551" /> 
</g>
<g style="fill:#840000; fill-opacity:1.0; 
stroke:#840000; stroke-width:39.3701; stroke-opacity:1; 
stroke-linecap:round; stroke-linejoin:round;">
</g>
<g style="fill:#840000; fill-opacity:1.0; 
stroke:#840000; stroke-width:0; stroke-opacity:1; 
stroke-linecap:round; stroke-linejoin:round;">
<circle cx="81750" cy="31800" r="492" /> 
</g>
<g style="fill:#840000; fill-opacity:1.0; 
stroke:#840000; stroke-width:39.3701; stroke-opacity:1; 
stroke-linecap:round; stroke-linejoin:round;">
</g>
<g style="fill:#840000; fill-opacity:1.0; 
stroke:#840000; stroke-width:0; stroke-opacity:1; 
stroke-linecap:round; stroke-linejoin:round;">
<circle cx="91900" cy="34300" r="393.5" /> 
</g>
<g style="fill:#840000; fill-opacity:1.0; 
stroke:#840000; stroke-width:39.3701; stroke-opacity:1; 
stroke-linecap:round; stroke-linejoin:round;">
</g>
<g style="fill:#840000; fill-opacity:1.0; 
stroke:#840000; stroke-width:680; stroke-opacity:1; 
stroke-linecap:round; stroke-linejoin:round;">
</g>
<g style="fill:#840000; fill-opacity:0.0; 
stroke:#840000; stroke-width:680; stroke-opacity:1; 
stroke-linecap:round; stroke-linejoin:round;">
<path d="M78650 27940
L78650 28060
" />
<path d="M79650 27940
L79650 28060
" />
<path d="M80650 27940
L80650 28060
" />
<path d="M81650 27940
L81650 28060
" />
<path d="M82650 27940
L82650 28060
" />
<path d="M83650 27940
L83650 28060
" />
<path d="M84650 27940
L84650 28060
" />
<path d="M85650 27940
L85650 28060
" />
<path d="M87250 27940
L87250 28060
" />
<path d="M88250 27940
L88250 28060
" />
<path d="M89250 27940
L89250 28060
" />
<path d="M90250 27940
L90250 28060
" />
<path d="M91250 27940
L91250 28060
" />
<path d="M92250 27940
L92250 28060
" />
<path d="M93250 27940
L93250 28060
" />
<path d="M94250 27940
L94250 28060
" />
</g>
<g style="fill:#840000; fill-opacity:0.0; 
stroke:#840000; stroke-width:0; stroke-opacity:1; 
stroke-linecap:round; stroke-linejoin:round;">
</g>
<g style="fill:#840000; fill-opacity:1.0; 
stroke:#840000; stroke-width:0; stroke-opacity:1; 
stroke-linecap:round; stroke-linejoin:round;">
<polyline style="fill-rule:evenodd;"
points="81910,46600
82590,46600
82590,47400
81910,47400
81910,46600
" /> 
</g>
<g style="fill:#840000; fill-opacity:1.0; 
stroke:#840000; stroke-width:680; stroke-opacity:1; 
stroke-linecap:round; stroke-linejoin:round;">
</g>
<g style="fill:#840000; fill-opacity:0.0; 
stroke:#840000; stroke-width:680; stroke-opacity:1; 
stroke-linecap:round; stroke-linejoin:round;">
<path d="M83250 46940
L83250 47060
" />
<path d="M84250 46940
L84250 47060
" />
<path d="M85250 46940
L85250 47060
" />
<path d="M86250 46940
L86250 47060
" />
<path d="M87250 46940
L87250 47060
" />
</g>
<g style="fill:#840000; fill-opacity:0.0; 
stroke:#840000; stroke-width:0; stroke-opacity:1; 
stroke-linecap:round; stroke-linejoin:round;">
</g>
<g style="fill:#840000; fill-opacity:1.0; 
stroke:#840000; stroke-width:0; stroke-opacity:1; 
stroke-linecap:round; stroke-linejoin:round;">
<polyline style="fill-rule:evenodd;"
points="88910,46600
89590,46600
89590,47400
88910,47400
88910,46600
" /> 
</g>
<g style="fill:#840000; fill-opacity:1.0; 
stroke:#840000; stroke-width:680; stroke-opacity:1; 
stroke-linecap:round; stroke-linejoin:round;">
</g>
<g style="fill:#840000; fill-opacity:0.0; 
stroke:#840000; stroke-width:680; stroke-opacity:1; 
stroke-linecap:round; stroke-linejoin:round;">
<path d="M90250 46940
L90250 47060
" />
<path d="M91250 46940
L91250 47060
" />
<path d="M92250 46940
L92250 47060
" />
<path d="M93250 46940
L93250 47060
" />
<path d="M94250 46940
L94250 47060
" />
</g>
<g style="fill:#840000; fill-opacity:1.0; 
stroke:#840000; stroke-width:0; stroke-opacity:1; 
stroke-linecap:round; stroke-linejoin:round;">
<circle cx="87250" cy="29350" r="393.5" /> 
</g>
<g style="fill:#840000; fill-opacity:1.0; 
stroke:#840000; stroke-width:39.3701; stroke-opacity:1; 
stroke-linecap:round; stroke-linejoin:round;">
</g>
<g style="fill:#840000; fill-opacity:1.0; 
stroke:#840000; stroke-width:0; stroke-opacity:1; 
stroke-linecap:round; stroke-linejoin:round;">
<circle cx="88250" cy="29350" r="393.5" /> 
</g>
<g style="fill:#840000; fill-opacity:1.0; 
stroke:#840000; stroke-width:39.3701; stroke-opacity:1; 
stroke-linecap:round; stroke-linejoin:round;">
</g>
<g style="fill:#840000; fill-opacity:1.0; 
stroke:#840000; stroke-width:0; stroke-opacity:1; 
stroke-linecap:round; stroke-linejoin:round;">
<circle cx="97800" cy="41200" r="393.5" /> 
</g>
<g style="fill:#840000; fill-opacity:1.0; 
stroke:#840000; stroke-width:39.3701; stroke-opacity:1; 
stroke-linecap:round; stroke-linejoin:round;">
</g>
<g style="fill:#840000; fill-opacity:1.0; 
stroke:#840000; stroke-width:0; stroke-opacity:1; 
stroke-linecap:round; stroke-linejoin:round;">
<circle cx="97050" cy="28000" r="393.5" /> 
</g>
<g style="fill:#840000; fill-opacity:1.0; 
stroke:#840000; stroke-width:39.3701; stroke-opacity:1; 
stroke-linecap:round; stroke-linejoin:round;">
</g>
<g style="fill:#840000; fill-opacity:1.0; 
stroke:#840000; stroke-width:0; stroke-opacity:1; 
stroke-linecap:round; stroke-linejoin:round;">
<circle cx="98000" cy="28700" r="393.5" /> 
</g>
<g style="fill:#840000; fill-opacity:1.0; 
stroke:#840000; stroke-width:39.3701; stroke-opacity:1; 
stroke-linecap:round; stroke-linejoin:round;">
</g>
<g style="fill:#840000; fill-opacity:1.0; 
stroke:#840000; stroke-width:0; stroke-opacity:1; 
stroke-linecap:round; stroke-linejoin:round;">
<circle cx="98000" cy="36300" r="393.5" /> 
</g>
<g style="fill:#840000; fill-opacity:1.0; 
stroke:#840000; stroke-width:39.3701; stroke-opacity:1; 
stroke-linecap:round; stroke-linejoin:round;">
</g>
<g style="fill:#840000; fill-opacity:1.0; 
stroke:#840000; stroke-width:0; stroke-opacity:1; 
stroke-linecap:round; stroke-linejoin:round;">
<polyline style="fill-rule:evenodd;"
points="96530,47205
96019,47205
96019,46694
96530,46694
96530,47205
" /> 
<circle cx="96275" cy="45965.7" r="255.906" /> 
</g>
<g style="fill:#840000; fill-opacity:1.0; 
stroke:#840000; stroke-width:39.3701; stroke-opacity:1; 
stroke-linecap:round; stroke-linejoin:round;">
</g> 
</svg>
