G04 #@! TF.FileFunction,Copper,L2,Bot,Mixed*
%FSLAX46Y46*%
G04 Gerber Fmt 4.6, Leading zero omitted, Abs format (unit mm)*
G04 Created by KiCad (PCBNEW 4.0.0-1rc2.201511182116+6189~38~ubuntu14.04.1-stable) date lun 23 nov 2015 17:51:22 ART*
%MOMM*%
G01*
G04 APERTURE LIST*
%ADD10C,0.150000*%
%ADD11O,1.501140X0.899160*%
%ADD12O,1.524000X2.540000*%
%ADD13R,1.699260X1.699260*%
%ADD14R,2.540000X2.540000*%
%ADD15C,1.998980*%
%ADD16C,3.000000*%
%ADD17C,2.499360*%
%ADD18O,1.727200X2.032000*%
%ADD19R,1.727200X2.032000*%
%ADD20R,1.300000X1.300000*%
%ADD21C,1.300000*%
%ADD22C,1.254000*%
%ADD23C,0.540000*%
%ADD24C,0.254000*%
G04 APERTURE END LIST*
D10*
D11*
X207010000Y-105029000D03*
X207010000Y-106299000D03*
X207010000Y-103759000D03*
D12*
X239395000Y-119380000D03*
X236855000Y-119380000D03*
X234315000Y-119380000D03*
X226695000Y-119380000D03*
X229235000Y-119380000D03*
X231775000Y-119380000D03*
X221615000Y-119380000D03*
X219075000Y-119380000D03*
X216535000Y-119380000D03*
X211455000Y-119380000D03*
X208915000Y-119380000D03*
X239395000Y-71120000D03*
X236855000Y-71120000D03*
X234315000Y-71120000D03*
X231775000Y-71120000D03*
X229235000Y-71120000D03*
X226695000Y-71120000D03*
X224155000Y-71120000D03*
X221615000Y-71120000D03*
X217551000Y-71120000D03*
X215011000Y-71120000D03*
X212471000Y-71120000D03*
X209931000Y-71120000D03*
X207391000Y-71120000D03*
X204851000Y-71120000D03*
X202311000Y-71120000D03*
X199771000Y-71120000D03*
X213995000Y-119380000D03*
D11*
X240030000Y-102743000D03*
X240030000Y-101473000D03*
X240030000Y-104013000D03*
D13*
X202689460Y-98932480D03*
X202689460Y-109092480D03*
X235709460Y-79755480D03*
X235709460Y-89915480D03*
D14*
X180340000Y-117475000D03*
X185420000Y-117475000D03*
X191135000Y-117475000D03*
X196215000Y-117475000D03*
X185420000Y-72898000D03*
X180340000Y-72898000D03*
X195834000Y-72898000D03*
X190754000Y-72898000D03*
X254254000Y-76708000D03*
X254254000Y-71628000D03*
X254254000Y-87376000D03*
X254254000Y-82296000D03*
X254254000Y-98044000D03*
X254254000Y-92964000D03*
X254254000Y-108712000D03*
X254254000Y-103632000D03*
D15*
X245110000Y-104648000D03*
X245110000Y-94488000D03*
X243840000Y-88265000D03*
X243840000Y-78105000D03*
X204978000Y-93472000D03*
X215138000Y-93472000D03*
X204978000Y-96012000D03*
X215138000Y-96012000D03*
D13*
X235963460Y-98805480D03*
X235963460Y-108965480D03*
D14*
X248920000Y-116840000D03*
X254000000Y-116840000D03*
D13*
X200784460Y-83184480D03*
X200784460Y-93344480D03*
D11*
X205486000Y-86106000D03*
X205486000Y-87376000D03*
X205486000Y-84836000D03*
X239966500Y-83693000D03*
X239966500Y-84963000D03*
X239966500Y-82423000D03*
D16*
X194900000Y-97836000D03*
X182700000Y-97836000D03*
X182650000Y-109886000D03*
X194900000Y-109836000D03*
X196850000Y-103886000D03*
X195281000Y-81072000D03*
X183081000Y-81072000D03*
X183031000Y-93122000D03*
X195281000Y-93072000D03*
X197231000Y-87122000D03*
X228301000Y-78151000D03*
X216101000Y-78151000D03*
X216051000Y-90201000D03*
X228301000Y-90151000D03*
X230251000Y-84201000D03*
X228428000Y-99106000D03*
X216228000Y-99106000D03*
X216178000Y-111156000D03*
X228428000Y-111106000D03*
X230378000Y-105156000D03*
D17*
X207645000Y-80772000D03*
D15*
X233426000Y-87122000D03*
D18*
X199771000Y-71120000D03*
X202311000Y-71120000D03*
X204851000Y-71120000D03*
X207391000Y-71120000D03*
X209931000Y-71120000D03*
X212471000Y-71120000D03*
X215011000Y-71120000D03*
X217551000Y-71120000D03*
X221615000Y-71120000D03*
X224155000Y-71120000D03*
X226695000Y-71120000D03*
X229235000Y-71120000D03*
X231775000Y-71120000D03*
X234315000Y-71120000D03*
X236855000Y-71120000D03*
X239395000Y-71120000D03*
D19*
X208915000Y-119380000D03*
D18*
X211455000Y-119380000D03*
X213995000Y-119380000D03*
X216535000Y-119380000D03*
X219075000Y-119380000D03*
X221615000Y-119380000D03*
D19*
X226695000Y-119380000D03*
D18*
X229235000Y-119380000D03*
X231775000Y-119380000D03*
X234315000Y-119380000D03*
X236855000Y-119380000D03*
X239395000Y-119380000D03*
D15*
X221615000Y-74549000D03*
X224155000Y-74549000D03*
X248412000Y-104648000D03*
X246507000Y-71120000D03*
X248920000Y-72898000D03*
X248920000Y-92202000D03*
D20*
X244538500Y-119253000D03*
D21*
X244538500Y-116753000D03*
D22*
X207010000Y-106299000D02*
X207010000Y-106743500D01*
X207010000Y-106743500D02*
X206248000Y-107505500D01*
X206248000Y-107505500D02*
X204978000Y-107505500D01*
X204978000Y-107505500D02*
X202689460Y-105216960D01*
X202689460Y-105216960D02*
X202689460Y-98932480D01*
X240030000Y-104013000D02*
X240030000Y-107124500D01*
X254000000Y-115379500D02*
X254000000Y-116840000D01*
X251460000Y-112839500D02*
X254000000Y-115379500D01*
X245745000Y-112839500D02*
X251460000Y-112839500D01*
X240030000Y-107124500D02*
X245745000Y-112839500D01*
X240030000Y-101473000D02*
X238630980Y-101473000D01*
X238630980Y-101473000D02*
X235963460Y-98805480D01*
X239966500Y-84963000D02*
X239966500Y-85153500D01*
X239966500Y-85153500D02*
X239077500Y-86042500D01*
X239077500Y-86042500D02*
X237617000Y-86042500D01*
X237617000Y-86042500D02*
X235709460Y-84134960D01*
X235709460Y-84134960D02*
X235709460Y-79755480D01*
X201549000Y-97886520D02*
X201643500Y-97886520D01*
X201643500Y-97886520D02*
X202689460Y-98932480D01*
X248920000Y-116840000D02*
X244602000Y-116840000D01*
D23*
X244602000Y-116840000D02*
X244475000Y-116713000D01*
X243840000Y-88265000D02*
X243840000Y-88011000D01*
X243840000Y-88011000D02*
X242189000Y-86360000D01*
X242189000Y-86360000D02*
X242189000Y-83947000D01*
X242189000Y-83947000D02*
X241935000Y-83693000D01*
X254254000Y-87376000D02*
X252222000Y-87376000D01*
X250063000Y-74041000D02*
X248920000Y-72898000D01*
X250063000Y-85217000D02*
X250063000Y-74041000D01*
X252222000Y-87376000D02*
X250063000Y-85217000D01*
X254254000Y-98044000D02*
X252349000Y-98044000D01*
X248920000Y-94615000D02*
X248920000Y-92202000D01*
X252349000Y-98044000D02*
X248920000Y-94615000D01*
X246507000Y-71120000D02*
X250444000Y-71120000D01*
X254254000Y-74930000D02*
X254254000Y-76708000D01*
X250444000Y-71120000D02*
X254254000Y-74930000D01*
X224155000Y-78867000D02*
X213106000Y-89916000D01*
X224155000Y-74549000D02*
X224155000Y-78867000D01*
X221615000Y-74549000D02*
X221615000Y-78740000D01*
X221615000Y-78740000D02*
X221488000Y-78867000D01*
D22*
X254000000Y-116840000D02*
X254000000Y-118618000D01*
X253238000Y-119380000D02*
X244602000Y-119380000D01*
X254000000Y-118618000D02*
X253238000Y-119380000D01*
X233426000Y-87122000D02*
X233426000Y-84836000D01*
X232791000Y-84201000D02*
X230251000Y-84201000D01*
D23*
X233426000Y-84836000D02*
X232791000Y-84201000D01*
D22*
X207645000Y-80772000D02*
X199390000Y-80772000D01*
X199390000Y-80772000D02*
X195834000Y-77216000D01*
D23*
X195834000Y-77216000D02*
X195072000Y-77216000D01*
D22*
X195072000Y-77216000D02*
X190754000Y-72898000D01*
D23*
X254254000Y-103632000D02*
X255397000Y-103632000D01*
D22*
X255397000Y-103632000D02*
X258572000Y-106807000D01*
D23*
X254254000Y-92964000D02*
X255524000Y-92964000D01*
D22*
X255524000Y-92964000D02*
X258572000Y-96012000D01*
D23*
X254254000Y-82296000D02*
X255397000Y-82296000D01*
D22*
X255397000Y-82296000D02*
X258572000Y-85471000D01*
X254000000Y-116840000D02*
X254000000Y-114681000D01*
X258572000Y-75946000D02*
X254254000Y-71628000D01*
X258572000Y-110109000D02*
X258572000Y-106807000D01*
X258572000Y-106807000D02*
X258572000Y-96012000D01*
D23*
X258572000Y-96012000D02*
X258572000Y-85471000D01*
X258572000Y-85471000D02*
X258572000Y-75946000D01*
D22*
X254000000Y-114681000D02*
X258572000Y-110109000D01*
D23*
X235963460Y-108965480D02*
X235963460Y-108582460D01*
D22*
X235963460Y-108582460D02*
X233807000Y-106426000D01*
X233807000Y-106426000D02*
X233807000Y-103759000D01*
X233807000Y-103759000D02*
X231902000Y-101854000D01*
X231902000Y-101854000D02*
X226187000Y-101854000D01*
X226187000Y-101854000D02*
X225044000Y-100711000D01*
X225044000Y-100711000D02*
X225044000Y-93408000D01*
X225044000Y-93408000D02*
X228301000Y-90151000D01*
X235709460Y-80134460D02*
X235709460Y-79755480D01*
D23*
X240157000Y-83693000D02*
X241935000Y-83693000D01*
X241935000Y-83693000D02*
X242062000Y-83693000D01*
X208915000Y-105029000D02*
X207010000Y-105029000D01*
X205486000Y-86106000D02*
X207137000Y-86106000D01*
X213106000Y-90932000D02*
X213106000Y-89916000D01*
X215138000Y-92964000D02*
X213106000Y-90932000D01*
X213106000Y-89916000D02*
X213106000Y-90297000D01*
X213106000Y-90297000D02*
X213106000Y-89916000D01*
D22*
X235841540Y-109093520D02*
X230501940Y-109093520D01*
X230501940Y-109093520D02*
X228439980Y-111155480D01*
D23*
X214884000Y-96012000D02*
X214884000Y-96393000D01*
X214884000Y-96393000D02*
X212598000Y-98679000D01*
X212598000Y-98679000D02*
X212598000Y-101346000D01*
X212598000Y-101346000D02*
X208915000Y-105029000D01*
X215138000Y-93472000D02*
X215138000Y-92964000D01*
D22*
X235709460Y-89915480D02*
X228597980Y-89915480D01*
D23*
X228597980Y-89915480D02*
X228312980Y-90200480D01*
D22*
X235966000Y-99060000D02*
X228536500Y-99060000D01*
D23*
X228536500Y-99060000D02*
X228439980Y-99156520D01*
X242062000Y-83693000D02*
X242062000Y-83820000D01*
D22*
X235458000Y-79883000D02*
X229994460Y-79883000D01*
X229994460Y-79883000D02*
X228312980Y-78201520D01*
X230441500Y-105156000D02*
X217424000Y-105156000D01*
X217424000Y-105156000D02*
X205105000Y-117475000D01*
X205105000Y-117475000D02*
X196215000Y-117475000D01*
D23*
X191135000Y-117475000D02*
X191897000Y-117475000D01*
D22*
X191897000Y-117475000D02*
X197231000Y-112141000D01*
X204851000Y-112141000D02*
X216242900Y-100749100D01*
X197231000Y-112141000D02*
X204851000Y-112141000D01*
D23*
X216242900Y-100749100D02*
X216242900Y-99156520D01*
D22*
X185420000Y-117475000D02*
X185420000Y-113284000D01*
X185420000Y-113284000D02*
X194818000Y-103886000D01*
X194818000Y-103886000D02*
X197167500Y-103886000D01*
X182968900Y-97886520D02*
X182968900Y-103289100D01*
X180340000Y-105918000D02*
X180340000Y-117475000D01*
X182968900Y-103289100D02*
X180340000Y-105918000D01*
X195834000Y-72898000D02*
X199136000Y-76200000D01*
X199136000Y-76200000D02*
X214114380Y-76200000D01*
X214114380Y-76200000D02*
X216115900Y-78201520D01*
X180340000Y-72898000D02*
X180340000Y-78493620D01*
X180340000Y-78493620D02*
X182968900Y-81122520D01*
X185420000Y-72898000D02*
X185420000Y-75374500D01*
X185420000Y-75374500D02*
X197167500Y-87122000D01*
D23*
X204978000Y-96012000D02*
X206756000Y-96012000D01*
X210566000Y-92202000D02*
X210566000Y-89789000D01*
X206756000Y-96012000D02*
X210566000Y-92202000D01*
X210566000Y-89789000D02*
X221615000Y-78740000D01*
X204978000Y-93472000D02*
X204978000Y-91694000D01*
X204978000Y-91694000D02*
X207137000Y-89535000D01*
X207137000Y-89535000D02*
X207137000Y-86106000D01*
D24*
X194818000Y-103886000D02*
X197167500Y-103886000D01*
X185420000Y-113284000D02*
X194818000Y-103886000D01*
X214114380Y-76200000D02*
X216115900Y-78201520D01*
X199136000Y-76200000D02*
X214114380Y-76200000D01*
X185420000Y-75374500D02*
X197167500Y-87122000D01*
X180340000Y-78493620D02*
X182968900Y-81122520D01*
X182968900Y-97124520D02*
X182968900Y-103035100D01*
X180340000Y-105664000D02*
X180340000Y-117475000D01*
X182968900Y-103035100D02*
X180340000Y-105664000D01*
X191897000Y-117475000D02*
X197104000Y-112268000D01*
X197104000Y-112268000D02*
X204724000Y-112268000D01*
X204724000Y-112268000D02*
X216242900Y-100749100D01*
X216242900Y-100749100D02*
X216242900Y-99156520D01*
X196215000Y-117475000D02*
X205105000Y-117475000D01*
X205105000Y-117475000D02*
X217424000Y-105156000D01*
D22*
X254254000Y-108712000D02*
X252476000Y-108712000D01*
X252476000Y-108712000D02*
X248412000Y-104648000D01*
D24*
X221488000Y-78740000D02*
X221488000Y-78867000D01*
X221615000Y-78740000D02*
X221488000Y-78740000D01*
X210566000Y-89789000D02*
X221488000Y-78867000D01*
X212598000Y-101346000D02*
X208915000Y-105029000D01*
X207137000Y-89535000D02*
X207137000Y-86106000D01*
X204978000Y-91694000D02*
X207137000Y-89535000D01*
X221742000Y-119380000D02*
X221615000Y-119380000D01*
X195196460Y-109093000D02*
X195165980Y-109123480D01*
X228536500Y-99060000D02*
X228439980Y-99156520D01*
X229994460Y-79883000D02*
X228312980Y-78201520D01*
D22*
X195165980Y-97886520D02*
X201549000Y-97886520D01*
D23*
X201643500Y-97886520D02*
X202689460Y-98932480D01*
X195165980Y-97886520D02*
X195927980Y-97886520D01*
D22*
X205486000Y-87376000D02*
X205486000Y-87947500D01*
X200784460Y-86928960D02*
X200784460Y-83184480D01*
X202946000Y-89090500D02*
X200784460Y-86928960D01*
X204343000Y-89090500D02*
X202946000Y-89090500D01*
X205486000Y-87947500D02*
X204343000Y-89090500D01*
X200660000Y-83312000D02*
X197355460Y-83312000D01*
X197355460Y-83312000D02*
X195165980Y-81122520D01*
D24*
X197355460Y-83312000D02*
X195165980Y-81122520D01*
D23*
X195281000Y-93072000D02*
X195281000Y-93136000D01*
D22*
X195281000Y-93136000D02*
X190881000Y-97536000D01*
X190881000Y-97536000D02*
X190881000Y-98679000D01*
X190881000Y-98679000D02*
X192659000Y-100457000D01*
X192659000Y-100457000D02*
X198628000Y-100457000D01*
X198628000Y-100457000D02*
X200787000Y-102616000D01*
X200787000Y-102616000D02*
X200787000Y-107190020D01*
X200787000Y-107190020D02*
X202689460Y-109092480D01*
X200784460Y-93344480D02*
X195388980Y-93344480D01*
D23*
X195388980Y-93344480D02*
X195165980Y-93121480D01*
D22*
X202692000Y-109093000D02*
X195958460Y-109093000D01*
D23*
X195958460Y-109093000D02*
X195165980Y-109885480D01*
X241935000Y-102743000D02*
X240030000Y-102743000D01*
X245110000Y-104648000D02*
X243840000Y-104648000D01*
X243840000Y-104648000D02*
X241935000Y-102743000D01*
D24*
X242189000Y-102997000D02*
X241935000Y-102743000D01*
M02*
